%!PS-Adobe-3.0 EPSF-3.0
%%Title: ../smc20/figures/convergence-per_variable-airfoil_2d-300.eps
%%Creator: matplotlib version 3.2.1, http://matplotlib.org/
%%CreationDate: Wed Sep  2 10:17:36 2020
%%Orientation: portrait
%%BoundingBox: 138.73000000000005 311.28875 473.27 480.71124999999995
%%EndComments
%%BeginProlog
/mpldict 8 dict def
mpldict begin
/m { moveto } bind def
/l { lineto } bind def
/r { rlineto } bind def
/c { curveto } bind def
/cl { closepath } bind def
/box {
m
1 index 0 r
0 exch r
neg 0 r
cl
} bind def
/clipbox {
box
clip
newpath
} bind def
%!PS-Adobe-3.0 Resource-Font
%%Title: DejaVu Sans
%%Copyright: Copyright (c) 2003 by Bitstream, Inc. All Rights Reserved. Copyright (c) 2006 by Tavmjong Bah. All Rights Reserved. DejaVu changes are in public domain 
%%Creator: Converted from TrueType to type 3 by PPR
25 dict begin
/_d{bind def}bind def
/_m{moveto}_d
/_l{lineto}_d
/_cl{closepath eofill}_d
/_c{curveto}_d
/_sc{7 -1 roll{setcachedevice}{pop pop pop pop pop pop}ifelse}_d
/_e{exec}_d
/FontName /DejaVuSans def
/PaintType 0 def
/FontMatrix[.001 0 0 .001 0 0]def
/FontBBox[-1021 -463 1793 1232]def
/FontType 3 def
/Encoding [ /space /zero /one /two /three /four /six /seven /eight /B /C /D /E /I /N /R /S /V /a /b /c /d /e /f /g /i /k /l /m /n /o /r /s /t /u /w /minus ] def
/FontInfo 10 dict dup begin
/FamilyName (DejaVu Sans) def
/FullName (DejaVu Sans) def
/Notice (Copyright (c) 2003 by Bitstream, Inc. All Rights Reserved. Copyright (c) 2006 by Tavmjong Bah. All Rights Reserved. DejaVu changes are in public domain ) def
/Weight (Book) def
/Version (Version 2.35) def
/ItalicAngle 0.0 def
/isFixedPitch false def
/UnderlinePosition -130 def
/UnderlineThickness 90 def
end readonly def
/CharStrings 38 dict dup begin
/.notdef 0 def
/space{318 0 0 0 0 0 _sc
}_d
/zero{636 0 66 -13 570 742 _sc
318 664 _m
267 664 229 639 203 589 _c
177 539 165 464 165 364 _c
165 264 177 189 203 139 _c
229 89 267 64 318 64 _c
369 64 407 89 433 139 _c
458 189 471 264 471 364 _c
471 464 458 539 433 589 _c
407 639 369 664 318 664 _c
318 742 _m
399 742 461 709 505 645 _c
548 580 570 486 570 364 _c
570 241 548 147 505 83 _c
461 19 399 -13 318 -13 _c
236 -13 173 19 130 83 _c
87 147 66 241 66 364 _c
66 486 87 580 130 645 _c
173 709 236 742 318 742 _c
_cl}_d
/one{636 0 110 0 544 729 _sc
124 83 _m
285 83 _l
285 639 _l
110 604 _l
110 694 _l
284 729 _l
383 729 _l
383 83 _l
544 83 _l
544 0 _l
124 0 _l
124 83 _l
_cl}_d
/two{{636 0 73 0 536 742 _sc
192 83 _m
536 83 _l
536 0 _l
73 0 _l
73 83 _l
110 121 161 173 226 239 _c
290 304 331 346 348 365 _c
380 400 402 430 414 455 _c
426 479 433 504 433 528 _c
433 566 419 598 392 622 _c
365 646 330 659 286 659 _c
255 659 222 653 188 643 _c
154 632 117 616 78 594 _c
78 694 _l
118 710 155 722 189 730 _c
223 738 255 742 284 742 _c
}_e{359 742 419 723 464 685 _c
509 647 532 597 532 534 _c
532 504 526 475 515 449 _c
504 422 484 390 454 354 _c
446 344 420 317 376 272 _c
332 227 271 164 192 83 _c
_cl}_e}_d
/three{{636 0 76 -13 556 742 _sc
406 393 _m
453 383 490 362 516 330 _c
542 298 556 258 556 212 _c
556 140 531 84 482 45 _c
432 6 362 -13 271 -13 _c
240 -13 208 -10 176 -4 _c
144 1 110 10 76 22 _c
76 117 _l
103 101 133 89 166 81 _c
198 73 232 69 268 69 _c
330 69 377 81 409 105 _c
441 129 458 165 458 212 _c
458 254 443 288 413 312 _c
383 336 341 349 287 349 _c
}_e{202 349 _l
202 430 _l
291 430 _l
339 430 376 439 402 459 _c
428 478 441 506 441 543 _c
441 580 427 609 401 629 _c
374 649 336 659 287 659 _c
260 659 231 656 200 650 _c
169 644 135 635 98 623 _c
98 711 _l
135 721 170 729 203 734 _c
235 739 266 742 296 742 _c
370 742 429 725 473 691 _c
517 657 539 611 539 553 _c
539 513 527 479 504 451 _c
481 423 448 403 406 393 _c
_cl}_e}_d
/four{636 0 49 0 580 729 _sc
378 643 _m
129 254 _l
378 254 _l
378 643 _l
352 729 _m
476 729 _l
476 254 _l
580 254 _l
580 172 _l
476 172 _l
476 0 _l
378 0 _l
378 172 _l
49 172 _l
49 267 _l
352 729 _l
_cl}_d
/six{{636 0 70 -13 573 742 _sc
330 404 _m
286 404 251 388 225 358 _c
199 328 186 286 186 234 _c
186 181 199 139 225 109 _c
251 79 286 64 330 64 _c
374 64 409 79 435 109 _c
461 139 474 181 474 234 _c
474 286 461 328 435 358 _c
409 388 374 404 330 404 _c
526 713 _m
526 623 _l
501 635 476 644 451 650 _c
425 656 400 659 376 659 _c
310 659 260 637 226 593 _c
}_e{192 549 172 482 168 394 _c
187 422 211 444 240 459 _c
269 474 301 482 336 482 _c
409 482 467 459 509 415 _c
551 371 573 310 573 234 _c
573 159 550 99 506 54 _c
462 9 403 -13 330 -13 _c
246 -13 181 19 137 83 _c
92 147 70 241 70 364 _c
70 479 97 571 152 639 _c
206 707 280 742 372 742 _c
396 742 421 739 447 735 _c
472 730 498 723 526 713 _c
_cl}_e}_d
/seven{636 0 82 0 551 729 _sc
82 729 _m
551 729 _l
551 687 _l
286 0 _l
183 0 _l
432 646 _l
82 646 _l
82 729 _l
_cl}_d
/eight{{636 0 68 -13 568 742 _sc
318 346 _m
271 346 234 333 207 308 _c
180 283 167 249 167 205 _c
167 161 180 126 207 101 _c
234 76 271 64 318 64 _c
364 64 401 76 428 102 _c
455 127 469 161 469 205 _c
469 249 455 283 429 308 _c
402 333 365 346 318 346 _c
219 388 _m
177 398 144 418 120 447 _c
96 476 85 511 85 553 _c
85 611 105 657 147 691 _c
188 725 245 742 318 742 _c
}_e{390 742 447 725 489 691 _c
530 657 551 611 551 553 _c
551 511 539 476 515 447 _c
491 418 459 398 417 388 _c
464 377 501 355 528 323 _c
554 291 568 251 568 205 _c
568 134 546 80 503 43 _c
459 5 398 -13 318 -13 _c
237 -13 175 5 132 43 _c
89 80 68 134 68 205 _c
68 251 81 291 108 323 _c
134 355 171 377 219 388 _c
183 544 _m
183 506 194 476 218 455 _c
}_e{242 434 275 424 318 424 _c
360 424 393 434 417 455 _c
441 476 453 506 453 544 _c
453 582 441 611 417 632 _c
393 653 360 664 318 664 _c
275 664 242 653 218 632 _c
194 611 183 582 183 544 _c
_cl}_e}_d
/B{{686 0 98 0 615 729 _sc
197 348 _m
197 81 _l
355 81 _l
408 81 447 92 473 114 _c
498 136 511 169 511 215 _c
511 260 498 293 473 315 _c
447 337 408 348 355 348 _c
197 348 _l
197 648 _m
197 428 _l
343 428 _l
391 428 426 437 450 455 _c
474 473 486 500 486 538 _c
486 574 474 602 450 620 _c
426 638 391 648 343 648 _c
197 648 _l
98 729 _m
350 729 _l
}_e{425 729 483 713 524 682 _c
564 650 585 606 585 549 _c
585 504 574 468 553 442 _c
532 416 502 399 462 393 _c
510 382 548 360 575 327 _c
601 294 615 253 615 204 _c
615 138 592 88 548 53 _c
504 17 441 0 360 0 _c
98 0 _l
98 729 _l
_cl}_e}_d
/C{{698 0 56 -13 644 742 _sc
644 673 _m
644 569 _l
610 599 575 622 537 638 _c
499 653 460 661 418 661 _c
334 661 270 635 226 584 _c
182 533 160 460 160 364 _c
160 268 182 194 226 143 _c
270 92 334 67 418 67 _c
460 67 499 74 537 90 _c
575 105 610 128 644 159 _c
644 56 _l
609 32 572 15 534 4 _c
496 -7 455 -13 412 -13 _c
302 -13 215 20 151 87 _c
}_e{87 154 56 246 56 364 _c
56 481 87 573 151 641 _c
215 708 302 742 412 742 _c
456 742 497 736 535 725 _c
573 713 610 696 644 673 _c
_cl}_e}_d
/D{770 0 98 0 711 729 _sc
197 648 _m
197 81 _l
316 81 _l
416 81 490 103 537 149 _c
583 195 607 267 607 365 _c
607 463 583 534 537 580 _c
490 625 416 648 316 648 _c
197 648 _l
98 729 _m
301 729 _l
442 729 546 699 612 641 _c
678 582 711 490 711 365 _c
711 239 677 147 611 88 _c
545 29 441 0 301 0 _c
98 0 _l
98 729 _l
_cl}_d
/E{632 0 98 0 568 729 _sc
98 729 _m
559 729 _l
559 646 _l
197 646 _l
197 430 _l
544 430 _l
544 347 _l
197 347 _l
197 83 _l
568 83 _l
568 0 _l
98 0 _l
98 729 _l
_cl}_d
/I{295 0 98 0 197 729 _sc
98 729 _m
197 729 _l
197 0 _l
98 0 _l
98 729 _l
_cl}_d
/N{748 0 98 0 650 729 _sc
98 729 _m
231 729 _l
554 119 _l
554 729 _l
650 729 _l
650 0 _l
517 0 _l
194 610 _l
194 0 _l
98 0 _l
98 729 _l
_cl}_d
/R{{695 0 98 0 666 729 _sc
444 342 _m
465 334 486 319 506 296 _c
526 272 546 240 566 199 _c
666 0 _l
560 0 _l
467 187 _l
443 235 419 268 397 284 _c
374 300 343 308 304 308 _c
197 308 _l
197 0 _l
98 0 _l
98 729 _l
321 729 _l
404 729 466 711 507 677 _c
548 642 569 589 569 519 _c
569 473 558 434 537 404 _c
515 374 484 353 444 342 _c
197 648 _m
197 389 _l
321 389 _l
}_e{368 389 404 400 428 422 _c
452 444 465 476 465 519 _c
465 561 452 593 428 615 _c
404 637 368 648 321 648 _c
197 648 _l
_cl}_e}_d
/S{{635 0 66 -13 579 742 _sc
535 705 _m
535 609 _l
497 627 462 640 429 649 _c
395 657 363 662 333 662 _c
279 662 237 651 208 631 _c
179 610 165 580 165 542 _c
165 510 174 485 194 469 _c
213 452 250 439 304 429 _c
364 417 _l
437 403 491 378 526 343 _c
561 307 579 260 579 201 _c
579 130 555 77 508 41 _c
460 5 391 -13 300 -13 _c
265 -13 228 -9 189 -2 _c
}_e{150 5 110 16 69 32 _c
69 134 _l
109 111 148 94 186 83 _c
224 71 262 66 300 66 _c
356 66 399 77 430 99 _c
460 121 476 152 476 194 _c
476 230 465 258 443 278 _c
421 298 385 313 335 323 _c
275 335 _l
201 349 148 372 115 404 _c
82 435 66 478 66 534 _c
66 598 88 649 134 686 _c
179 723 242 742 322 742 _c
356 742 390 739 426 733 _c
461 727 497 717 535 705 _c
}_e{_cl}_e}_d
/V{684 0 8 0 676 729 _sc
286 0 _m
8 729 _l
111 729 _l
342 115 _l
573 729 _l
676 729 _l
398 0 _l
286 0 _l
_cl}_d
/a{{613 0 60 -13 522 560 _sc
343 275 _m
270 275 220 266 192 250 _c
164 233 150 205 150 165 _c
150 133 160 107 181 89 _c
202 70 231 61 267 61 _c
317 61 357 78 387 114 _c
417 149 432 196 432 255 _c
432 275 _l
343 275 _l
522 312 _m
522 0 _l
432 0 _l
432 83 _l
411 49 385 25 355 10 _c
325 -5 287 -13 243 -13 _c
187 -13 142 2 109 33 _c
76 64 60 106 60 159 _c
}_e{60 220 80 266 122 298 _c
163 329 224 345 306 345 _c
432 345 _l
432 354 _l
432 395 418 427 391 450 _c
364 472 326 484 277 484 _c
245 484 215 480 185 472 _c
155 464 127 453 100 439 _c
100 522 _l
132 534 164 544 195 550 _c
226 556 256 560 286 560 _c
365 560 424 539 463 498 _c
502 457 522 395 522 312 _c
_cl}_e}_d
/b{{635 0 91 -13 580 760 _sc
487 273 _m
487 339 473 390 446 428 _c
418 466 381 485 334 485 _c
286 485 249 466 222 428 _c
194 390 181 339 181 273 _c
181 207 194 155 222 117 _c
249 79 286 61 334 61 _c
381 61 418 79 446 117 _c
473 155 487 207 487 273 _c
181 464 _m
199 496 223 520 252 536 _c
281 552 316 560 356 560 _c
422 560 476 533 518 481 _c
559 428 580 359 580 273 _c
}_e{580 187 559 117 518 65 _c
476 13 422 -13 356 -13 _c
316 -13 281 -5 252 10 _c
223 25 199 49 181 82 _c
181 0 _l
91 0 _l
91 760 _l
181 760 _l
181 464 _l
_cl}_e}_d
/c{{550 0 55 -13 488 560 _sc
488 526 _m
488 442 _l
462 456 437 466 411 473 _c
385 480 360 484 334 484 _c
276 484 230 465 198 428 _c
166 391 150 339 150 273 _c
150 206 166 154 198 117 _c
230 80 276 62 334 62 _c
360 62 385 65 411 72 _c
437 79 462 90 488 104 _c
488 21 _l
462 9 436 0 410 -5 _c
383 -10 354 -13 324 -13 _c
242 -13 176 12 128 64 _c
}_e{79 115 55 185 55 273 _c
55 362 79 432 128 483 _c
177 534 244 560 330 560 _c
358 560 385 557 411 551 _c
437 545 463 537 488 526 _c
_cl}_e}_d
/d{{635 0 55 -13 544 760 _sc
454 464 _m
454 760 _l
544 760 _l
544 0 _l
454 0 _l
454 82 _l
435 49 411 25 382 10 _c
353 -5 319 -13 279 -13 _c
213 -13 159 13 117 65 _c
75 117 55 187 55 273 _c
55 359 75 428 117 481 _c
159 533 213 560 279 560 _c
319 560 353 552 382 536 _c
411 520 435 496 454 464 _c
148 273 _m
148 207 161 155 188 117 _c
215 79 253 61 301 61 _c
}_e{348 61 385 79 413 117 _c
440 155 454 207 454 273 _c
454 339 440 390 413 428 _c
385 466 348 485 301 485 _c
253 485 215 466 188 428 _c
161 390 148 339 148 273 _c
_cl}_e}_d
/e{{615 0 55 -13 562 560 _sc
562 296 _m
562 252 _l
149 252 _l
153 190 171 142 205 110 _c
238 78 284 62 344 62 _c
378 62 412 66 444 74 _c
476 82 509 95 541 113 _c
541 28 _l
509 14 476 3 442 -3 _c
408 -9 373 -13 339 -13 _c
251 -13 182 12 131 62 _c
80 112 55 181 55 268 _c
55 357 79 428 127 481 _c
175 533 241 560 323 560 _c
397 560 455 536 498 489 _c
}_e{540 441 562 377 562 296 _c
472 322 _m
471 371 457 410 431 440 _c
404 469 368 484 324 484 _c
274 484 234 469 204 441 _c
174 413 156 373 152 322 _c
472 322 _l
_cl}_e}_d
/f{352 0 23 0 371 760 _sc
371 760 _m
371 685 _l
285 685 _l
253 685 230 678 218 665 _c
205 652 199 629 199 595 _c
199 547 _l
347 547 _l
347 477 _l
199 477 _l
199 0 _l
109 0 _l
109 477 _l
23 477 _l
23 547 _l
109 547 _l
109 585 _l
109 645 123 690 151 718 _c
179 746 224 760 286 760 _c
371 760 _l
_cl}_d
/g{{635 0 55 -207 544 560 _sc
454 280 _m
454 344 440 395 414 431 _c
387 467 349 485 301 485 _c
253 485 215 467 188 431 _c
161 395 148 344 148 280 _c
148 215 161 165 188 129 _c
215 93 253 75 301 75 _c
349 75 387 93 414 129 _c
440 165 454 215 454 280 _c
544 68 _m
544 -24 523 -93 482 -139 _c
440 -184 377 -207 292 -207 _c
260 -207 231 -204 203 -200 _c
175 -195 147 -188 121 -178 _c
}_e{121 -91 _l
147 -105 173 -115 199 -122 _c
225 -129 251 -133 278 -133 _c
336 -133 380 -117 410 -87 _c
439 -56 454 -10 454 52 _c
454 96 _l
435 64 411 40 382 24 _c
353 8 319 0 279 0 _c
211 0 157 25 116 76 _c
75 127 55 195 55 280 _c
55 364 75 432 116 483 _c
157 534 211 560 279 560 _c
319 560 353 552 382 536 _c
411 520 435 496 454 464 _c
454 547 _l
544 547 _l
}_e{544 68 _l
_cl}_e}_d
/i{278 0 94 0 184 760 _sc
94 547 _m
184 547 _l
184 0 _l
94 0 _l
94 547 _l
94 760 _m
184 760 _l
184 646 _l
94 646 _l
94 760 _l
_cl}_d
/k{579 0 91 0 576 760 _sc
91 760 _m
181 760 _l
181 311 _l
449 547 _l
564 547 _l
274 291 _l
576 0 _l
459 0 _l
181 267 _l
181 0 _l
91 0 _l
91 760 _l
_cl}_d
/l{278 0 94 0 184 760 _sc
94 760 _m
184 760 _l
184 0 _l
94 0 _l
94 760 _l
_cl}_d
/m{{974 0 91 0 889 560 _sc
520 442 _m
542 482 569 511 600 531 _c
631 550 668 560 711 560 _c
767 560 811 540 842 500 _c
873 460 889 403 889 330 _c
889 0 _l
799 0 _l
799 327 _l
799 379 789 418 771 444 _c
752 469 724 482 686 482 _c
639 482 602 466 575 435 _c
548 404 535 362 535 309 _c
535 0 _l
445 0 _l
445 327 _l
445 379 435 418 417 444 _c
398 469 369 482 331 482 _c
}_e{285 482 248 466 221 435 _c
194 404 181 362 181 309 _c
181 0 _l
91 0 _l
91 547 _l
181 547 _l
181 462 _l
201 495 226 520 255 536 _c
283 552 317 560 357 560 _c
397 560 430 550 458 530 _c
486 510 506 480 520 442 _c
_cl}_e}_d
/n{634 0 91 0 549 560 _sc
549 330 _m
549 0 _l
459 0 _l
459 327 _l
459 379 448 417 428 443 _c
408 469 378 482 338 482 _c
289 482 251 466 223 435 _c
195 404 181 362 181 309 _c
181 0 _l
91 0 _l
91 547 _l
181 547 _l
181 462 _l
202 494 227 519 257 535 _c
286 551 320 560 358 560 _c
420 560 468 540 500 501 _c
532 462 549 405 549 330 _c
_cl}_d
/o{612 0 55 -13 557 560 _sc
306 484 _m
258 484 220 465 192 427 _c
164 389 150 338 150 273 _c
150 207 163 156 191 118 _c
219 80 257 62 306 62 _c
354 62 392 80 420 118 _c
448 156 462 207 462 273 _c
462 337 448 389 420 427 _c
392 465 354 484 306 484 _c
306 560 _m
384 560 445 534 490 484 _c
534 433 557 363 557 273 _c
557 183 534 113 490 63 _c
445 12 384 -13 306 -13 _c
227 -13 165 12 121 63 _c
77 113 55 183 55 273 _c
55 363 77 433 121 484 _c
165 534 227 560 306 560 _c
_cl}_d
/r{411 0 91 0 411 560 _sc
411 463 _m
401 469 390 473 378 476 _c
366 478 353 480 339 480 _c
288 480 249 463 222 430 _c
194 397 181 350 181 288 _c
181 0 _l
91 0 _l
91 547 _l
181 547 _l
181 462 _l
199 495 224 520 254 536 _c
284 552 321 560 365 560 _c
371 560 378 559 386 559 _c
393 558 401 557 411 555 _c
411 463 _l
_cl}_d
/s{{521 0 54 -13 472 560 _sc
443 531 _m
443 446 _l
417 458 391 468 364 475 _c
336 481 308 485 279 485 _c
234 485 200 478 178 464 _c
156 450 145 430 145 403 _c
145 382 153 366 169 354 _c
185 342 217 330 265 320 _c
296 313 _l
360 299 405 279 432 255 _c
458 230 472 195 472 151 _c
472 100 452 60 412 31 _c
372 1 316 -13 246 -13 _c
216 -13 186 -10 154 -5 _c
}_e{122 0 89 8 54 20 _c
54 113 _l
87 95 120 82 152 74 _c
184 65 216 61 248 61 _c
290 61 323 68 346 82 _c
368 96 380 117 380 144 _c
380 168 371 187 355 200 _c
339 213 303 226 247 238 _c
216 245 _l
160 257 119 275 95 299 _c
70 323 58 356 58 399 _c
58 450 76 490 112 518 _c
148 546 200 560 268 560 _c
301 560 332 557 362 552 _c
391 547 418 540 443 531 _c
}_e{_cl}_e}_d
/t{392 0 27 0 368 702 _sc
183 702 _m
183 547 _l
368 547 _l
368 477 _l
183 477 _l
183 180 _l
183 135 189 106 201 94 _c
213 81 238 75 276 75 _c
368 75 _l
368 0 _l
276 0 _l
206 0 158 13 132 39 _c
106 65 93 112 93 180 _c
93 477 _l
27 477 _l
27 547 _l
93 547 _l
93 702 _l
183 702 _l
_cl}_d
/u{634 0 85 -13 543 560 _sc
85 216 _m
85 547 _l
175 547 _l
175 219 _l
175 167 185 129 205 103 _c
225 77 255 64 296 64 _c
344 64 383 79 411 110 _c
439 141 453 183 453 237 _c
453 547 _l
543 547 _l
543 0 _l
453 0 _l
453 84 _l
431 50 405 26 377 10 _c
348 -5 315 -13 277 -13 _c
214 -13 166 6 134 45 _c
101 83 85 140 85 216 _c
311 560 _m
311 560 _l
_cl}_d
/w{818 0 42 0 776 547 _sc
42 547 _m
132 547 _l
244 120 _l
356 547 _l
462 547 _l
574 120 _l
686 547 _l
776 547 _l
633 0 _l
527 0 _l
409 448 _l
291 0 _l
185 0 _l
42 547 _l
_cl}_d
/minus{838 0 106 272 732 355 _sc
106 355 _m
732 355 _l
732 272 _l
106 272 _l
106 355 _l
_cl}_d
end readonly def

/BuildGlyph
 {exch begin
 CharStrings exch
 2 copy known not{pop /.notdef}if
 true 3 1 roll get exec
 end}_d

/BuildChar {
 1 index /Encoding get exch get
 1 index /BuildGlyph get exec
}_d

FontName currentdict end definefont pop
end
%%EndProlog
mpldict begin
138.73 311.289 translate
334.54 169.422 0 0 clipbox
gsave
0 -0 m
334.54 -0 l
334.54 169.4225 l
0 169.4225 l
cl
1.000 setgray
fill
grestore
gsave
44.965625 31.73125 m
178.592812 31.73125 l
178.592812 157.68 l
44.965625 157.68 l
cl
1.000 setgray
fill
grestore
1.500 setlinewidth
1 setlinejoin
2 setlinecap
[] 0 setdash
0.149 setgray
gsave
133.6 125.9 44.97 31.73 clipbox
44.965625 151.955057 m
45.233147 146.213248 l
45.768191 141.021124 l
46.436995 137.193471 l
47.239561 134.33441 l
47.640844 133.358751 l
48.175888 131.806199 l
48.844693 129.987253 l
49.245975 129.348832 l
49.91478 128.786044 l
50.316063 127.454008 l
50.851107 125.794129 l
51.386151 125.577768 l
51.653672 125.503317 l
52.456238 124.678053 l
52.857521 124.460515 l
53.660087 123.321817 l
54.730174 120.576887 l
58.074198 110.148171 l
59.278046 106.719044 l
59.946851 106.124411 l
61.685744 105.263267 l
62.488309 105.205084 l
84.960149 105.202216 l
85.22767 98.469847 l
85.762714 94.013862 l
86.297758 91.121622 l
87.367846 87.435611 l
88.972977 84.444719 l
89.240499 84.235313 l
89.775543 84.018285 l
90.444347 83.284036 l
91.514435 81.345701 l
92.049479 79.892392 l
92.317001 79.328539 l
92.584523 78.527611 l
92.985805 77.374353 l
93.65461 76.005603 l
93.922132 75.477749 l
94.323415 74.806826 l
95.259742 72.671704 l
96.196068 69.625868 l
97.132395 65.77861 l
97.934961 63.346343 l
99.406331 61.598521 l
99.941375 60.568463 l
101.011462 59.600536 l
103.017877 59.464682 l
125.088433 59.464201 l
125.355955 52.54158 l
125.890999 48.613542 l
126.426043 46.60691 l
127.362369 44.596759 l
128.031174 42.878927 l
128.699979 41.77699 l
129.235023 40.606257 l
129.636305 40.056843 l
130.840154 39.057264 l
131.910241 38.936526 l
132.044002 38.807974 l
132.177763 38.906117 l
132.846568 38.668132 l
133.247851 38.675624 l
133.649134 38.587382 l
134.050417 38.558954 l
134.317939 38.559889 l
136.190592 38.507359 l
165.216718 38.44998 l
165.350479 37.662332 l
165.48424 37.603839 l
165.751761 37.708964 l
166.019283 37.69102 l
166.688088 37.753149 l
167.089371 37.686849 l
167.490654 37.81127 l
167.624415 37.72743 l
167.891937 37.770163 l
168.828263 37.713494 l
178.592812 37.7948 l
178.592812 37.7948 l
stroke
grestore
gsave
133.6 125.9 44.97 31.73 clipbox
44.965625 151.955057 m
45.233147 146.213248 l
45.768191 141.021124 l
46.436995 137.193471 l
47.239561 134.33441 l
47.640844 133.358741 l
48.175888 131.806183 l
48.844693 129.98728 l
49.245975 129.348882 l
49.91478 128.78602 l
50.316063 127.45405 l
50.851107 125.794129 l
51.386151 125.57783 l
51.653672 125.503306 l
52.456238 124.678039 l
52.857521 124.460413 l
53.660087 123.321569 l
54.730174 120.577165 l
59.411807 105.677854 l
60.883178 102.960807 l
61.685744 100.294329 l
62.220787 99.378723 l
62.488309 99.206528 l
63.825919 99.08538 l
71.450293 99.076806 l
84.960149 99.076806 l
85.22767 92.874633 l
85.762714 88.700195 l
86.431519 85.590036 l
86.699041 84.508233 l
87.234085 83.222893 l
87.635368 82.156439 l
88.170411 81.837793 l
88.571694 81.606148 l
88.972977 81.257067 l
89.240499 81.193368 l
89.775543 81.241221 l
90.043065 81.018237 l
90.578108 80.212028 l
90.979391 79.299659 l
92.450762 74.797066 l
92.852045 74.285333 l
93.119566 73.924257 l
93.922132 71.482907 l
94.457176 70.071632 l
95.661024 66.926145 l
96.329829 65.516928 l
96.864873 63.974899 l
97.399917 61.675654 l
98.336243 57.673346 l
99.27257 54.995285 l
99.673853 53.720399 l
100.208897 51.413451 l
100.743941 49.20436 l
101.546506 47.373766 l
101.947789 46.512668 l
102.482833 45.479272 l
103.151638 44.212989 l
104.087964 41.97169 l
104.355486 41.654714 l
104.89053 41.287106 l
105.559335 41.13712 l
107.967032 41.114727 l
110.50849 41.116754 l
121.209366 41.114604 l
125.088433 41.114604 l
125.222194 38.381732 l
125.489716 37.985492 l
125.890999 37.839447 l
126.292282 37.934691 l
127.763652 37.976898 l
128.164935 37.964862 l
128.566218 37.975113 l
128.83374 37.938562 l
128.967501 38.000366 l
129.101262 37.9225 l
129.368783 37.975687 l
129.903827 37.993365 l
131.508959 37.991304 l
145.82138 37.955156 l
165.216718 37.955156 l
165.48424 37.56025 l
166.286805 37.69689 l
168.159459 37.733201 l
168.828263 37.663916 l
170.299634 37.796045 l
170.968438 37.72579 l
172.841092 37.746196 l
176.586398 37.723287 l
178.592812 37.731729 l
178.592812 37.731729 l
stroke
grestore
gsave
133.6 125.9 44.97 31.73 clipbox
44.965625 151.955057 m
45.233147 146.213248 l
45.768191 141.021124 l
46.436995 137.193471 l
47.239561 134.33441 l
47.640844 133.358741 l
48.175888 131.806183 l
48.844693 129.98728 l
49.245975 129.348882 l
49.91478 128.786028 l
50.316063 127.45405 l
50.851107 125.794139 l
51.386151 125.577841 l
51.653672 125.503328 l
52.456238 124.678039 l
52.857521 124.460384 l
53.660087 123.321487 l
54.730174 120.577222 l
59.411807 105.706199 l
60.883178 103.14273 l
61.551983 101.333017 l
61.953265 100.823261 l
62.220787 100.591489 l
62.755831 100.481704 l
65.832333 100.445623 l
84.960149 100.44552 l
85.22767 93.826754 l
85.628953 90.527252 l
86.030236 88.528177 l
86.699041 86.102867 l
87.635368 82.397762 l
88.170411 81.489801 l
88.705455 80.531765 l
89.106738 79.57893 l
90.176826 76.758275 l
91.246913 74.138646 l
91.915718 72.025379 l
92.317001 70.966187 l
92.584523 70.67514 l
93.520849 69.87896 l
93.65461 69.951224 l
93.922132 70.22589 l
94.323415 70.328808 l
94.590937 70.107287 l
96.597351 65.967256 l
97.533678 63.276955 l
97.934961 62.270053 l
98.336243 61.412753 l
99.138809 58.949023 l
100.208897 55.468857 l
101.546506 51.907821 l
101.947789 51.155782 l
102.616594 50.04644 l
103.151638 49.612153 l
103.55292 49.525558 l
104.623008 49.460036 l
125.088433 49.455047 l
125.355955 42.715661 l
125.757238 39.921214 l
126.158521 38.963774 l
126.961086 38.398611 l
127.228608 38.385453 l
127.49613 38.312596 l
127.897413 38.383959 l
128.031174 38.296575 l
128.164935 38.34398 l
128.432457 38.279749 l
128.699979 38.322258 l
129.101262 38.27681 l
130.037588 38.300739 l
130.30511 38.308158 l
132.044002 38.35574 l
132.980329 38.352612 l
133.381612 38.27649 l
133.782895 38.315331 l
134.719221 38.31628 l
135.655548 38.309167 l
136.591875 38.309398 l
144.483771 38.308677 l
165.216718 38.308821 l
165.350479 37.517075 l
165.618001 37.62325 l
165.885522 37.700796 l
166.153044 37.700986 l
166.554327 37.70449 l
167.223132 37.738277 l
167.490654 37.723097 l
167.758176 37.774827 l
168.962024 37.833495 l
177.790247 37.815382 l
178.592812 37.818175 l
178.592812 37.818175 l
stroke
grestore
gsave
133.6 125.9 44.97 31.73 clipbox
44.965625 151.955053 m
45.233147 146.213248 l
45.768191 141.021124 l
46.436995 137.193471 l
47.239561 134.334402 l
47.640844 133.358751 l
48.175888 131.806151 l
48.844693 129.987253 l
49.245975 129.348915 l
49.91478 128.78606 l
50.316063 127.454109 l
50.851107 125.793914 l
51.386151 125.577768 l
51.653672 125.503285 l
52.456238 124.67782 l
52.857521 124.460384 l
53.660087 123.321136 l
54.730174 120.577425 l
57.00411 113.50168 l
57.405393 112.241626 l
57.940437 110.601957 l
59.010525 107.956377 l
59.278046 107.60162 l
59.946851 107.218195 l
60.214373 107.132718 l
61.953265 106.837879 l
70.781488 106.840298 l
71.584054 106.978872 l
72.52038 107.078931 l
80.144754 107.286527 l
80.813559 107.530905 l
82.151169 107.577284 l
84.960149 107.57812 l
85.22767 98.194995 l
85.628953 94.341663 l
86.030236 92.587277 l
87.501607 88.374238 l
88.03665 87.245401 l
88.571694 85.855137 l
88.972977 85.479084 l
89.775543 85.344112 l
89.909304 85.363173 l
90.310587 84.828232 l
90.578108 84.646742 l
90.84563 84.393575 l
91.648196 83.266948 l
92.985805 79.45635 l
93.520849 77.795965 l
93.788371 77.490666 l
94.858459 75.531859 l
95.794785 73.180147 l
96.731112 69.738513 l
97.533678 66.207324 l
99.540092 61.346873 l
99.941375 61.035473 l
101.412745 60.8547 l
102.482833 60.815923 l
104.221725 60.805866 l
125.088433 60.927517 l
125.355955 52.544122 l
125.890999 48.815092 l
126.693565 45.692663 l
127.49613 44.15157 l
127.897413 43.724003 l
128.298696 43.752686 l
128.699979 43.755488 l
129.235023 43.024831 l
129.636305 42.515453 l
130.706393 40.811442 l
130.973915 40.740877 l
131.910241 39.698624 l
133.649134 38.528768 l
134.184178 38.468796 l
134.317939 38.395944 l
134.58546 38.42452 l
134.986743 38.456907 l
135.789309 38.522017 l
136.056831 38.463572 l
136.324353 38.467422 l
136.993158 38.481107 l
139.935898 38.501435 l
141.674791 38.488052 l
148.095316 38.490891 l
156.923539 38.495608 l
165.216718 38.493564 l
165.350479 37.627424 l
165.885522 37.556026 l
166.153044 37.638766 l
166.688088 37.664637 l
166.821849 37.618516 l
167.089371 37.732525 l
167.356893 37.706686 l
167.490654 37.776494 l
167.758176 37.665155 l
168.025698 37.727931 l
178.057769 37.737119 l
178.592812 37.739212 l
178.592812 37.739212 l
stroke
grestore
gsave
133.6 125.9 44.97 31.73 clipbox
44.965625 151.955057 m
45.233147 146.213248 l
45.768191 141.021124 l
46.436995 137.193471 l
47.239561 134.33441 l
47.640844 133.358741 l
48.175888 131.806183 l
48.844693 129.98728 l
49.245975 129.348882 l
49.91478 128.786012 l
50.316063 127.454044 l
50.851107 125.794139 l
51.386151 125.577809 l
51.653672 125.503296 l
52.456238 124.678026 l
52.857521 124.460413 l
53.660087 123.321569 l
54.730174 120.577246 l
59.411807 105.663209 l
60.749417 103.327159 l
61.284461 101.669633 l
61.685744 100.47394 l
62.220787 99.675538 l
62.62207 99.495345 l
63.825919 99.421271 l
65.163528 99.407168 l
84.960149 99.408801 l
85.22767 90.041543 l
85.628953 86.289929 l
86.297758 82.527578 l
87.100324 80.501764 l
89.775543 77.094299 l
90.043065 76.927119 l
90.310587 76.598885 l
90.979391 75.533006 l
91.380674 75.329837 l
92.049479 74.364962 l
92.584523 73.43515 l
92.985805 72.499827 l
95.527264 63.529977 l
96.062307 62.686306 l
96.46359 61.976095 l
98.470004 56.917666 l
100.075136 49.827194 l
101.011462 47.633074 l
101.947789 46.266655 l
102.482833 45.773254 l
103.55292 45.407751 l
104.489247 45.366471 l
116.393971 45.369206 l
125.088433 45.369391 l
125.222194 39.298179 l
125.489716 38.095377 l
125.757238 37.959708 l
126.158521 37.969145 l
126.827325 37.972274 l
127.897413 37.97967 l
130.572632 38.018323 l
130.973915 38.072637 l
131.508959 38.03781 l
132.044002 38.008867 l
140.20342 37.976962 l
165.216718 37.976739 l
165.350479 37.481719 l
165.618001 37.554075 l
166.153044 37.643189 l
166.420566 37.617547 l
167.223132 37.688292 l
167.490654 37.662276 l
167.758176 37.762852 l
167.891937 37.709258 l
168.159459 37.765292 l
168.42698 37.742545 l
168.694502 37.757561 l
168.962024 37.782602 l
176.185115 37.885754 l
178.592812 37.877817 l
178.592812 37.877817 l
stroke
grestore
gsave
133.6 125.9 44.97 31.73 clipbox
44.965625 151.955057 m
45.233147 146.213248 l
45.768191 141.021124 l
46.436995 137.193471 l
47.239561 134.33441 l
47.640844 133.358741 l
48.175888 131.806183 l
48.844693 129.98728 l
49.245975 129.348879 l
49.91478 128.78602 l
50.316063 127.454056 l
50.851107 125.794139 l
51.386151 125.577862 l
51.653672 125.503306 l
52.456238 124.677957 l
52.857521 124.460398 l
53.660087 123.321507 l
54.730174 120.577113 l
59.411807 105.689246 l
60.883178 103.03418 l
61.685744 100.657983 l
62.220787 99.943575 l
62.62207 99.803224 l
63.825919 99.733267 l
79.743472 99.731863 l
84.960149 99.731863 l
85.495192 91.149666 l
85.628953 91.292388 l
86.030236 89.080955 l
86.297758 87.71942 l
86.966563 85.304406 l
87.100324 85.408723 l
87.234085 85.330549 l
87.635368 84.466427 l
87.902889 84.365237 l
88.304172 83.246036 l
88.839216 82.909594 l
89.106738 82.922609 l
89.909304 81.84702 l
90.043065 81.576045 l
90.176826 81.634475 l
90.578108 81.01278 l
90.84563 80.752609 l
90.979391 80.631011 l
91.380674 79.60543 l
92.049479 78.531792 l
92.450762 77.375377 l
92.718284 76.506028 l
93.253327 75.268467 l
94.724698 70.641239 l
96.196068 66.286716 l
97.266156 61.963422 l
98.202482 59.171411 l
99.27257 57.07401 l
99.807614 55.220043 l
100.342658 54.427662 l
101.546506 53.177267 l
102.215311 53.060026 l
109.839685 53.022819 l
125.088433 53.02269 l
125.355955 49.451607 l
125.489716 48.624765 l
125.757238 45.866302 l
126.158521 43.481244 l
126.693565 42.135415 l
126.827325 42.175548 l
126.961086 42.029689 l
127.228608 42.1844 l
127.362369 42.157176 l
127.49613 41.607891 l
127.629891 41.636679 l
127.897413 40.468804 l
128.164935 39.937105 l
128.298696 39.887016 l
128.566218 39.402261 l
129.101262 39.540077 l
129.235023 39.433861 l
129.502544 39.511806 l
130.037588 38.870611 l
130.30511 38.82827 l
130.706393 38.790545 l
134.050417 38.403685 l
134.317939 38.411325 l
134.852982 38.394905 l
135.254265 38.466927 l
135.388026 38.36794 l
135.789309 38.461122 l
136.591875 38.412611 l
146.222663 38.434333 l
165.216718 38.434333 l
165.48424 37.541989 l
166.019283 37.672378 l
166.286805 37.651152 l
166.554327 37.772544 l
166.95561 37.662157 l
167.624415 37.831727 l
168.560741 37.78818 l
169.095785 37.837031 l
169.497068 37.782231 l
170.032112 37.779857 l
170.567156 37.781291 l
178.592812 37.780101 l
178.592812 37.780101 l
stroke
grestore
gsave
133.6 125.9 44.97 31.73 clipbox
44.965625 151.955057 m
45.233147 146.213248 l
45.768191 141.021124 l
46.436995 137.193471 l
47.239561 134.33441 l
47.640844 133.358741 l
48.175888 131.806199 l
48.844693 129.98728 l
49.245975 129.348895 l
49.91478 128.786008 l
50.316063 127.454032 l
50.851107 125.794198 l
51.386151 125.577809 l
51.653672 125.503338 l
52.456238 124.678039 l
52.857521 124.460472 l
53.660087 123.321672 l
54.730174 120.577364 l
59.411807 105.680944 l
60.348134 104.038626 l
60.615656 103.667348 l
61.284461 101.40118 l
61.418222 103.959558 l
61.551983 103.883903 l
61.819505 103.502841 l
61.953265 103.552975 l
62.087026 103.415535 l
62.220787 103.70183 l
62.354548 103.401789 l
62.889592 103.5416 l
63.023353 103.389966 l
63.424636 103.776375 l
64.628484 103.780122 l
64.762245 103.45694 l
64.896006 103.774432 l
65.029767 103.773897 l
65.163528 103.454377 l
65.297289 103.45397 l
65.564811 103.772465 l
65.832333 103.766784 l
66.233616 103.764927 l
66.367377 103.444971 l
66.501138 103.734958 l
66.634899 103.734531 l
66.76866 103.446244 l
67.838747 103.443498 l
67.972508 103.733738 l
68.373791 103.733692 l
68.507552 103.443307 l
83.7563 103.33522 l
84.023822 103.216923 l
84.157583 103.495154 l
84.558866 101.955654 l
84.692627 99.632919 l
84.826388 103.715615 l
84.960149 102.955584 l
85.22767 91.146965 l
85.361431 90.754238 l
85.628953 88.713898 l
86.699041 83.741239 l
87.367846 82.308181 l
87.501607 82.261888 l
87.769129 81.813071 l
88.03665 81.273684 l
88.170411 80.978318 l
88.437933 80.051096 l
88.705455 79.193662 l
88.972977 78.318484 l
89.508021 77.088415 l
89.909304 76.538149 l
90.043065 76.459638 l
90.711869 76.958191 l
91.113152 76.518406 l
91.514435 75.917738 l
92.18324 74.794404 l
93.119566 72.156709 l
94.055893 69.243403 l
94.590937 67.552147 l
94.99222 66.019688 l
96.196068 62.146674 l
96.597351 60.921986 l
96.864873 60.230408 l
97.399917 58.896405 l
97.934961 57.971474 l
99.27257 54.474026 l
100.075136 51.530275 l
100.61018 49.335527 l
100.743941 49.263257 l
101.145223 47.466729 l
101.278984 47.982267 l
101.412745 47.317511 l
101.546506 48.562776 l
101.680267 47.176436 l
101.814028 48.647327 l
101.947789 46.881856 l
102.215311 48.214618 l
102.349072 47.040093 l
102.482833 47.196972 l
102.750355 46.919522 l
103.017877 47.028959 l
103.151638 47.003008 l
103.285399 47.683133 l
103.419159 47.010375 l
103.55292 47.659775 l
103.686681 47.663474 l
103.820442 47.210442 l
103.954203 47.218987 l
104.087964 46.989043 l
104.355486 46.985831 l
104.489247 45.952047 l
104.623008 47.253376 l
104.756769 45.948516 l
104.89053 47.385942 l
105.425574 47.396534 l
105.559335 46.91725 l
105.693096 46.983688 l
105.826857 47.397517 l
109.705924 47.393211 l
115.591406 47.390164 l
123.617063 47.394919 l
123.750824 46.405297 l
124.018346 46.414093 l
124.152106 47.663816 l
124.419628 47.659809 l
124.68715 47.088984 l
124.820911 47.71308 l
125.088433 46.854437 l
125.355955 40.649618 l
126.02476 38.723029 l
126.426043 38.420648 l
126.693565 38.397348 l
126.827325 38.486221 l
127.362369 38.373713 l
127.897413 38.466377 l
128.031174 38.333351 l
128.432457 38.376595 l
129.101262 38.289855 l
129.368783 38.328053 l
129.636305 38.354205 l
129.770066 38.263626 l
130.037588 38.305908 l
131.107676 38.323779 l
133.782895 38.259766 l
134.58546 38.300797 l
135.120504 38.273956 l
139.668377 38.29084 l
165.216718 38.29 l
165.48424 37.588187 l
165.618001 37.677848 l
165.751761 37.625561 l
166.019283 37.719824 l
166.821849 37.687819 l
166.95561 37.818202 l
167.356893 37.727949 l
167.891937 37.754022 l
174.981267 37.778995 l
177.924008 37.801107 l
178.592812 37.796826 l
178.592812 37.796826 l
stroke
grestore
0.451 setgray
gsave
133.6 125.9 44.97 31.73 clipbox
44.965625 151.955057 m
45.233147 146.213248 l
45.768191 141.021124 l
46.436995 137.193471 l
47.239561 134.33441 l
47.640844 133.358741 l
48.175888 131.806183 l
48.844693 129.98728 l
49.245975 129.348882 l
49.91478 128.78602 l
50.316063 127.45405 l
50.851107 125.794129 l
51.386151 125.57783 l
51.653672 125.503306 l
52.456238 124.678039 l
52.857521 124.460413 l
53.660087 123.321569 l
54.730174 120.577165 l
59.411807 105.677854 l
60.883178 102.960807 l
61.685744 100.294329 l
62.220787 99.378723 l
62.488309 99.206528 l
63.825919 99.08538 l
71.450293 99.076806 l
84.960149 99.076806 l
85.09391 104.829284 l
85.22767 104.56237 l
125.088433 104.585655 l
125.222194 104.702189 l
125.489716 104.527693 l
126.158521 104.531154 l
165.216718 104.529613 l
165.350479 104.726691 l
165.618001 104.560529 l
166.153044 104.563902 l
172.57357 104.565017 l
178.592812 104.565029 l
178.592812 104.565029 l
stroke
grestore
gsave
133.6 125.9 44.97 31.73 clipbox
44.965625 151.955057 m
45.233147 146.213248 l
45.768191 141.021124 l
46.436995 137.193471 l
47.239561 134.33441 l
47.640844 133.358741 l
48.175888 131.806183 l
48.844693 129.98728 l
49.245975 129.348895 l
49.91478 128.786012 l
50.316063 127.45405 l
50.851107 125.79411 l
51.386151 125.577841 l
51.653672 125.503285 l
52.456238 124.678067 l
52.857521 124.460413 l
53.660087 123.32161 l
54.730174 120.577307 l
59.411807 105.732873 l
61.016939 102.896895 l
61.551983 101.674734 l
62.220787 101.055024 l
62.62207 101.029002 l
62.889592 101.05966 l
67.036181 101.016313 l
84.960149 101.003262 l
85.09391 100.869028 l
85.495192 100.996857 l
92.985805 101.002253 l
125.088433 101.003262 l
125.222194 100.869028 l
125.623477 100.996857 l
133.11409 101.002253 l
165.216718 101.003262 l
165.350479 100.869028 l
165.751761 100.996857 l
173.242375 101.002253 l
178.592812 101.003262 l
178.592812 101.003262 l
stroke
grestore
gsave
133.6 125.9 44.97 31.73 clipbox
44.965625 151.955057 m
45.233147 146.213248 l
45.768191 141.021124 l
46.436995 137.193471 l
47.239561 134.33441 l
47.640844 133.358741 l
48.175888 131.806183 l
48.844693 129.98728 l
49.245975 129.348882 l
49.91478 128.78602 l
50.316063 127.45405 l
50.851107 125.794129 l
51.386151 125.57783 l
51.653672 125.503306 l
52.456238 124.678039 l
52.857521 124.460413 l
53.660087 123.321569 l
54.730174 120.577165 l
59.411807 105.677854 l
60.883178 102.960807 l
61.685744 100.294329 l
62.220787 99.378723 l
62.488309 99.206528 l
63.825919 99.08538 l
71.450293 99.076806 l
178.592812 99.076806 l
178.592812 99.076806 l
stroke
grestore
gsave
133.6 125.9 44.97 31.73 clipbox
44.965625 151.955057 m
45.233147 146.213248 l
45.768191 141.021124 l
46.436995 137.193471 l
47.239561 134.33441 l
47.640844 133.358741 l
48.175888 131.806183 l
48.844693 129.98728 l
49.245975 129.348882 l
49.91478 128.78602 l
50.316063 127.45405 l
50.851107 125.794129 l
51.386151 125.57783 l
51.653672 125.503306 l
52.456238 124.678039 l
52.857521 124.460413 l
53.660087 123.321569 l
54.730174 120.577165 l
59.411807 105.677854 l
60.883178 102.960807 l
61.685744 100.294329 l
62.220787 99.378723 l
62.488309 99.206528 l
63.825919 99.08538 l
71.450293 99.076806 l
178.592812 99.076806 l
178.592812 99.076806 l
stroke
grestore
0 setlinecap
[9.6 2.4 1.5 2.4] 0 setdash
0.000 setgray
gsave
133.6 125.9 44.97 31.73 clipbox
44.965625 151.955057 m
45.233147 146.213248 l
45.768191 141.021124 l
46.436995 137.193471 l
47.239561 134.334425 l
47.640844 133.358761 l
48.175888 131.806199 l
48.844693 129.987335 l
49.245975 129.348858 l
49.91478 128.785949 l
50.316063 127.453973 l
50.851107 125.793709 l
51.386151 125.577642 l
51.653672 125.503114 l
52.456238 124.678436 l
52.857521 124.461012 l
53.660087 123.322146 l
54.730174 120.577548 l
57.539154 111.74876 l
58.207959 110.518867 l
58.34172 109.769771 l
58.475481 109.674297 l
58.743003 108.497489 l
58.876764 108.480701 l
59.144286 107.536766 l
59.411807 108.620695 l
59.545568 108.532907 l
59.679329 107.423486 l
59.81309 107.342361 l
60.080612 108.391613 l
60.214373 108.240993 l
60.348134 107.463055 l
60.481895 107.775707 l
60.615656 109.11352 l
60.749417 107.458302 l
60.883178 107.336969 l
61.016939 108.104606 l
61.1507 107.994861 l
61.284461 108.107967 l
61.418222 107.821446 l
61.551983 109.651324 l
61.819505 107.057387 l
61.953265 106.321455 l
62.087026 106.439697 l
62.220787 108.046373 l
62.354548 106.875341 l
62.488309 106.80316 l
62.62207 107.407575 l
62.755831 109.045872 l
63.023353 106.933989 l
63.157114 107.210489 l
63.290875 106.957328 l
63.424636 107.134795 l
63.558397 110.121968 l
63.692158 106.508869 l
63.825919 108.234296 l
63.95968 106.988735 l
64.227202 110.327478 l
64.360963 109.391542 l
64.494723 106.828245 l
64.628484 107.868642 l
64.762245 107.357285 l
64.896006 109.95726 l
65.029767 109.768686 l
65.163528 107.627144 l
65.297289 109.358163 l
65.43105 106.907034 l
65.564811 108.775966 l
65.698572 106.910485 l
65.832333 107.478481 l
65.966094 106.875134 l
66.099855 109.074968 l
66.233616 108.363929 l
66.367377 106.495011 l
66.501138 107.385009 l
66.634899 106.615207 l
66.76866 107.323037 l
66.902421 109.120398 l
67.036181 107.444748 l
67.169942 107.826416 l
67.437464 109.007807 l
67.704986 106.526377 l
67.972508 109.937441 l
68.106269 106.135465 l
68.373791 109.81886 l
68.641313 106.850731 l
68.775074 109.944092 l
69.042596 106.897159 l
69.310118 110.282476 l
69.443879 107.844279 l
69.57764 107.562528 l
69.7114 110.4802 l
69.845161 110.53792 l
69.978922 112.885667 l
70.112683 109.225467 l
70.246444 108.932485 l
70.513966 110.448328 l
70.781488 107.261278 l
71.182771 112.073502 l
71.316532 111.427238 l
71.450293 108.476896 l
71.584054 110.31721 l
71.717815 108.208599 l
71.851576 109.634465 l
72.119098 108.609268 l
72.252858 110.091587 l
72.386619 109.580913 l
72.52038 108.430431 l
72.787902 109.360633 l
72.921663 107.627003 l
73.055424 108.089283 l
73.322946 107.890588 l
73.456707 107.340924 l
73.590468 109.622963 l
73.85799 107.485343 l
73.991751 107.518205 l
74.125512 109.514131 l
74.259273 108.306034 l
74.393034 109.26872 l
74.526795 108.491019 l
74.660556 109.495258 l
75.061838 107.892609 l
75.195599 109.269508 l
75.32936 108.475548 l
75.463121 108.446941 l
75.596882 107.927518 l
75.730643 109.091835 l
75.864404 107.541432 l
75.998165 107.802744 l
76.265687 109.639098 l
76.399448 107.844213 l
76.533209 107.705157 l
76.800731 110.286139 l
76.934492 108.098669 l
77.068253 107.794987 l
77.202014 110.093466 l
77.335775 109.482831 l
77.469535 112.165104 l
77.737057 107.844191 l
77.870818 111.594657 l
78.004579 107.797828 l
78.13834 108.699632 l
78.272101 111.048016 l
78.405862 108.131402 l
78.539623 109.981487 l
78.807145 108.396992 l
79.208428 111.278347 l
79.47595 107.949506 l
79.743472 108.525574 l
80.010993 110.819506 l
80.144754 110.788312 l
80.278515 111.996803 l
80.412276 108.444643 l
80.546037 110.641578 l
80.679798 108.26937 l
80.813559 110.52486 l
80.94732 107.726771 l
81.081081 110.069788 l
81.214842 110.021484 l
81.348603 111.988534 l
81.482364 108.469035 l
81.616125 108.249978 l
81.883647 108.45368 l
82.017408 109.022115 l
82.151169 108.53942 l
82.28493 109.241413 l
82.552452 108.150715 l
82.686212 107.909948 l
82.819973 109.022162 l
82.953734 108.31341 l
83.087495 110.380666 l
83.221256 109.503499 l
83.355017 109.541719 l
83.488778 111.864264 l
83.622539 108.383398 l
83.7563 110.488795 l
83.890061 108.735543 l
84.023822 109.553019 l
84.157583 108.15692 l
84.425105 109.180847 l
84.692627 108.7116 l
84.960149 111.224903 l
85.09391 105.396395 l
85.361431 104.654204 l
85.628953 104.604213 l
86.030236 104.516579 l
86.431519 104.574622 l
89.909304 104.566566 l
90.711869 104.527567 l
91.648196 104.572249 l
93.387088 104.592418 l
94.189654 104.578897 l
95.259742 104.577561 l
98.202482 104.580238 l
125.088433 104.579978 l
125.222194 104.784246 l
125.355955 104.618181 l
126.559804 104.62268 l
127.228608 104.615844 l
130.840154 104.60175 l
131.910241 104.578406 l
132.579046 104.598497 l
134.184178 104.635437 l
165.350479 104.732845 l
165.618001 104.603316 l
166.554327 104.604296 l
167.356893 104.642673 l
170.032112 104.58631 l
172.172287 104.622342 l
178.459052 104.61322 l
178.592812 104.61322 l
178.592812 104.61322 l
stroke
grestore
[5.55 2.4] 0 setdash
gsave
133.6 125.9 44.97 31.73 clipbox
44.965625 151.955057 m
45.233147 146.213248 l
45.768191 141.021124 l
46.436995 137.193471 l
47.239561 134.33441 l
47.640844 133.358741 l
48.175888 131.806183 l
48.844693 129.98728 l
49.245975 129.348885 l
49.91478 128.786016 l
50.316063 127.454038 l
50.851107 125.794139 l
51.386151 125.57782 l
51.653672 125.503317 l
52.456238 124.678026 l
52.857521 124.460428 l
53.660087 123.321569 l
54.730174 120.577208 l
59.411807 105.629603 l
60.749417 103.172477 l
61.1507 101.696711 l
61.819505 98.672067 l
63.157114 92.99343 l
63.825919 90.610431 l
64.762245 86.268196 l
65.832333 82.623214 l
66.367377 80.216197 l
68.775074 68.149485 l
69.57764 64.934714 l
70.380205 61.09201 l
71.316532 55.505636 l
72.252858 51.533277 l
73.724229 46.233507 l
73.85799 46.24826 l
73.991751 45.693283 l
74.125512 46.326005 l
74.259273 46.054517 l
74.393034 46.111854 l
74.660556 45.970903 l
74.794317 45.725885 l
74.928077 45.894128 l
75.061838 45.584224 l
75.195599 45.991239 l
75.32936 45.855123 l
75.463121 46.056464 l
75.596882 45.50689 l
75.864404 46.155207 l
76.131926 46.051233 l
76.265687 46.393941 l
76.399448 46.066014 l
76.66697 46.675562 l
76.800731 46.65265 l
76.934492 46.106929 l
77.068253 46.446949 l
77.469535 46.124571 l
77.603296 46.661092 l
77.870818 46.166899 l
78.004579 46.679111 l
78.539623 45.746587 l
78.673384 46.759096 l
78.807145 46.24616 l
78.940906 46.296475 l
79.074667 46.68024 l
79.208428 45.661048 l
79.47595 46.018659 l
79.609711 46.643161 l
79.743472 45.318384 l
80.010993 46.48117 l
80.144754 46.245136 l
80.278515 46.464694 l
80.412276 46.27822 l
80.546037 46.939814 l
80.813559 46.029861 l
80.94732 46.038063 l
81.081081 45.669933 l
81.348603 46.430699 l
81.482364 45.653677 l
81.616125 46.120729 l
81.749886 46.077637 l
81.883647 46.547443 l
82.151169 45.411195 l
82.28493 46.068924 l
82.819973 45.854266 l
82.953734 46.336522 l
83.087495 45.795288 l
83.221256 45.899409 l
83.355017 45.60828 l
83.488778 45.77737 l
83.622539 45.709562 l
83.7563 45.879496 l
83.890061 45.319509 l
84.157583 45.981698 l
84.425105 45.600249 l
84.558866 46.440444 l
84.692627 45.850215 l
84.960149 46.153021 l
85.09391 39.191096 l
85.22767 38.103485 l
85.896475 37.955156 l
86.966563 38.003181 l
87.234085 37.945873 l
87.769129 37.954515 l
96.864873 38.004382 l
125.088433 38.007826 l
125.222194 37.521883 l
127.49613 37.785767 l
127.629891 37.716309 l
127.763652 37.816824 l
128.031174 37.766474 l
129.770066 37.77586 l
130.171349 37.714871 l
132.177763 37.720327 l
133.247851 37.716705 l
140.872225 37.742412 l
165.216718 37.742415 l
165.350479 37.456193 l
165.885522 37.633478 l
166.821849 37.672752 l
167.089371 37.68364 l
167.624415 37.624842 l
167.891937 37.680132 l
168.293219 37.709593 l
171.503482 37.737236 l
172.841092 37.656415 l
178.592812 37.740188 l
178.592812 37.740188 l
stroke
grestore
0.800 setlinewidth
[] 0 setdash
gsave
/o {
gsave
newpath
translate
0.8 setlinewidth
1 setlinejoin
0 setlinecap
0 0 m
0 -3.5 l

gsave
0.000 setgray
fill
grestore
stroke
grestore
} bind def
44.9656 31.7312 o
grestore
/DejaVuSans findfont
7.000 scalefont
setfont
gsave
42.739063 19.418750 translate
0.000000 rotate
0.000000 0 m /zero glyphshow
grestore
gsave
/o {
gsave
newpath
translate
0.8 setlinewidth
1 setlinejoin
0 setlinecap
0 0 m
0 -3.5 l

gsave
0.000 setgray
fill
grestore
stroke
grestore
} bind def
71.7178 31.7312 o
grestore
gsave
65.038127 19.418750 translate
0.000000 rotate
0.000000 0 m /two glyphshow
4.453613 0 m /zero glyphshow
8.907227 0 m /zero glyphshow
grestore
gsave
/o {
gsave
newpath
translate
0.8 setlinewidth
1 setlinejoin
0 setlinecap
0 0 m
0 -3.5 l

gsave
0.000 setgray
fill
grestore
stroke
grestore
} bind def
98.47 31.7312 o
grestore
gsave
91.790317 19.418750 translate
0.000000 rotate
0.000000 0 m /four glyphshow
4.453613 0 m /zero glyphshow
8.907227 0 m /zero glyphshow
grestore
gsave
/o {
gsave
newpath
translate
0.8 setlinewidth
1 setlinejoin
0 setlinecap
0 0 m
0 -3.5 l

gsave
0.000 setgray
fill
grestore
stroke
grestore
} bind def
125.222 31.7312 o
grestore
gsave
118.542507 19.418750 translate
0.000000 rotate
0.000000 0 m /six glyphshow
4.453613 0 m /zero glyphshow
8.907227 0 m /zero glyphshow
grestore
gsave
/o {
gsave
newpath
translate
0.8 setlinewidth
1 setlinejoin
0 setlinecap
0 0 m
0 -3.5 l

gsave
0.000 setgray
fill
grestore
stroke
grestore
} bind def
151.974 31.7312 o
grestore
gsave
145.294696 19.418750 translate
0.000000 rotate
0.000000 0 m /eight glyphshow
4.453613 0 m /zero glyphshow
8.907227 0 m /zero glyphshow
grestore
gsave
84.927656 8.653125 translate
0.000000 rotate
0.000000 0 m /I glyphshow
2.064453 0 m /n glyphshow
6.500977 0 m /n glyphshow
10.937500 0 m /e glyphshow
15.244141 0 m /r glyphshow
18.122070 0 m /space glyphshow
20.347168 0 m /I glyphshow
22.411621 0 m /t glyphshow
25.156250 0 m /e glyphshow
29.462891 0 m /r glyphshow
32.340820 0 m /a glyphshow
36.630371 0 m /t glyphshow
39.375000 0 m /i glyphshow
41.319824 0 m /o glyphshow
45.602539 0 m /n glyphshow
50.039062 0 m /s glyphshow
grestore
gsave
/o {
gsave
newpath
translate
0.8 setlinewidth
1 setlinejoin
0 setlinecap
0 0 m
-3.5 0 l

gsave
0.000 setgray
fill
grestore
stroke
grestore
} bind def
44.9656 53.1037 o
grestore
gsave
17.965625 49.830253 translate
0.000000 rotate
/DejaVuSans findfont
7.0 scalefont
setfont
0.000000 0.678125 moveto
/one glyphshow
4.453613 0.678125 moveto
/zero glyphshow
/DejaVuSans findfont
4.8999999999999995 scalefont
setfont
8.974219 3.357812 moveto
/minus glyphshow
13.079883 3.357812 moveto
/one glyphshow
16.197412 3.357812 moveto
/six glyphshow

grestore
gsave
/o {
gsave
newpath
translate
0.8 setlinewidth
1 setlinejoin
0 setlinecap
0 0 m
-3.5 0 l

gsave
0.000 setgray
fill
grestore
stroke
grestore
} bind def
44.9656 75.9861 o
grestore
gsave
17.965625 72.712646 translate
0.000000 rotate
/DejaVuSans findfont
7.0 scalefont
setfont
0.000000 0.678125 moveto
/one glyphshow
4.453613 0.678125 moveto
/zero glyphshow
/DejaVuSans findfont
4.8999999999999995 scalefont
setfont
8.974219 3.357812 moveto
/minus glyphshow
13.079883 3.357812 moveto
/one glyphshow
16.197412 3.357812 moveto
/three glyphshow

grestore
gsave
/o {
gsave
newpath
translate
0.8 setlinewidth
1 setlinejoin
0 setlinecap
0 0 m
-3.5 0 l

gsave
0.000 setgray
fill
grestore
stroke
grestore
} bind def
44.9656 98.8685 o
grestore
gsave
17.965625 95.595040 translate
0.000000 rotate
/DejaVuSans findfont
7.0 scalefont
setfont
0.000000 0.678125 moveto
/one glyphshow
4.453613 0.678125 moveto
/zero glyphshow
/DejaVuSans findfont
4.8999999999999995 scalefont
setfont
8.974219 3.357812 moveto
/minus glyphshow
13.079883 3.357812 moveto
/one glyphshow
16.197412 3.357812 moveto
/zero glyphshow

grestore
gsave
/o {
gsave
newpath
translate
0.8 setlinewidth
1 setlinejoin
0 setlinecap
0 0 m
-3.5 0 l

gsave
0.000 setgray
fill
grestore
stroke
grestore
} bind def
44.9656 121.751 o
grestore
gsave
20.965625 118.477433 translate
0.000000 rotate
/DejaVuSans findfont
7.0 scalefont
setfont
0.000000 0.743750 moveto
/one glyphshow
4.453613 0.743750 moveto
/zero glyphshow
/DejaVuSans findfont
4.8999999999999995 scalefont
setfont
8.974219 3.423438 moveto
/minus glyphshow
13.079883 3.423438 moveto
/seven glyphshow

grestore
gsave
/o {
gsave
newpath
translate
0.8 setlinewidth
1 setlinejoin
0 setlinecap
0 0 m
-3.5 0 l

gsave
0.000 setgray
fill
grestore
stroke
grestore
} bind def
44.9656 144.633 o
grestore
gsave
20.965625 141.359827 translate
0.000000 rotate
/DejaVuSans findfont
7.0 scalefont
setfont
0.000000 0.743750 moveto
/one glyphshow
4.453613 0.743750 moveto
/zero glyphshow
/DejaVuSans findfont
4.8999999999999995 scalefont
setfont
8.974219 3.423438 moveto
/minus glyphshow
13.079883 3.423438 moveto
/four glyphshow

grestore
gsave
12.512500 47.674375 translate
90.000000 rotate
0.000000 0 m /N glyphshow
5.236328 0 m /o glyphshow
9.519043 0 m /r glyphshow
12.271973 0 m /m glyphshow
19.090820 0 m /w glyphshow
24.815918 0 m /i glyphshow
26.760742 0 m /s glyphshow
30.407715 0 m /e glyphshow
34.714355 0 m /space glyphshow
36.939453 0 m /B glyphshow
41.741699 0 m /a glyphshow
46.031250 0 m /c glyphshow
49.879883 0 m /k glyphshow
53.933594 0 m /w glyphshow
59.658691 0 m /a glyphshow
63.948242 0 m /r glyphshow
66.701172 0 m /d glyphshow
71.144531 0 m /s glyphshow
74.791504 0 m /space glyphshow
77.016602 0 m /E glyphshow
81.439453 0 m /r glyphshow
84.192383 0 m /r glyphshow
86.945312 0 m /o glyphshow
91.228027 0 m /r glyphshow
grestore
0 setlinejoin
2 setlinecap
[] 0 setdash
gsave
44.965625 31.73125 m
44.965625 157.68 l
stroke
grestore
gsave
178.592812 31.73125 m
178.592812 157.68 l
stroke
grestore
gsave
44.965625 31.73125 m
178.592812 31.73125 l
stroke
grestore
gsave
44.965625 157.68 m
178.592812 157.68 l
stroke
grestore
gsave
189.652813 31.73125 m
323.28 31.73125 l
323.28 157.68 l
189.652813 157.68 l
cl
1.000 setgray
fill
grestore
1.500 setlinewidth
1 setlinejoin
[] 0 setdash
0.149 setgray
gsave
133.6 125.9 189.7 31.73 clipbox
189.652813 151.955057 m
189.920334 146.213248 l
190.455378 141.021124 l
191.124183 137.193471 l
191.926749 134.33441 l
192.328031 133.358751 l
192.863075 131.806199 l
193.53188 129.987253 l
193.933163 129.348832 l
194.601968 128.786044 l
195.00325 127.454008 l
195.538294 125.794119 l
196.073338 125.577768 l
196.34086 125.503328 l
197.143426 124.678053 l
197.544708 124.460515 l
198.347274 123.321775 l
199.417362 120.576967 l
202.761385 110.147423 l
203.965234 106.715263 l
204.634039 106.120763 l
206.372931 105.260334 l
207.175497 105.200987 l
229.647336 105.19818 l
229.914858 98.468509 l
230.449902 93.905767 l
230.984946 91.112685 l
232.055033 87.812849 l
232.723838 86.384533 l
233.392643 84.866962 l
233.793925 84.631551 l
234.195208 84.829288 l
234.46273 84.787417 l
234.864013 84.468398 l
235.131535 84.102885 l
237.137949 79.473745 l
237.672993 77.699196 l
237.940515 76.983879 l
238.743081 74.499156 l
239.545646 72.759516 l
240.883256 69.680436 l
242.88967 63.355371 l
244.36104 60.706851 l
244.896084 60.214738 l
245.297367 60.027655 l
246.367455 59.865005 l
247.437542 59.820949 l
252.252936 59.815704 l
269.775621 59.815822 l
270.043143 53.211753 l
270.444425 50.105377 l
271.11323 47.486884 l
271.782035 45.960215 l
272.718361 43.464013 l
273.387166 41.665648 l
273.788449 40.874095 l
274.724776 39.301343 l
275.25982 38.822523 l
276.196146 38.545506 l
278.068799 38.401752 l
278.336321 38.461921 l
280.476496 38.457679 l
280.610257 38.361051 l
281.01154 38.441681 l
283.151715 38.439354 l
284.756847 38.433361 l
285.291891 38.431501 l
285.960695 38.456603 l
296.929093 38.419031 l
309.770144 38.419031 l
309.903905 37.600549 l
310.57271 37.78219 l
310.706471 37.596108 l
311.107754 37.699691 l
311.509037 37.734209 l
312.846646 37.77213 l
313.515451 37.714388 l
314.719299 37.726017 l
315.120582 37.702143 l
315.789387 37.72832 l
320.738542 37.752948 l
323.012478 37.748276 l
323.146239 37.747932 l
323.146239 37.747932 l
stroke
grestore
gsave
133.6 125.9 189.7 31.73 clipbox
189.652813 151.955057 m
189.920334 146.213248 l
190.455378 141.021124 l
191.124183 137.193471 l
191.926749 134.33441 l
192.328031 133.358741 l
192.863075 131.806183 l
193.53188 129.98728 l
193.933163 129.348882 l
194.601968 128.78602 l
195.00325 127.45405 l
195.538294 125.794129 l
196.073338 125.57783 l
196.34086 125.503306 l
197.143426 124.678039 l
197.544708 124.460413 l
198.347274 123.321569 l
199.417362 120.577165 l
204.098995 105.677854 l
205.570365 102.960807 l
206.372931 100.294329 l
206.907975 99.378723 l
207.175497 99.206528 l
208.513106 99.08538 l
216.13748 99.076806 l
229.647336 99.076806 l
229.914858 92.874633 l
230.449902 88.700195 l
231.118707 85.590036 l
231.386228 84.508233 l
231.921272 83.222893 l
232.322555 82.156439 l
232.857599 81.837793 l
233.258882 81.606148 l
233.660165 81.257067 l
233.927686 81.193368 l
234.46273 81.241221 l
234.730252 81.018237 l
235.265296 80.212028 l
235.666579 79.299659 l
237.137949 74.797066 l
237.539232 74.285333 l
237.806754 73.924251 l
238.60932 71.482907 l
239.144363 70.071613 l
240.348212 66.926134 l
241.017017 65.516905 l
241.55206 63.974812 l
242.087104 61.675605 l
243.023431 57.673471 l
243.959758 54.995098 l
244.36104 53.719574 l
244.896084 51.414444 l
245.431128 49.216131 l
246.233694 47.384415 l
246.634977 46.524662 l
247.17002 45.461618 l
247.972586 43.871728 l
248.775152 42.014964 l
249.176435 41.595398 l
249.711478 41.340581 l
250.647805 41.204198 l
251.717893 41.228242 l
253.590546 41.234148 l
255.463199 41.239294 l
269.775621 41.245656 l
269.909382 38.439243 l
270.176903 37.907272 l
270.845708 37.848609 l
271.380752 37.899353 l
271.514513 37.884116 l
271.782035 37.992319 l
272.317079 37.905383 l
284.756847 37.894391 l
309.903905 37.897298 l
310.037666 37.514339 l
310.438949 37.678378 l
316.458192 37.778788 l
317.929562 37.741717 l
318.598367 37.7328 l
321.541108 37.722729 l
323.28 37.726058 l
323.28 37.726058 l
stroke
grestore
gsave
133.6 125.9 189.7 31.73 clipbox
189.652813 151.955057 m
189.920334 146.213248 l
190.455378 141.021124 l
191.124183 137.193471 l
191.926749 134.33441 l
192.328031 133.358741 l
192.863075 131.806183 l
193.53188 129.98728 l
193.933163 129.348882 l
194.601968 128.786028 l
195.00325 127.45405 l
195.538294 125.794139 l
196.073338 125.577841 l
196.34086 125.503328 l
197.143426 124.678039 l
197.544708 124.460384 l
198.347274 123.321507 l
199.417362 120.577241 l
204.098995 105.706354 l
205.570365 103.141772 l
206.23917 101.33404 l
206.640453 100.82849 l
206.907975 100.59741 l
207.443019 100.486788 l
210.251999 100.451359 l
229.647336 100.451195 l
229.914858 93.886253 l
230.316141 90.617576 l
230.717424 88.741402 l
231.252467 86.973397 l
232.188794 82.873286 l
232.456316 82.432791 l
233.125121 81.180032 l
234.730252 77.18648 l
234.997774 76.732779 l
237.004188 72.081945 l
237.27171 72.15434 l
237.672993 72.070914 l
237.940515 71.976154 l
238.475559 72.097014 l
238.743081 71.849643 l
239.278124 70.760164 l
240.214451 67.633692 l
240.749495 66.777514 l
241.55206 65.324927 l
243.157192 60.714983 l
245.297367 53.19739 l
245.564889 52.559333 l
245.832411 51.711052 l
246.367455 50.77651 l
246.768737 50.409674 l
247.303781 50.064382 l
247.972586 49.826873 l
249.176435 49.7703 l
256.533287 49.763715 l
269.775621 49.763706 l
270.043143 43.013341 l
270.310664 40.971939 l
270.711947 39.426668 l
271.11323 38.754881 l
271.648274 38.361023 l
271.782035 38.402116 l
272.049557 38.339413 l
274.055971 38.275529 l
274.724776 38.311934 l
274.992298 38.254583 l
275.527341 38.226565 l
279.406409 38.269203 l
280.075214 38.179685 l
281.145301 38.247424 l
282.482911 38.269262 l
309.903905 38.252824 l
310.037666 37.636609 l
310.706471 37.685367 l
310.840232 37.632163 l
311.241515 37.733561 l
312.311602 37.731829 l
312.579124 37.780408 l
312.980407 37.786632 l
314.318016 37.811813 l
316.859474 37.807191 l
323.28 37.810325 l
323.28 37.810325 l
stroke
grestore
gsave
133.6 125.9 189.7 31.73 clipbox
189.652813 151.955057 m
189.920334 146.213248 l
190.455378 141.021124 l
191.124183 137.193471 l
191.926749 134.33441 l
192.328031 133.358741 l
192.863075 131.806183 l
193.53188 129.98728 l
193.933163 129.348892 l
194.601968 128.786028 l
195.00325 127.45405 l
195.538294 125.794119 l
196.073338 125.577778 l
196.34086 125.503317 l
197.143426 124.678039 l
197.544708 124.460428 l
198.347274 123.321569 l
199.417362 120.577189 l
203.965234 106.11461 l
204.500278 105.145586 l
204.901561 104.703469 l
206.23917 102.610417 l
206.774214 102.309519 l
211.85713 102.260009 l
229.647336 102.260009 l
229.914858 95.274796 l
230.449902 90.820209 l
230.851185 89.366514 l
232.590077 85.184742 l
233.125121 83.737508 l
233.392643 83.343115 l
233.793925 83.660583 l
234.061447 83.961068 l
234.596491 83.669421 l
235.131535 82.790287 l
236.067862 81.227322 l
237.806754 76.477249 l
238.074276 75.803528 l
238.876842 74.265791 l
240.08069 70.591458 l
241.4183 66.20043 l
243.023431 61.047689 l
243.424714 60.434052 l
245.297367 56.242329 l
245.69865 56.015188 l
246.501216 55.810878 l
247.972586 55.626494 l
250.514044 55.612109 l
269.775621 55.611845 l
270.043143 48.213763 l
270.444425 45.227503 l
271.11323 42.514044 l
271.648274 40.845545 l
272.183318 40.052332 l
272.718361 39.54675 l
272.985883 39.296789 l
273.387166 38.964531 l
274.189732 38.755788 l
274.457254 38.779033 l
274.724776 38.7542 l
274.858537 38.784357 l
275.126059 38.682019 l
277.667517 38.481189 l
278.470082 38.450615 l
278.871365 38.459635 l
279.272648 38.436192 l
279.807692 38.419672 l
280.342736 38.484171 l
280.610257 38.493673 l
283.82052 38.450007 l
286.228217 38.434777 l
300.406878 38.436137 l
309.903905 38.436137 l
310.037666 37.64837 l
310.305188 37.567427 l
310.840232 37.752491 l
312.04408 37.772306 l
313.649212 37.83434 l
314.318016 37.801893 l
316.324431 37.803744 l
323.146239 37.80869 l
323.146239 37.80869 l
stroke
grestore
gsave
133.6 125.9 189.7 31.73 clipbox
189.652813 151.955057 m
189.920334 146.213248 l
190.455378 141.021124 l
191.124183 137.193471 l
191.926749 134.33441 l
192.328031 133.358741 l
192.863075 131.806183 l
193.53188 129.98728 l
193.933163 129.348885 l
194.601968 128.786012 l
195.00325 127.454038 l
195.538294 125.794129 l
196.073338 125.57783 l
196.34086 125.503317 l
197.143426 124.678039 l
197.544708 124.460413 l
198.347274 123.321569 l
199.417362 120.577264 l
204.098995 105.658776 l
205.302843 103.635026 l
205.704126 102.522994 l
206.372931 100.47602 l
206.907975 99.649054 l
207.309258 99.481967 l
208.513106 99.403929 l
209.850716 99.389129 l
229.246053 99.38927 l
229.647336 99.38927 l
229.914858 90.169242 l
230.316141 86.312416 l
230.984946 82.67652 l
232.055033 80.315408 l
232.456316 79.813753 l
232.857599 79.049224 l
233.526404 78.464682 l
234.061447 77.967038 l
234.46273 77.78763 l
235.265296 76.622204 l
236.335384 74.676076 l
236.602905 74.225885 l
237.004188 73.191541 l
237.672993 72.215688 l
238.074276 70.861736 l
239.946929 63.555169 l
240.481973 62.613829 l
240.749495 62.477555 l
241.150778 61.904628 l
241.55206 61.020937 l
242.087104 59.417327 l
242.88967 56.988845 l
243.157192 56.357386 l
244.628562 51.431303 l
245.297367 50.016847 l
246.634977 47.079361 l
247.571303 46.125279 l
248.106347 45.960072 l
252.921741 45.917928 l
269.775621 45.918334 l
270.043143 38.46602 l
270.310664 38.035431 l
270.845708 37.980275 l
271.514513 38.04762 l
271.648274 37.923505 l
271.782035 38.039343 l
272.183318 37.986255 l
272.45084 38.067618 l
275.928624 38.018983 l
276.73119 38.107899 l
277.801278 38.069137 l
281.947867 38.08953 l
300.6744 38.086726 l
309.903905 38.086726 l
310.037666 37.549307 l
310.438949 37.648458 l
310.840232 37.72492 l
311.375276 37.598314 l
312.177841 37.772479 l
312.445363 37.750232 l
313.247929 37.774672 l
313.515451 37.723225 l
314.184256 37.738349 l
316.324431 37.683017 l
323.28 37.695266 l
323.28 37.695266 l
stroke
grestore
gsave
133.6 125.9 189.7 31.73 clipbox
189.652813 151.955057 m
189.920334 146.213248 l
190.455378 141.021124 l
191.124183 137.193471 l
191.926749 134.33441 l
192.328031 133.358741 l
192.863075 131.806183 l
193.53188 129.98728 l
193.933163 129.348879 l
194.601968 128.78602 l
195.00325 127.454056 l
195.538294 125.794139 l
196.073338 125.577862 l
196.34086 125.503306 l
197.143426 124.677957 l
197.544708 124.460398 l
198.347274 123.321507 l
199.417362 120.577113 l
204.098995 105.689246 l
205.570365 103.034171 l
206.372931 100.657944 l
206.907975 99.943527 l
207.309258 99.803174 l
208.513106 99.733216 l
224.430659 99.731812 l
229.647336 99.731812 l
230.18238 91.149561 l
230.316141 91.29229 l
230.717424 89.080789 l
230.984946 87.719103 l
231.65375 85.303571 l
231.787511 85.407856 l
231.921272 85.32968 l
232.322555 84.465633 l
232.590077 84.364577 l
232.99136 83.245555 l
233.526404 82.909238 l
233.793925 82.922311 l
234.596491 81.846761 l
234.730252 81.575721 l
234.864013 81.634101 l
235.265296 81.012308 l
235.532818 80.751988 l
235.666579 80.630359 l
236.067862 79.604652 l
236.736666 78.530963 l
237.137949 77.374832 l
237.405471 76.505461 l
237.940515 75.268084 l
239.411885 70.641671 l
240.883256 66.288207 l
241.953343 61.957846 l
242.88967 59.196249 l
243.825997 57.534718 l
244.628562 55.345531 l
246.233694 54.040709 l
247.571303 53.957593 l
261.348681 53.955083 l
269.775621 53.955083 l
270.043143 48.265443 l
270.310664 45.645158 l
270.444425 45.594661 l
270.578186 45.319971 l
271.11323 41.443086 l
271.380752 41.046248 l
271.648274 40.571508 l
271.782035 40.192659 l
272.049557 40.257694 l
272.317079 40.069388 l
272.584601 39.709201 l
272.985883 39.455957 l
273.119644 39.679809 l
273.253405 39.458913 l
273.387166 39.649865 l
273.654688 39.208457 l
273.788449 39.125937 l
273.92221 39.17857 l
274.189732 38.958351 l
276.73119 38.496235 l
276.864951 38.547411 l
277.132473 38.468548 l
277.801278 38.426329 l
277.935038 38.481819 l
278.20256 38.427637 l
279.005126 38.472969 l
279.406409 38.493673 l
281.01154 38.489745 l
281.546584 38.460985 l
282.215389 38.49678 l
283.82052 38.500482 l
287.565827 38.489144 l
309.903905 38.489144 l
310.037666 37.663341 l
310.305188 37.633938 l
310.706471 37.740355 l
310.973993 37.681738 l
311.241515 37.713274 l
312.712885 37.753122 l
313.649212 37.769451 l
314.050495 37.808911 l
323.28 37.760931 l
323.28 37.760931 l
stroke
grestore
gsave
133.6 125.9 189.7 31.73 clipbox
189.652813 151.955057 m
189.920334 146.213248 l
190.455378 141.021124 l
191.124183 137.193471 l
191.926749 134.33441 l
192.328031 133.358741 l
192.863075 131.806199 l
193.53188 129.98728 l
193.933163 129.348895 l
194.601968 128.786008 l
195.00325 127.454032 l
195.538294 125.794198 l
196.073338 125.577809 l
196.34086 125.503338 l
197.143426 124.678039 l
197.544708 124.460472 l
198.347274 123.321672 l
199.417362 120.577364 l
204.098995 105.680944 l
205.035322 104.038619 l
205.302843 103.667332 l
205.971648 101.401165 l
206.105409 103.959522 l
206.23917 103.883867 l
206.506692 103.5028 l
206.640453 103.552935 l
206.774214 103.415493 l
206.907975 103.701784 l
207.041736 103.401739 l
207.57678 103.541551 l
207.710541 103.389915 l
208.111823 103.77633 l
209.315672 103.780077 l
209.449433 103.456882 l
209.583194 103.774387 l
209.716955 103.773852 l
209.850716 103.454319 l
209.984477 103.453912 l
210.251999 103.772412 l
210.51952 103.766739 l
210.920803 103.764881 l
211.054564 103.444913 l
211.188325 103.734912 l
211.322086 103.734478 l
211.455847 103.446194 l
212.525935 103.443448 l
212.659696 103.733692 l
213.060978 103.733639 l
213.194739 103.443248 l
229.647336 103.44319 l
229.914858 92.90149 l
230.18238 89.681746 l
230.717424 87.108807 l
231.386228 84.868528 l
231.65375 83.939433 l
231.921272 83.513838 l
232.723838 81.054061 l
232.99136 80.060511 l
234.328969 77.930994 l
235.666579 73.671252 l
236.067862 73.555998 l
236.870427 73.021089 l
237.004188 72.892504 l
237.27171 73.054686 l
238.208037 72.462601 l
238.475559 71.816196 l
239.278124 69.150248 l
240.08069 65.859108 l
240.883256 64.211352 l
242.354626 59.086987 l
242.88967 57.848159 l
243.290953 57.603246 l
243.959758 56.158253 l
244.628562 53.9507 l
245.431128 50.718777 l
245.564889 50.699675 l
245.832411 48.459658 l
245.966172 48.395596 l
246.099933 47.456324 l
246.233694 50.494391 l
246.501216 49.423877 l
246.634977 46.99332 l
246.768737 50.533425 l
247.036259 47.386351 l
247.17002 50.309047 l
247.303781 45.73377 l
247.437542 45.706628 l
247.571303 50.195359 l
247.972586 50.256761 l
248.240108 47.122042 l
248.373869 47.122788 l
248.50763 46.559336 l
248.775152 47.811476 l
248.908913 46.861335 l
249.577717 46.847744 l
249.711478 47.508585 l
256.399526 47.500738 l
269.775621 47.500522 l
270.043143 41.878396 l
270.176903 41.566161 l
270.444425 39.226601 l
270.979469 38.400911 l
271.782035 38.40699 l
271.915796 38.277101 l
272.317079 38.426746 l
272.584601 38.359433 l
272.852122 38.304812 l
274.323493 38.286141 l
274.591015 38.258273 l
275.527341 38.273956 l
275.928624 38.215107 l
278.20256 38.282801 l
278.603843 38.200901 l
279.406409 38.261843 l
281.412823 38.290666 l
288.635914 38.279341 l
309.903905 38.280418 l
310.037666 37.659608 l
310.57271 37.659191 l
310.840232 37.738746 l
311.107754 37.695801 l
311.642797 37.81047 l
311.910319 37.798616 l
313.782973 37.848712 l
314.585538 37.796204 l
315.120582 37.86314 l
316.993235 37.850517 l
317.528279 37.835807 l
321.273586 37.827513 l
323.28 37.821333 l
323.28 37.821333 l
stroke
grestore
0.451 setgray
gsave
133.6 125.9 189.7 31.73 clipbox
189.652813 151.955057 m
189.920334 146.213248 l
190.455378 141.021124 l
191.124183 137.193471 l
191.926749 134.33441 l
192.328031 133.358741 l
192.863075 131.806183 l
193.53188 129.98728 l
193.933163 129.348882 l
194.601968 128.78602 l
195.00325 127.45405 l
195.538294 125.794129 l
196.073338 125.57783 l
196.34086 125.503306 l
197.143426 124.678039 l
197.544708 124.460413 l
198.347274 123.321569 l
199.417362 120.577165 l
204.098995 105.677854 l
205.570365 102.960807 l
206.372931 100.294329 l
206.907975 99.378723 l
207.175497 99.206528 l
208.513106 99.08538 l
216.13748 99.076806 l
229.647336 99.076806 l
229.781097 104.829284 l
229.914858 104.56237 l
269.775621 104.585655 l
269.909382 104.702189 l
270.176903 104.527693 l
270.845708 104.531154 l
309.903905 104.529613 l
310.037666 104.726691 l
310.305188 104.560529 l
310.840232 104.563902 l
317.260757 104.565017 l
323.28 104.565029 l
323.28 104.565029 l
stroke
grestore
gsave
133.6 125.9 189.7 31.73 clipbox
189.652813 151.955057 m
189.920334 146.213248 l
190.455378 141.021124 l
191.124183 137.193471 l
191.926749 134.33441 l
192.328031 133.358741 l
192.863075 131.806183 l
193.53188 129.98728 l
193.933163 129.348895 l
194.601968 128.786012 l
195.00325 127.45405 l
195.538294 125.79411 l
196.073338 125.577841 l
196.34086 125.503285 l
197.143426 124.678067 l
197.544708 124.460413 l
198.347274 123.32161 l
199.417362 120.577307 l
204.098995 105.732873 l
205.704126 102.896895 l
206.23917 101.674734 l
206.907975 101.055024 l
207.309258 101.029002 l
207.57678 101.05966 l
211.723369 101.016313 l
229.647336 101.003262 l
229.781097 100.869028 l
230.18238 100.996857 l
237.672993 101.002253 l
269.775621 101.003262 l
269.909382 100.869028 l
270.310664 100.996857 l
277.801278 101.002253 l
309.903905 101.003262 l
310.037666 100.869028 l
310.438949 100.996857 l
317.929562 101.002253 l
323.28 101.003262 l
323.28 101.003262 l
stroke
grestore
gsave
133.6 125.9 189.7 31.73 clipbox
189.652813 151.955057 m
189.920334 146.213248 l
190.455378 141.021124 l
191.124183 137.193471 l
191.926749 134.33441 l
192.328031 133.358741 l
192.863075 131.806183 l
193.53188 129.98728 l
193.933163 129.348882 l
194.601968 128.78602 l
195.00325 127.45405 l
195.538294 125.794129 l
196.073338 125.57783 l
196.34086 125.503306 l
197.143426 124.678039 l
197.544708 124.460413 l
198.347274 123.321569 l
199.417362 120.577165 l
204.098995 105.677854 l
205.570365 102.960807 l
206.372931 100.294329 l
206.907975 99.378723 l
207.175497 99.206528 l
208.513106 99.08538 l
216.13748 99.076806 l
323.28 99.076806 l
323.28 99.076806 l
stroke
grestore
gsave
133.6 125.9 189.7 31.73 clipbox
189.652813 151.955057 m
189.920334 146.213248 l
190.455378 141.021124 l
191.124183 137.193471 l
191.926749 134.33441 l
192.328031 133.358741 l
192.863075 131.806183 l
193.53188 129.98728 l
193.933163 129.348882 l
194.601968 128.78602 l
195.00325 127.45405 l
195.538294 125.794129 l
196.073338 125.57783 l
196.34086 125.503306 l
197.143426 124.678039 l
197.544708 124.460413 l
198.347274 123.321569 l
199.417362 120.577165 l
204.098995 105.677854 l
205.570365 102.960807 l
206.372931 100.294329 l
206.907975 99.378723 l
207.175497 99.206528 l
208.513106 99.08538 l
216.13748 99.076806 l
323.28 99.076806 l
323.28 99.076806 l
stroke
grestore
0 setlinecap
[9.6 2.4 1.5 2.4] 0 setdash
0.000 setgray
gsave
133.6 125.9 189.7 31.73 clipbox
189.652813 151.955057 m
189.920334 146.213248 l
190.455378 141.021124 l
191.124183 137.193471 l
191.926749 134.334417 l
192.328031 133.358741 l
192.863075 131.806231 l
193.53188 129.987308 l
193.933163 129.348879 l
194.601968 128.786032 l
195.00325 127.453979 l
195.538294 125.794325 l
196.073338 125.578081 l
196.34086 125.503296 l
197.143426 124.678162 l
197.544708 124.460574 l
198.347274 123.32161 l
199.417362 120.576915 l
201.691298 113.535825 l
201.825059 113.333432 l
202.493864 110.947632 l
202.895146 110.209209 l
203.296429 108.757959 l
203.697712 107.650767 l
203.831473 107.788693 l
204.098995 108.512264 l
204.366517 108.24289 l
204.634039 108.353679 l
204.7678 107.984373 l
204.901561 108.649852 l
205.169083 106.90062 l
205.302843 107.008743 l
205.436604 106.875282 l
205.570365 107.144069 l
205.837887 106.471044 l
205.971648 106.655985 l
206.105409 107.630885 l
206.23917 107.559863 l
206.372931 107.673828 l
206.640453 107.456394 l
206.907975 107.891892 l
207.041736 107.491358 l
207.175497 108.045751 l
207.309258 107.529718 l
207.57678 107.558974 l
207.710541 107.835072 l
208.111823 107.561304 l
208.245584 107.702972 l
208.513106 107.521099 l
208.646867 107.73503 l
208.780628 107.537902 l
208.914389 107.649809 l
209.04815 107.547852 l
209.315672 107.764388 l
209.850716 107.815202 l
210.118238 107.58404 l
210.251999 107.813644 l
210.653281 107.554862 l
210.787042 107.745133 l
210.920803 107.622008 l
211.188325 107.751397 l
211.322086 107.732135 l
211.455847 107.55438 l
211.85713 107.732386 l
211.990891 107.556064 l
212.124652 107.821912 l
212.659696 107.751556 l
212.927218 107.582633 l
229.513575 107.58175 l
229.647336 107.58175 l
229.781097 104.784935 l
230.18238 104.552033 l
231.386228 104.511885 l
231.921272 104.509871 l
237.004188 104.490514 l
238.074276 104.560873 l
239.278124 104.533066 l
242.087104 104.522925 l
253.055502 104.529667 l
269.775621 104.529667 l
269.909382 104.746062 l
270.176903 104.563083 l
271.782035 104.582971 l
272.584601 104.552176 l
274.055971 104.567414 l
274.992298 104.546757 l
278.871365 104.576337 l
289.572241 104.577141 l
323.28 104.603633 l
323.28 104.603633 l
stroke
grestore
[5.55 2.4] 0 setdash
gsave
133.6 125.9 189.7 31.73 clipbox
189.652813 151.955057 m
189.920334 146.213248 l
190.455378 141.021124 l
191.124183 137.193471 l
191.926749 134.33441 l
192.328031 133.358741 l
192.863075 131.806183 l
193.53188 129.98728 l
193.933163 129.348885 l
194.601968 128.786016 l
195.00325 127.454038 l
195.538294 125.794139 l
196.073338 125.57782 l
196.34086 125.503317 l
197.143426 124.678026 l
197.544708 124.460428 l
198.347274 123.321569 l
199.417362 120.577208 l
204.098995 105.629603 l
205.436604 103.172477 l
205.837887 101.696711 l
206.506692 98.672067 l
207.844301 92.99343 l
208.513106 90.610431 l
209.449433 86.268196 l
210.51952 82.623214 l
211.054564 80.216197 l
213.462261 68.149474 l
214.264827 64.934555 l
215.067393 61.091831 l
216.003719 55.503084 l
216.940046 51.525637 l
217.608851 48.561537 l
218.277655 45.767737 l
218.411416 45.652044 l
218.678938 45.322523 l
218.812699 45.259571 l
218.94646 45.45279 l
219.213982 45.111251 l
219.347743 45.09977 l
219.481504 44.813588 l
219.749026 45.057351 l
220.417831 45.008073 l
221.086635 44.993984 l
229.647336 44.982296 l
229.781097 38.707754 l
230.048619 38.051735 l
230.18238 37.943234 l
230.449902 38.003497 l
230.583663 37.960189 l
230.851185 38.06138 l
231.252467 38.04581 l
231.787511 38.097959 l
234.596491 38.191206 l
234.864013 38.139727 l
256.667048 38.246484 l
269.775621 38.246484 l
269.909382 37.644461 l
272.45084 37.852337 l
272.718361 37.76644 l
274.055971 37.849291 l
275.25982 37.844014 l
283.686759 37.835282 l
301.744487 37.834756 l
309.903905 37.834756 l
310.171427 37.522102 l
311.107754 37.739352 l
311.509037 37.72457 l
312.311602 37.771082 l
312.980407 37.787671 l
320.337259 37.81056 l
321.80863 37.823313 l
323.28 37.825322 l
323.28 37.825322 l
stroke
grestore
0.800 setlinewidth
[] 0 setdash
gsave
/o {
gsave
newpath
translate
0.8 setlinewidth
1 setlinejoin
0 setlinecap
0 0 m
0 -3.5 l

gsave
0.000 setgray
fill
grestore
stroke
grestore
} bind def
189.653 31.7312 o
grestore
gsave
187.426250 19.418750 translate
0.000000 rotate
0.000000 0 m /zero glyphshow
grestore
gsave
/o {
gsave
newpath
translate
0.8 setlinewidth
1 setlinejoin
0 setlinecap
0 0 m
0 -3.5 l

gsave
0.000 setgray
fill
grestore
stroke
grestore
} bind def
216.405 31.7312 o
grestore
gsave
209.725315 19.418750 translate
0.000000 rotate
0.000000 0 m /two glyphshow
4.453613 0 m /zero glyphshow
8.907227 0 m /zero glyphshow
grestore
gsave
/o {
gsave
newpath
translate
0.8 setlinewidth
1 setlinejoin
0 setlinecap
0 0 m
0 -3.5 l

gsave
0.000 setgray
fill
grestore
stroke
grestore
} bind def
243.157 31.7312 o
grestore
gsave
236.477504 19.418750 translate
0.000000 rotate
0.000000 0 m /four glyphshow
4.453613 0 m /zero glyphshow
8.907227 0 m /zero glyphshow
grestore
gsave
/o {
gsave
newpath
translate
0.8 setlinewidth
1 setlinejoin
0 setlinecap
0 0 m
0 -3.5 l

gsave
0.000 setgray
fill
grestore
stroke
grestore
} bind def
269.909 31.7312 o
grestore
gsave
263.229694 19.418750 translate
0.000000 rotate
0.000000 0 m /six glyphshow
4.453613 0 m /zero glyphshow
8.907227 0 m /zero glyphshow
grestore
gsave
/o {
gsave
newpath
translate
0.8 setlinewidth
1 setlinejoin
0 setlinecap
0 0 m
0 -3.5 l

gsave
0.000 setgray
fill
grestore
stroke
grestore
} bind def
296.662 31.7312 o
grestore
gsave
289.981884 19.418750 translate
0.000000 rotate
0.000000 0 m /eight glyphshow
4.453613 0 m /zero glyphshow
8.907227 0 m /zero glyphshow
grestore
gsave
229.614844 8.653125 translate
0.000000 rotate
0.000000 0 m /I glyphshow
2.064453 0 m /n glyphshow
6.500977 0 m /n glyphshow
10.937500 0 m /e glyphshow
15.244141 0 m /r glyphshow
18.122070 0 m /space glyphshow
20.347168 0 m /I glyphshow
22.411621 0 m /t glyphshow
25.156250 0 m /e glyphshow
29.462891 0 m /r glyphshow
32.340820 0 m /a glyphshow
36.630371 0 m /t glyphshow
39.375000 0 m /i glyphshow
41.319824 0 m /o glyphshow
45.602539 0 m /n glyphshow
50.039062 0 m /s glyphshow
grestore
gsave
/o {
gsave
newpath
translate
0.8 setlinewidth
1 setlinejoin
0 setlinecap
0 0 m
-3.5 0 l

gsave
0.000 setgray
fill
grestore
stroke
grestore
} bind def
189.653 53.1037 o
grestore
gsave
/o {
gsave
newpath
translate
0.8 setlinewidth
1 setlinejoin
0 setlinecap
0 0 m
-3.5 0 l

gsave
0.000 setgray
fill
grestore
stroke
grestore
} bind def
189.653 75.9861 o
grestore
gsave
/o {
gsave
newpath
translate
0.8 setlinewidth
1 setlinejoin
0 setlinecap
0 0 m
-3.5 0 l

gsave
0.000 setgray
fill
grestore
stroke
grestore
} bind def
189.653 98.8685 o
grestore
gsave
/o {
gsave
newpath
translate
0.8 setlinewidth
1 setlinejoin
0 setlinecap
0 0 m
-3.5 0 l

gsave
0.000 setgray
fill
grestore
stroke
grestore
} bind def
189.653 121.751 o
grestore
gsave
/o {
gsave
newpath
translate
0.8 setlinewidth
1 setlinejoin
0 setlinecap
0 0 m
-3.5 0 l

gsave
0.000 setgray
fill
grestore
stroke
grestore
} bind def
189.653 144.633 o
grestore
0 setlinejoin
2 setlinecap
[] 0 setdash
gsave
189.652813 31.73125 m
189.652813 157.68 l
stroke
grestore
gsave
323.28 31.73125 m
323.28 157.68 l
stroke
grestore
gsave
189.652813 31.73125 m
323.28 31.73125 l
stroke
grestore
gsave
189.652813 157.68 m
323.28 157.68 l
stroke
grestore
1.000 setlinewidth
0 setlinecap
0.800 setgray
gsave
232.978125 119.42 m
326.3 119.42 l
327.233333 119.42 327.7 119.886667 327.7 120.82 c
327.7 161.1825 l
327.7 162.115833 327.233333 162.5825 326.3 162.5825 c
232.978125 162.5825 l
232.044792 162.5825 231.578125 162.115833 231.578125 161.1825 c
231.578125 120.82 l
231.578125 119.886667 232.044792 119.42 232.978125 119.42 c
cl
gsave
1.000 setgray
fill
grestore
stroke
grestore
1.500 setlinewidth
1 setlinejoin
[9.6 2.4 1.5 2.4] 0 setdash
0.000 setgray
gsave
234.378125 156.92 m
248.378125 156.92 l
stroke
grestore
gsave
253.978125 154.470000 translate
0.000000 rotate
0.000000 0 m /S glyphshow
4.443359 0 m /i glyphshow
6.388184 0 m /n glyphshow
10.824707 0 m /g glyphshow
15.268066 0 m /l glyphshow
17.212891 0 m /e glyphshow
grestore
2 setlinecap
[] 0 setdash
0.451 setgray
gsave
234.378125 146.654375 m
248.378125 146.654375 l
stroke
grestore
0.000 setgray
gsave
253.978125 144.204375 translate
0.000000 rotate
0.000000 0 m /R glyphshow
4.488770 0 m /e glyphshow
8.795410 0 m /f glyphshow
11.259766 0 m /i glyphshow
13.204590 0 m /n glyphshow
17.641113 0 m /e glyphshow
21.947754 0 m /m glyphshow
28.766602 0 m /e glyphshow
33.073242 0 m /n glyphshow
37.509766 0 m /t glyphshow
40.254395 0 m /space glyphshow
42.479492 0 m /V glyphshow
46.768066 0 m /a glyphshow
51.057617 0 m /r glyphshow
53.935547 0 m /i glyphshow
55.880371 0 m /a glyphshow
60.169922 0 m /b glyphshow
64.613281 0 m /l glyphshow
66.558105 0 m /e glyphshow
grestore
0.149 setgray
gsave
234.378125 136.38875 m
248.378125 136.38875 l
stroke
grestore
0.000 setgray
gsave
253.978125 133.938750 translate
0.000000 rotate
0.000000 0 m /C glyphshow
4.887695 0 m /o glyphshow
9.170410 0 m /r glyphshow
11.923340 0 m /r glyphshow
14.676270 0 m /e glyphshow
18.982910 0 m /c glyphshow
22.831543 0 m /t glyphshow
25.576172 0 m /i glyphshow
27.520996 0 m /o glyphshow
31.803711 0 m /n glyphshow
36.240234 0 m /space glyphshow
38.465332 0 m /V glyphshow
42.753906 0 m /a glyphshow
47.043457 0 m /r glyphshow
49.921387 0 m /i glyphshow
51.866211 0 m /a glyphshow
56.155762 0 m /b glyphshow
60.599121 0 m /l glyphshow
62.543945 0 m /e glyphshow
grestore
0 setlinecap
[5.55 2.4] 0 setdash
gsave
234.378125 126.123125 m
248.378125 126.123125 l
stroke
grestore
gsave
253.978125 123.673125 translate
0.000000 rotate
0.000000 0 m /D glyphshow
5.390137 0 m /o glyphshow
9.672852 0 m /u glyphshow
14.109375 0 m /b glyphshow
18.552734 0 m /l glyphshow
20.497559 0 m /e glyphshow
grestore

end
showpage
