%!PS-Adobe-3.0 EPSF-3.0
%%Title: ../smc20/figures/convergence-airfoil_2d-300.eps
%%Creator: matplotlib version 3.2.1, http://matplotlib.org/
%%CreationDate: Wed Sep  2 09:57:22 2020
%%Orientation: portrait
%%BoundingBox: 138.73000000000005 311.28875 473.27 480.71124999999995
%%EndComments
%%BeginProlog
/mpldict 8 dict def
mpldict begin
/m { moveto } bind def
/l { lineto } bind def
/r { rlineto } bind def
/c { curveto } bind def
/cl { closepath } bind def
/box {
m
1 index 0 r
0 exch r
neg 0 r
cl
} bind def
/clipbox {
box
clip
newpath
} bind def
%!PS-Adobe-3.0 Resource-Font
%%Title: DejaVu Sans
%%Copyright: Copyright (c) 2003 by Bitstream, Inc. All Rights Reserved. Copyright (c) 2006 by Tavmjong Bah. All Rights Reserved. DejaVu changes are in public domain 
%%Creator: Converted from TrueType to type 3 by PPR
25 dict begin
/_d{bind def}bind def
/_m{moveto}_d
/_l{lineto}_d
/_cl{closepath eofill}_d
/_c{curveto}_d
/_sc{7 -1 roll{setcachedevice}{pop pop pop pop pop pop}ifelse}_d
/_e{exec}_d
/FontName /DejaVuSans def
/PaintType 0 def
/FontMatrix[.001 0 0 .001 0 0]def
/FontBBox[-1021 -463 1793 1232]def
/FontType 3 def
/Encoding [ /space /zero /one /two /three /four /six /seven /eight /B /D /E /I /L /M /N /S /a /b /c /d /e /g /i /k /l /m /n /o /r /s /t /u /w /x /minus ] def
/FontInfo 10 dict dup begin
/FamilyName (DejaVu Sans) def
/FullName (DejaVu Sans) def
/Notice (Copyright (c) 2003 by Bitstream, Inc. All Rights Reserved. Copyright (c) 2006 by Tavmjong Bah. All Rights Reserved. DejaVu changes are in public domain ) def
/Weight (Book) def
/Version (Version 2.35) def
/ItalicAngle 0.0 def
/isFixedPitch false def
/UnderlinePosition -130 def
/UnderlineThickness 90 def
end readonly def
/CharStrings 37 dict dup begin
/.notdef 0 def
/space{318 0 0 0 0 0 _sc
}_d
/zero{636 0 66 -13 570 742 _sc
318 664 _m
267 664 229 639 203 589 _c
177 539 165 464 165 364 _c
165 264 177 189 203 139 _c
229 89 267 64 318 64 _c
369 64 407 89 433 139 _c
458 189 471 264 471 364 _c
471 464 458 539 433 589 _c
407 639 369 664 318 664 _c
318 742 _m
399 742 461 709 505 645 _c
548 580 570 486 570 364 _c
570 241 548 147 505 83 _c
461 19 399 -13 318 -13 _c
236 -13 173 19 130 83 _c
87 147 66 241 66 364 _c
66 486 87 580 130 645 _c
173 709 236 742 318 742 _c
_cl}_d
/one{636 0 110 0 544 729 _sc
124 83 _m
285 83 _l
285 639 _l
110 604 _l
110 694 _l
284 729 _l
383 729 _l
383 83 _l
544 83 _l
544 0 _l
124 0 _l
124 83 _l
_cl}_d
/two{{636 0 73 0 536 742 _sc
192 83 _m
536 83 _l
536 0 _l
73 0 _l
73 83 _l
110 121 161 173 226 239 _c
290 304 331 346 348 365 _c
380 400 402 430 414 455 _c
426 479 433 504 433 528 _c
433 566 419 598 392 622 _c
365 646 330 659 286 659 _c
255 659 222 653 188 643 _c
154 632 117 616 78 594 _c
78 694 _l
118 710 155 722 189 730 _c
223 738 255 742 284 742 _c
}_e{359 742 419 723 464 685 _c
509 647 532 597 532 534 _c
532 504 526 475 515 449 _c
504 422 484 390 454 354 _c
446 344 420 317 376 272 _c
332 227 271 164 192 83 _c
_cl}_e}_d
/three{{636 0 76 -13 556 742 _sc
406 393 _m
453 383 490 362 516 330 _c
542 298 556 258 556 212 _c
556 140 531 84 482 45 _c
432 6 362 -13 271 -13 _c
240 -13 208 -10 176 -4 _c
144 1 110 10 76 22 _c
76 117 _l
103 101 133 89 166 81 _c
198 73 232 69 268 69 _c
330 69 377 81 409 105 _c
441 129 458 165 458 212 _c
458 254 443 288 413 312 _c
383 336 341 349 287 349 _c
}_e{202 349 _l
202 430 _l
291 430 _l
339 430 376 439 402 459 _c
428 478 441 506 441 543 _c
441 580 427 609 401 629 _c
374 649 336 659 287 659 _c
260 659 231 656 200 650 _c
169 644 135 635 98 623 _c
98 711 _l
135 721 170 729 203 734 _c
235 739 266 742 296 742 _c
370 742 429 725 473 691 _c
517 657 539 611 539 553 _c
539 513 527 479 504 451 _c
481 423 448 403 406 393 _c
_cl}_e}_d
/four{636 0 49 0 580 729 _sc
378 643 _m
129 254 _l
378 254 _l
378 643 _l
352 729 _m
476 729 _l
476 254 _l
580 254 _l
580 172 _l
476 172 _l
476 0 _l
378 0 _l
378 172 _l
49 172 _l
49 267 _l
352 729 _l
_cl}_d
/six{{636 0 70 -13 573 742 _sc
330 404 _m
286 404 251 388 225 358 _c
199 328 186 286 186 234 _c
186 181 199 139 225 109 _c
251 79 286 64 330 64 _c
374 64 409 79 435 109 _c
461 139 474 181 474 234 _c
474 286 461 328 435 358 _c
409 388 374 404 330 404 _c
526 713 _m
526 623 _l
501 635 476 644 451 650 _c
425 656 400 659 376 659 _c
310 659 260 637 226 593 _c
}_e{192 549 172 482 168 394 _c
187 422 211 444 240 459 _c
269 474 301 482 336 482 _c
409 482 467 459 509 415 _c
551 371 573 310 573 234 _c
573 159 550 99 506 54 _c
462 9 403 -13 330 -13 _c
246 -13 181 19 137 83 _c
92 147 70 241 70 364 _c
70 479 97 571 152 639 _c
206 707 280 742 372 742 _c
396 742 421 739 447 735 _c
472 730 498 723 526 713 _c
_cl}_e}_d
/seven{636 0 82 0 551 729 _sc
82 729 _m
551 729 _l
551 687 _l
286 0 _l
183 0 _l
432 646 _l
82 646 _l
82 729 _l
_cl}_d
/eight{{636 0 68 -13 568 742 _sc
318 346 _m
271 346 234 333 207 308 _c
180 283 167 249 167 205 _c
167 161 180 126 207 101 _c
234 76 271 64 318 64 _c
364 64 401 76 428 102 _c
455 127 469 161 469 205 _c
469 249 455 283 429 308 _c
402 333 365 346 318 346 _c
219 388 _m
177 398 144 418 120 447 _c
96 476 85 511 85 553 _c
85 611 105 657 147 691 _c
188 725 245 742 318 742 _c
}_e{390 742 447 725 489 691 _c
530 657 551 611 551 553 _c
551 511 539 476 515 447 _c
491 418 459 398 417 388 _c
464 377 501 355 528 323 _c
554 291 568 251 568 205 _c
568 134 546 80 503 43 _c
459 5 398 -13 318 -13 _c
237 -13 175 5 132 43 _c
89 80 68 134 68 205 _c
68 251 81 291 108 323 _c
134 355 171 377 219 388 _c
183 544 _m
183 506 194 476 218 455 _c
}_e{242 434 275 424 318 424 _c
360 424 393 434 417 455 _c
441 476 453 506 453 544 _c
453 582 441 611 417 632 _c
393 653 360 664 318 664 _c
275 664 242 653 218 632 _c
194 611 183 582 183 544 _c
_cl}_e}_d
/B{{686 0 98 0 615 729 _sc
197 348 _m
197 81 _l
355 81 _l
408 81 447 92 473 114 _c
498 136 511 169 511 215 _c
511 260 498 293 473 315 _c
447 337 408 348 355 348 _c
197 348 _l
197 648 _m
197 428 _l
343 428 _l
391 428 426 437 450 455 _c
474 473 486 500 486 538 _c
486 574 474 602 450 620 _c
426 638 391 648 343 648 _c
197 648 _l
98 729 _m
350 729 _l
}_e{425 729 483 713 524 682 _c
564 650 585 606 585 549 _c
585 504 574 468 553 442 _c
532 416 502 399 462 393 _c
510 382 548 360 575 327 _c
601 294 615 253 615 204 _c
615 138 592 88 548 53 _c
504 17 441 0 360 0 _c
98 0 _l
98 729 _l
_cl}_e}_d
/D{770 0 98 0 711 729 _sc
197 648 _m
197 81 _l
316 81 _l
416 81 490 103 537 149 _c
583 195 607 267 607 365 _c
607 463 583 534 537 580 _c
490 625 416 648 316 648 _c
197 648 _l
98 729 _m
301 729 _l
442 729 546 699 612 641 _c
678 582 711 490 711 365 _c
711 239 677 147 611 88 _c
545 29 441 0 301 0 _c
98 0 _l
98 729 _l
_cl}_d
/E{632 0 98 0 568 729 _sc
98 729 _m
559 729 _l
559 646 _l
197 646 _l
197 430 _l
544 430 _l
544 347 _l
197 347 _l
197 83 _l
568 83 _l
568 0 _l
98 0 _l
98 729 _l
_cl}_d
/I{295 0 98 0 197 729 _sc
98 729 _m
197 729 _l
197 0 _l
98 0 _l
98 729 _l
_cl}_d
/L{557 0 98 0 552 729 _sc
98 729 _m
197 729 _l
197 83 _l
552 83 _l
552 0 _l
98 0 _l
98 729 _l
_cl}_d
/M{863 0 98 0 765 729 _sc
98 729 _m
245 729 _l
431 233 _l
618 729 _l
765 729 _l
765 0 _l
669 0 _l
669 640 _l
481 140 _l
382 140 _l
194 640 _l
194 0 _l
98 0 _l
98 729 _l
_cl}_d
/N{748 0 98 0 650 729 _sc
98 729 _m
231 729 _l
554 119 _l
554 729 _l
650 729 _l
650 0 _l
517 0 _l
194 610 _l
194 0 _l
98 0 _l
98 729 _l
_cl}_d
/S{{635 0 66 -13 579 742 _sc
535 705 _m
535 609 _l
497 627 462 640 429 649 _c
395 657 363 662 333 662 _c
279 662 237 651 208 631 _c
179 610 165 580 165 542 _c
165 510 174 485 194 469 _c
213 452 250 439 304 429 _c
364 417 _l
437 403 491 378 526 343 _c
561 307 579 260 579 201 _c
579 130 555 77 508 41 _c
460 5 391 -13 300 -13 _c
265 -13 228 -9 189 -2 _c
}_e{150 5 110 16 69 32 _c
69 134 _l
109 111 148 94 186 83 _c
224 71 262 66 300 66 _c
356 66 399 77 430 99 _c
460 121 476 152 476 194 _c
476 230 465 258 443 278 _c
421 298 385 313 335 323 _c
275 335 _l
201 349 148 372 115 404 _c
82 435 66 478 66 534 _c
66 598 88 649 134 686 _c
179 723 242 742 322 742 _c
356 742 390 739 426 733 _c
461 727 497 717 535 705 _c
}_e{_cl}_e}_d
/a{{613 0 60 -13 522 560 _sc
343 275 _m
270 275 220 266 192 250 _c
164 233 150 205 150 165 _c
150 133 160 107 181 89 _c
202 70 231 61 267 61 _c
317 61 357 78 387 114 _c
417 149 432 196 432 255 _c
432 275 _l
343 275 _l
522 312 _m
522 0 _l
432 0 _l
432 83 _l
411 49 385 25 355 10 _c
325 -5 287 -13 243 -13 _c
187 -13 142 2 109 33 _c
76 64 60 106 60 159 _c
}_e{60 220 80 266 122 298 _c
163 329 224 345 306 345 _c
432 345 _l
432 354 _l
432 395 418 427 391 450 _c
364 472 326 484 277 484 _c
245 484 215 480 185 472 _c
155 464 127 453 100 439 _c
100 522 _l
132 534 164 544 195 550 _c
226 556 256 560 286 560 _c
365 560 424 539 463 498 _c
502 457 522 395 522 312 _c
_cl}_e}_d
/b{{635 0 91 -13 580 760 _sc
487 273 _m
487 339 473 390 446 428 _c
418 466 381 485 334 485 _c
286 485 249 466 222 428 _c
194 390 181 339 181 273 _c
181 207 194 155 222 117 _c
249 79 286 61 334 61 _c
381 61 418 79 446 117 _c
473 155 487 207 487 273 _c
181 464 _m
199 496 223 520 252 536 _c
281 552 316 560 356 560 _c
422 560 476 533 518 481 _c
559 428 580 359 580 273 _c
}_e{580 187 559 117 518 65 _c
476 13 422 -13 356 -13 _c
316 -13 281 -5 252 10 _c
223 25 199 49 181 82 _c
181 0 _l
91 0 _l
91 760 _l
181 760 _l
181 464 _l
_cl}_e}_d
/c{{550 0 55 -13 488 560 _sc
488 526 _m
488 442 _l
462 456 437 466 411 473 _c
385 480 360 484 334 484 _c
276 484 230 465 198 428 _c
166 391 150 339 150 273 _c
150 206 166 154 198 117 _c
230 80 276 62 334 62 _c
360 62 385 65 411 72 _c
437 79 462 90 488 104 _c
488 21 _l
462 9 436 0 410 -5 _c
383 -10 354 -13 324 -13 _c
242 -13 176 12 128 64 _c
}_e{79 115 55 185 55 273 _c
55 362 79 432 128 483 _c
177 534 244 560 330 560 _c
358 560 385 557 411 551 _c
437 545 463 537 488 526 _c
_cl}_e}_d
/d{{635 0 55 -13 544 760 _sc
454 464 _m
454 760 _l
544 760 _l
544 0 _l
454 0 _l
454 82 _l
435 49 411 25 382 10 _c
353 -5 319 -13 279 -13 _c
213 -13 159 13 117 65 _c
75 117 55 187 55 273 _c
55 359 75 428 117 481 _c
159 533 213 560 279 560 _c
319 560 353 552 382 536 _c
411 520 435 496 454 464 _c
148 273 _m
148 207 161 155 188 117 _c
215 79 253 61 301 61 _c
}_e{348 61 385 79 413 117 _c
440 155 454 207 454 273 _c
454 339 440 390 413 428 _c
385 466 348 485 301 485 _c
253 485 215 466 188 428 _c
161 390 148 339 148 273 _c
_cl}_e}_d
/e{{615 0 55 -13 562 560 _sc
562 296 _m
562 252 _l
149 252 _l
153 190 171 142 205 110 _c
238 78 284 62 344 62 _c
378 62 412 66 444 74 _c
476 82 509 95 541 113 _c
541 28 _l
509 14 476 3 442 -3 _c
408 -9 373 -13 339 -13 _c
251 -13 182 12 131 62 _c
80 112 55 181 55 268 _c
55 357 79 428 127 481 _c
175 533 241 560 323 560 _c
397 560 455 536 498 489 _c
}_e{540 441 562 377 562 296 _c
472 322 _m
471 371 457 410 431 440 _c
404 469 368 484 324 484 _c
274 484 234 469 204 441 _c
174 413 156 373 152 322 _c
472 322 _l
_cl}_e}_d
/g{{635 0 55 -207 544 560 _sc
454 280 _m
454 344 440 395 414 431 _c
387 467 349 485 301 485 _c
253 485 215 467 188 431 _c
161 395 148 344 148 280 _c
148 215 161 165 188 129 _c
215 93 253 75 301 75 _c
349 75 387 93 414 129 _c
440 165 454 215 454 280 _c
544 68 _m
544 -24 523 -93 482 -139 _c
440 -184 377 -207 292 -207 _c
260 -207 231 -204 203 -200 _c
175 -195 147 -188 121 -178 _c
}_e{121 -91 _l
147 -105 173 -115 199 -122 _c
225 -129 251 -133 278 -133 _c
336 -133 380 -117 410 -87 _c
439 -56 454 -10 454 52 _c
454 96 _l
435 64 411 40 382 24 _c
353 8 319 0 279 0 _c
211 0 157 25 116 76 _c
75 127 55 195 55 280 _c
55 364 75 432 116 483 _c
157 534 211 560 279 560 _c
319 560 353 552 382 536 _c
411 520 435 496 454 464 _c
454 547 _l
544 547 _l
}_e{544 68 _l
_cl}_e}_d
/i{278 0 94 0 184 760 _sc
94 547 _m
184 547 _l
184 0 _l
94 0 _l
94 547 _l
94 760 _m
184 760 _l
184 646 _l
94 646 _l
94 760 _l
_cl}_d
/k{579 0 91 0 576 760 _sc
91 760 _m
181 760 _l
181 311 _l
449 547 _l
564 547 _l
274 291 _l
576 0 _l
459 0 _l
181 267 _l
181 0 _l
91 0 _l
91 760 _l
_cl}_d
/l{278 0 94 0 184 760 _sc
94 760 _m
184 760 _l
184 0 _l
94 0 _l
94 760 _l
_cl}_d
/m{{974 0 91 0 889 560 _sc
520 442 _m
542 482 569 511 600 531 _c
631 550 668 560 711 560 _c
767 560 811 540 842 500 _c
873 460 889 403 889 330 _c
889 0 _l
799 0 _l
799 327 _l
799 379 789 418 771 444 _c
752 469 724 482 686 482 _c
639 482 602 466 575 435 _c
548 404 535 362 535 309 _c
535 0 _l
445 0 _l
445 327 _l
445 379 435 418 417 444 _c
398 469 369 482 331 482 _c
}_e{285 482 248 466 221 435 _c
194 404 181 362 181 309 _c
181 0 _l
91 0 _l
91 547 _l
181 547 _l
181 462 _l
201 495 226 520 255 536 _c
283 552 317 560 357 560 _c
397 560 430 550 458 530 _c
486 510 506 480 520 442 _c
_cl}_e}_d
/n{634 0 91 0 549 560 _sc
549 330 _m
549 0 _l
459 0 _l
459 327 _l
459 379 448 417 428 443 _c
408 469 378 482 338 482 _c
289 482 251 466 223 435 _c
195 404 181 362 181 309 _c
181 0 _l
91 0 _l
91 547 _l
181 547 _l
181 462 _l
202 494 227 519 257 535 _c
286 551 320 560 358 560 _c
420 560 468 540 500 501 _c
532 462 549 405 549 330 _c
_cl}_d
/o{612 0 55 -13 557 560 _sc
306 484 _m
258 484 220 465 192 427 _c
164 389 150 338 150 273 _c
150 207 163 156 191 118 _c
219 80 257 62 306 62 _c
354 62 392 80 420 118 _c
448 156 462 207 462 273 _c
462 337 448 389 420 427 _c
392 465 354 484 306 484 _c
306 560 _m
384 560 445 534 490 484 _c
534 433 557 363 557 273 _c
557 183 534 113 490 63 _c
445 12 384 -13 306 -13 _c
227 -13 165 12 121 63 _c
77 113 55 183 55 273 _c
55 363 77 433 121 484 _c
165 534 227 560 306 560 _c
_cl}_d
/r{411 0 91 0 411 560 _sc
411 463 _m
401 469 390 473 378 476 _c
366 478 353 480 339 480 _c
288 480 249 463 222 430 _c
194 397 181 350 181 288 _c
181 0 _l
91 0 _l
91 547 _l
181 547 _l
181 462 _l
199 495 224 520 254 536 _c
284 552 321 560 365 560 _c
371 560 378 559 386 559 _c
393 558 401 557 411 555 _c
411 463 _l
_cl}_d
/s{{521 0 54 -13 472 560 _sc
443 531 _m
443 446 _l
417 458 391 468 364 475 _c
336 481 308 485 279 485 _c
234 485 200 478 178 464 _c
156 450 145 430 145 403 _c
145 382 153 366 169 354 _c
185 342 217 330 265 320 _c
296 313 _l
360 299 405 279 432 255 _c
458 230 472 195 472 151 _c
472 100 452 60 412 31 _c
372 1 316 -13 246 -13 _c
216 -13 186 -10 154 -5 _c
}_e{122 0 89 8 54 20 _c
54 113 _l
87 95 120 82 152 74 _c
184 65 216 61 248 61 _c
290 61 323 68 346 82 _c
368 96 380 117 380 144 _c
380 168 371 187 355 200 _c
339 213 303 226 247 238 _c
216 245 _l
160 257 119 275 95 299 _c
70 323 58 356 58 399 _c
58 450 76 490 112 518 _c
148 546 200 560 268 560 _c
301 560 332 557 362 552 _c
391 547 418 540 443 531 _c
}_e{_cl}_e}_d
/t{392 0 27 0 368 702 _sc
183 702 _m
183 547 _l
368 547 _l
368 477 _l
183 477 _l
183 180 _l
183 135 189 106 201 94 _c
213 81 238 75 276 75 _c
368 75 _l
368 0 _l
276 0 _l
206 0 158 13 132 39 _c
106 65 93 112 93 180 _c
93 477 _l
27 477 _l
27 547 _l
93 547 _l
93 702 _l
183 702 _l
_cl}_d
/u{634 0 85 -13 543 560 _sc
85 216 _m
85 547 _l
175 547 _l
175 219 _l
175 167 185 129 205 103 _c
225 77 255 64 296 64 _c
344 64 383 79 411 110 _c
439 141 453 183 453 237 _c
453 547 _l
543 547 _l
543 0 _l
453 0 _l
453 84 _l
431 50 405 26 377 10 _c
348 -5 315 -13 277 -13 _c
214 -13 166 6 134 45 _c
101 83 85 140 85 216 _c
311 560 _m
311 560 _l
_cl}_d
/w{818 0 42 0 776 547 _sc
42 547 _m
132 547 _l
244 120 _l
356 547 _l
462 547 _l
574 120 _l
686 547 _l
776 547 _l
633 0 _l
527 0 _l
409 448 _l
291 0 _l
185 0 _l
42 547 _l
_cl}_d
/x{592 0 29 0 559 547 _sc
549 547 _m
351 281 _l
559 0 _l
453 0 _l
294 215 _l
135 0 _l
29 0 _l
241 286 _l
47 547 _l
153 547 _l
298 352 _l
443 547 _l
549 547 _l
_cl}_d
/minus{838 0 106 272 732 355 _sc
106 355 _m
732 355 _l
732 272 _l
106 272 _l
106 355 _l
_cl}_d
end readonly def

/BuildGlyph
 {exch begin
 CharStrings exch
 2 copy known not{pop /.notdef}if
 true 3 1 roll get exec
 end}_d

/BuildChar {
 1 index /Encoding get exch get
 1 index /BuildGlyph get exec
}_d

FontName currentdict end definefont pop
end
%%EndProlog
mpldict begin
138.73 311.289 translate
334.54 169.422 0 0 clipbox
gsave
0 -0 m
334.54 -0 l
334.54 169.4225 l
0 169.4225 l
cl
1.000 setgray
fill
grestore
gsave
44.965625 31.73125 m
178.592812 31.73125 l
178.592812 157.68 l
44.965625 157.68 l
cl
1.000 setgray
fill
grestore
1.500 setlinewidth
1 setlinejoin
2 setlinecap
[] 0 setdash
0.149 setgray
gsave
133.6 125.9 44.97 31.73 clipbox
44.965625 151.955057 m
45.233147 146.213248 l
45.768191 141.021124 l
46.436995 137.193471 l
47.239561 134.33441 l
47.640844 133.358761 l
48.175888 131.806231 l
48.844693 129.98728 l
49.245975 129.348885 l
49.91478 128.786036 l
50.316063 127.453961 l
50.851107 125.793807 l
51.386151 125.577611 l
51.653672 125.502879 l
52.456238 124.677779 l
52.857521 124.460457 l
53.660087 123.322456 l
54.730174 120.57793 l
57.00411 113.531349 l
57.405393 112.307021 l
57.539154 111.761368 l
57.672915 111.716912 l
57.806676 111.32363 l
57.940437 111.632647 l
58.074198 111.33498 l
58.207959 111.668628 l
58.34172 110.546737 l
58.475481 110.740729 l
58.743003 110.239755 l
58.876764 110.319582 l
59.010525 109.420577 l
59.144286 109.87917 l
59.278046 108.308488 l
59.411807 111.082331 l
59.679329 108.980319 l
59.81309 109.348026 l
59.946851 110.506521 l
60.348134 110.258308 l
60.481895 111.341515 l
60.615656 111.236904 l
60.749417 110.68554 l
60.883178 109.197609 l
61.016939 111.428 l
61.284461 110.441439 l
61.418222 111.955352 l
61.685744 109.545851 l
61.819505 108.960292 l
61.953265 110.209964 l
62.087026 109.997053 l
62.220787 109.189364 l
62.354548 110.351842 l
62.488309 108.649143 l
62.62207 110.31931 l
62.755831 109.39175 l
62.889592 109.442439 l
63.023353 107.953477 l
63.290875 109.906364 l
63.424636 109.543304 l
63.558397 110.350177 l
63.692158 107.514481 l
63.825919 108.558065 l
63.95968 108.151438 l
64.093441 109.41597 l
64.227202 109.401354 l
64.360963 107.729556 l
64.494723 111.183539 l
64.628484 111.385335 l
64.896006 108.664532 l
65.029767 108.42995 l
65.163528 111.275139 l
65.297289 108.047742 l
65.564811 110.767486 l
65.832333 111.342979 l
65.966094 110.384314 l
66.099855 111.362598 l
66.367377 109.558819 l
66.501138 111.270338 l
66.634899 109.816295 l
66.76866 109.881936 l
66.902421 110.844646 l
67.036181 109.111776 l
67.169942 109.36554 l
67.303703 108.752197 l
67.437464 109.007218 l
67.571225 107.698159 l
67.704986 108.111284 l
67.838747 106.350933 l
67.972508 107.703041 l
68.106269 110.290093 l
68.24003 107.326751 l
68.373791 107.478948 l
68.507552 107.276309 l
68.641313 109.671466 l
68.775074 108.928784 l
68.908835 109.961103 l
69.042596 109.481621 l
69.176357 109.592926 l
69.310118 107.894695 l
69.443879 109.137826 l
69.845161 107.049128 l
69.978922 107.688444 l
70.112683 110.301412 l
70.246444 107.307854 l
70.380205 107.406241 l
70.513966 110.604354 l
70.781488 107.601216 l
71.182771 108.226919 l
71.316532 111.031403 l
71.450293 108.687586 l
71.584054 108.804271 l
71.717815 110.451019 l
71.851576 110.28087 l
71.985337 107.904929 l
72.252858 110.564176 l
72.386619 108.657053 l
72.654141 109.27617 l
72.787902 111.919529 l
73.055424 108.682539 l
73.189185 108.209883 l
73.322946 109.094376 l
73.456707 108.439507 l
73.590468 110.077752 l
73.724229 108.616506 l
73.85799 109.478661 l
73.991751 108.582628 l
74.393034 110.061929 l
74.526795 108.512804 l
74.660556 109.00984 l
74.794317 110.131831 l
75.061838 108.844994 l
75.195599 108.372926 l
75.463121 108.521478 l
75.596882 108.316375 l
75.730643 108.717196 l
75.864404 109.83326 l
75.998165 112.19441 l
76.131926 108.516838 l
76.265687 109.390395 l
76.399448 108.475201 l
76.533209 111.143143 l
76.66697 111.045643 l
76.800731 110.41716 l
76.934492 112.173416 l
77.068253 108.714806 l
77.202014 109.16462 l
77.335775 110.048899 l
77.469535 107.862968 l
77.870818 112.014801 l
78.13834 108.072635 l
78.405862 109.245099 l
78.539623 111.872411 l
78.673384 110.901809 l
78.807145 109.018498 l
78.940906 109.059803 l
79.074667 110.986765 l
79.208428 109.380398 l
79.342189 109.46736 l
79.47595 108.818695 l
79.609711 108.900453 l
79.743472 109.112754 l
79.877233 111.377938 l
80.010993 108.424421 l
80.144754 110.438307 l
80.412276 108.382142 l
80.546037 109.799475 l
80.679798 108.555914 l
80.813559 109.688125 l
80.94732 109.013219 l
81.081081 111.455813 l
81.214842 109.487252 l
81.348603 109.244636 l
81.482364 108.594639 l
81.616125 109.316862 l
81.749886 111.794714 l
82.017408 107.982661 l
82.28493 108.788077 l
82.418691 108.52455 l
82.552452 110.755742 l
82.819973 108.901398 l
82.953734 109.062826 l
83.087495 108.423922 l
83.221256 108.409731 l
83.355017 108.098485 l
83.488778 108.819714 l
83.622539 108.314979 l
83.7563 108.857391 l
83.890061 110.867085 l
84.023822 108.628796 l
84.157583 109.689679 l
84.291344 109.734943 l
84.558866 107.794182 l
84.692627 110.461051 l
84.826388 108.739315 l
84.960149 109.28016 l
85.22767 101.436063 l
85.628953 99.304812 l
86.030236 98.027821 l
86.832802 95.093985 l
87.367846 94.186734 l
87.635368 93.538615 l
88.571694 91.185768 l
90.979391 85.301144 l
92.584523 82.23247 l
93.253327 82.190738 l
93.922132 81.822692 l
94.323415 80.932982 l
94.724698 79.923528 l
94.99222 79.383228 l
95.259742 78.481818 l
95.794785 77.751202 l
98.202482 71.116634 l
98.470004 70.083284 l
98.871287 69.318823 l
99.138809 68.73855 l
99.27257 68.77015 l
99.540092 68.45116 l
99.673853 68.414297 l
99.807614 68.716175 l
100.208897 67.589577 l
100.342658 67.730285 l
100.476419 67.477744 l
100.61018 67.758924 l
100.877701 67.111167 l
101.011462 67.181088 l
101.145223 67.63497 l
101.278984 67.166854 l
101.412745 67.596635 l
101.680267 67.190376 l
101.814028 67.516028 l
101.947789 67.52431 l
102.08155 67.383949 l
102.349072 66.555853 l
102.482833 67.270258 l
102.616594 67.269163 l
102.750355 67.758496 l
103.017877 66.340448 l
103.151638 67.267993 l
103.285399 66.804753 l
103.419159 67.374774 l
103.55292 67.191522 l
103.686681 66.586757 l
103.820442 67.219901 l
103.954203 67.216737 l
104.087964 66.327648 l
104.355486 67.04458 l
104.489247 66.557754 l
104.623008 67.496976 l
104.756769 67.247918 l
104.89053 67.527939 l
105.024291 67.266068 l
105.158052 67.326481 l
105.291813 67.177086 l
105.425574 66.702032 l
105.559335 66.999483 l
105.693096 66.522157 l
105.826857 67.636799 l
105.960617 67.197486 l
106.094378 67.496026 l
106.3619 66.772518 l
106.629422 67.409582 l
106.763183 66.765522 l
106.896944 67.067482 l
107.030705 66.903536 l
107.164466 67.205495 l
107.298227 66.566653 l
107.431988 67.372 l
107.565749 67.07944 l
107.69951 67.11249 l
107.967032 68.391318 l
108.100793 67.815893 l
108.234554 67.826074 l
108.635836 66.653121 l
108.903358 66.810028 l
109.037119 68.510952 l
109.17088 67.959653 l
109.304641 67.93768 l
109.438402 67.346676 l
109.572163 68.446292 l
109.705924 67.36975 l
109.973446 68.717275 l
110.240968 66.557554 l
110.374729 66.86706 l
110.50849 66.80778 l
110.642251 67.539098 l
110.776012 67.470931 l
110.909773 67.222035 l
111.043534 68.100531 l
111.177294 66.547268 l
111.311055 66.764767 l
111.444816 67.238836 l
111.578577 68.345323 l
112.113621 66.535078 l
112.381143 67.94109 l
112.514904 68.289921 l
112.648665 68.215963 l
112.916187 66.310277 l
113.183709 66.822518 l
113.584992 67.475855 l
113.718753 67.199771 l
113.852513 66.5848 l
113.986274 66.722609 l
114.120035 66.148221 l
114.387557 66.06907 l
114.521318 66.370346 l
114.655079 67.588369 l
114.922601 66.603905 l
115.056362 66.550963 l
115.190123 66.74015 l
115.323884 66.642984 l
115.457645 66.736801 l
115.591406 66.377775 l
115.858928 67.344702 l
115.992689 66.399892 l
116.12645 66.860818 l
116.393971 67.077183 l
116.795254 68.775792 l
116.929015 67.499845 l
117.062776 67.700292 l
117.196537 66.508323 l
117.330298 67.73943 l
117.464059 66.975696 l
117.59782 67.382375 l
117.865342 67.224574 l
117.999103 68.704677 l
118.132864 68.273631 l
118.266625 68.780053 l
118.400386 67.503685 l
118.667908 68.59001 l
118.801669 66.655 l
118.935429 67.221008 l
119.06919 67.072536 l
119.202951 67.568612 l
119.336712 68.822166 l
119.604234 68.71674 l
119.737995 67.561502 l
119.871756 68.03687 l
120.139278 67.269549 l
120.273039 68.038789 l
120.4068 67.313364 l
120.808083 68.567321 l
120.941844 67.381824 l
121.075605 67.707888 l
121.209366 67.714896 l
121.476888 69.014474 l
121.610648 69.663121 l
121.744409 68.989514 l
121.87817 67.720045 l
122.011931 67.926841 l
122.145692 67.881358 l
122.279453 67.257438 l
122.546975 67.959429 l
122.680736 67.422878 l
122.814497 67.870483 l
122.948258 67.798667 l
123.082019 67.958248 l
123.21578 67.421419 l
123.349541 68.825505 l
123.617063 68.223863 l
123.884585 67.023511 l
124.018346 67.642627 l
124.152106 68.797566 l
124.285867 67.853558 l
124.419628 68.927996 l
124.553389 67.557281 l
124.68715 67.601181 l
124.820911 68.885351 l
125.088433 67.315062 l
125.355955 60.783671 l
125.489716 60.031508 l
125.890999 56.192406 l
126.02476 56.059673 l
126.693565 54.293464 l
127.362369 53.472171 l
128.566218 50.424553 l
128.699979 50.294653 l
129.903827 47.321385 l
130.438871 45.677859 l
130.706393 45.444924 l
130.973915 45.309638 l
131.776481 44.951972 l
132.177763 44.815441 l
132.846568 43.910578 l
133.649134 42.661173 l
134.184178 41.941246 l
134.852982 40.470336 l
135.521787 39.263286 l
136.056831 38.830241 l
136.458114 38.803209 l
136.725636 38.673043 l
136.859397 38.689763 l
137.126918 38.554325 l
137.528201 38.541074 l
138.063245 38.489417 l
138.330767 38.53106 l
138.598289 38.50002 l
144.483771 38.48428 l
144.885053 38.458092 l
145.420097 38.443841 l
147.827794 38.461122 l
149.031643 38.442346 l
155.184647 38.460461 l
156.254734 38.497815 l
156.789778 38.446109 l
157.191061 38.45459 l
165.216718 38.429138 l
165.350479 37.636566 l
165.751761 37.680989 l
168.42698 37.823279 l
168.962024 37.696161 l
169.497068 37.761519 l
172.841092 37.734007 l
173.777418 37.727323 l
176.987681 37.744125 l
178.592812 37.742337 l
178.592812 37.742337 l
stroke
grestore
0.451 setgray
gsave
133.6 125.9 44.97 31.73 clipbox
44.965625 151.955057 m
45.233147 146.213248 l
45.768191 141.021124 l
46.436995 137.193471 l
47.239561 134.33441 l
47.640844 133.358751 l
48.175888 131.806183 l
48.844693 129.987308 l
49.245975 129.348865 l
49.91478 128.785981 l
50.316063 127.453991 l
50.851107 125.794139 l
51.386151 125.577799 l
51.653672 125.503317 l
52.456238 124.678053 l
52.857521 124.46072 l
53.660087 123.321858 l
54.730174 120.57683 l
58.207959 109.711924 l
59.278046 106.666321 l
59.81309 106.059076 l
60.214373 105.808657 l
60.883178 105.336741 l
61.551983 105.040827 l
62.755831 104.970573 l
84.960149 104.952026 l
85.22767 98.240087 l
85.762714 94.063388 l
86.431519 91.007432 l
86.966563 89.559034 l
87.501607 87.970309 l
87.769129 87.337122 l
88.571694 85.006237 l
88.972977 84.329163 l
89.37426 83.395659 l
90.310587 80.968233 l
91.113152 78.701819 l
91.380674 78.232552 l
92.049479 76.406176 l
92.450762 76.392257 l
92.718284 76.239243 l
92.985805 76.359984 l
93.253327 76.464573 l
93.65461 76.094179 l
95.393503 72.386517 l
96.329829 69.723474 l
98.737526 63.131897 l
99.005048 62.644759 l
99.540092 61.184751 l
100.476419 59.729666 l
101.145223 59.165039 l
101.947789 58.587271 l
102.215311 58.490417 l
103.285399 58.414631 l
115.992689 58.411303 l
125.088433 58.401064 l
125.355955 51.968819 l
125.757238 48.954952 l
126.559804 45.496141 l
127.094847 44.152158 l
128.566218 41.580463 l
129.368783 41.008396 l
129.903827 40.341047 l
131.241437 39.693921 l
131.776481 39.301941 l
132.044002 39.121383 l
132.579046 38.733469 l
133.381612 38.626275 l
133.649134 38.578172 l
133.782895 38.462141 l
133.916656 38.523395 l
134.184178 38.447382 l
162.006455 38.431778 l
165.216718 38.431778 l
165.350479 37.664882 l
165.618001 37.629552 l
165.885522 37.72179 l
166.420566 37.693663 l
166.688088 37.788946 l
166.95561 37.690496 l
169.76459 37.748696 l
170.567156 37.691816 l
173.242375 37.812068 l
178.592812 37.759791 l
178.592812 37.759791 l
stroke
grestore
0 setlinecap
[9.6 2.4 1.5 2.4] 0 setdash
0.000 setgray
gsave
133.6 125.9 44.97 31.73 clipbox
44.965625 151.955057 m
45.233147 146.213248 l
45.768191 141.021124 l
46.436995 137.193471 l
47.239561 134.334425 l
47.640844 133.358761 l
48.175888 131.806199 l
48.844693 129.987335 l
49.245975 129.348858 l
49.91478 128.785949 l
50.316063 127.453973 l
50.851107 125.793709 l
51.386151 125.577642 l
51.653672 125.503114 l
52.456238 124.678436 l
52.857521 124.461012 l
53.660087 123.322146 l
54.730174 120.577548 l
57.539154 111.74876 l
58.207959 110.518867 l
58.34172 109.769771 l
58.475481 109.674297 l
58.743003 108.497489 l
58.876764 108.480701 l
59.144286 107.536766 l
59.411807 108.620695 l
59.545568 108.532907 l
59.679329 107.423486 l
59.81309 107.342361 l
60.080612 108.391613 l
60.214373 108.240993 l
60.348134 107.463055 l
60.481895 107.775707 l
60.615656 109.11352 l
60.749417 107.458302 l
60.883178 107.336969 l
61.016939 108.104606 l
61.1507 107.994861 l
61.284461 108.107967 l
61.418222 107.821446 l
61.551983 109.651324 l
61.819505 107.057387 l
61.953265 106.321455 l
62.087026 106.439697 l
62.220787 108.046373 l
62.354548 106.875341 l
62.488309 106.80316 l
62.62207 107.407575 l
62.755831 109.045872 l
63.023353 106.933989 l
63.157114 107.210489 l
63.290875 106.957328 l
63.424636 107.134795 l
63.558397 110.121968 l
63.692158 106.508869 l
63.825919 108.234296 l
63.95968 106.988735 l
64.227202 110.327478 l
64.360963 109.391542 l
64.494723 106.828245 l
64.628484 107.868642 l
64.762245 107.357285 l
64.896006 109.95726 l
65.029767 109.768686 l
65.163528 107.627144 l
65.297289 109.358163 l
65.43105 106.907034 l
65.564811 108.775966 l
65.698572 106.910485 l
65.832333 107.478481 l
65.966094 106.875134 l
66.099855 109.074968 l
66.233616 108.363929 l
66.367377 106.495011 l
66.501138 107.385009 l
66.634899 106.615207 l
66.76866 107.323037 l
66.902421 109.120398 l
67.036181 107.444748 l
67.169942 107.826416 l
67.437464 109.007807 l
67.704986 106.526377 l
67.972508 109.937441 l
68.106269 106.135465 l
68.373791 109.81886 l
68.641313 106.850731 l
68.775074 109.944092 l
69.042596 106.897159 l
69.310118 110.282476 l
69.443879 107.844279 l
69.57764 107.562528 l
69.7114 110.4802 l
69.845161 110.53792 l
69.978922 112.885667 l
70.112683 109.225467 l
70.246444 108.932485 l
70.513966 110.448328 l
70.781488 107.261278 l
71.182771 112.073502 l
71.316532 111.427238 l
71.450293 108.476896 l
71.584054 110.31721 l
71.717815 108.208599 l
71.851576 109.634465 l
72.119098 108.609268 l
72.252858 110.091587 l
72.386619 109.580913 l
72.52038 108.430431 l
72.787902 109.360633 l
72.921663 107.627003 l
73.055424 108.089283 l
73.322946 107.890588 l
73.456707 107.340924 l
73.590468 109.622963 l
73.85799 107.485343 l
73.991751 107.518205 l
74.125512 109.514131 l
74.259273 108.306034 l
74.393034 109.26872 l
74.526795 108.491019 l
74.660556 109.495258 l
75.061838 107.892609 l
75.195599 109.269508 l
75.32936 108.475548 l
75.463121 108.446941 l
75.596882 107.927518 l
75.730643 109.091835 l
75.864404 107.541432 l
75.998165 107.802744 l
76.265687 109.639098 l
76.399448 107.844213 l
76.533209 107.705157 l
76.800731 110.286139 l
76.934492 108.098669 l
77.068253 107.794987 l
77.202014 110.093466 l
77.335775 109.482831 l
77.469535 112.165104 l
77.737057 107.844191 l
77.870818 111.594657 l
78.004579 107.797828 l
78.13834 108.699632 l
78.272101 111.048016 l
78.405862 108.131402 l
78.539623 109.981487 l
78.807145 108.396992 l
79.208428 111.278347 l
79.47595 107.949506 l
79.743472 108.525574 l
80.010993 110.819506 l
80.144754 110.788312 l
80.278515 111.996803 l
80.412276 108.444643 l
80.546037 110.641578 l
80.679798 108.26937 l
80.813559 110.52486 l
80.94732 107.726771 l
81.081081 110.069788 l
81.214842 110.021484 l
81.348603 111.988534 l
81.482364 108.469035 l
81.616125 108.249978 l
81.883647 108.45368 l
82.017408 109.022115 l
82.151169 108.53942 l
82.28493 109.241413 l
82.552452 108.150715 l
82.686212 107.909948 l
82.819973 109.022162 l
82.953734 108.31341 l
83.087495 110.380666 l
83.221256 109.503499 l
83.355017 109.541719 l
83.488778 111.864264 l
83.622539 108.383398 l
83.7563 110.488795 l
83.890061 108.735543 l
84.023822 109.553019 l
84.157583 108.15692 l
84.425105 109.180847 l
84.692627 108.7116 l
84.960149 111.224903 l
85.09391 105.396395 l
85.361431 104.654204 l
85.628953 104.604213 l
86.030236 104.516579 l
86.431519 104.574622 l
89.909304 104.566566 l
90.711869 104.527567 l
91.648196 104.572249 l
93.387088 104.592418 l
94.189654 104.578897 l
95.259742 104.577561 l
98.202482 104.580238 l
125.088433 104.579978 l
125.222194 104.784246 l
125.355955 104.618181 l
126.559804 104.62268 l
127.228608 104.615844 l
130.840154 104.60175 l
131.910241 104.578406 l
132.579046 104.598497 l
134.184178 104.635437 l
165.350479 104.732845 l
165.618001 104.603316 l
166.554327 104.604296 l
167.356893 104.642673 l
170.032112 104.58631 l
172.172287 104.622342 l
178.459052 104.61322 l
178.592812 104.61322 l
178.592812 104.61322 l
stroke
grestore
[5.55 2.4] 0 setdash
gsave
133.6 125.9 44.97 31.73 clipbox
44.965625 151.955057 m
45.233147 146.213248 l
45.768191 141.021124 l
46.436995 137.193471 l
47.239561 134.33441 l
47.640844 133.358741 l
48.175888 131.806183 l
48.844693 129.98728 l
49.245975 129.348885 l
49.91478 128.786016 l
50.316063 127.454038 l
50.851107 125.794139 l
51.386151 125.57782 l
51.653672 125.503317 l
52.456238 124.678026 l
52.857521 124.460428 l
53.660087 123.321569 l
54.730174 120.577208 l
59.411807 105.629603 l
60.749417 103.172477 l
61.1507 101.696711 l
61.819505 98.672067 l
63.157114 92.99343 l
63.825919 90.610431 l
64.762245 86.268196 l
65.832333 82.623214 l
66.367377 80.216197 l
68.775074 68.149485 l
69.57764 64.934714 l
70.380205 61.09201 l
71.316532 55.505636 l
72.252858 51.533277 l
73.724229 46.233507 l
73.85799 46.24826 l
73.991751 45.693283 l
74.125512 46.326005 l
74.259273 46.054517 l
74.393034 46.111854 l
74.660556 45.970903 l
74.794317 45.725885 l
74.928077 45.894128 l
75.061838 45.584224 l
75.195599 45.991239 l
75.32936 45.855123 l
75.463121 46.056464 l
75.596882 45.50689 l
75.864404 46.155207 l
76.131926 46.051233 l
76.265687 46.393941 l
76.399448 46.066014 l
76.66697 46.675562 l
76.800731 46.65265 l
76.934492 46.106929 l
77.068253 46.446949 l
77.469535 46.124571 l
77.603296 46.661092 l
77.870818 46.166899 l
78.004579 46.679111 l
78.539623 45.746587 l
78.673384 46.759096 l
78.807145 46.24616 l
78.940906 46.296475 l
79.074667 46.68024 l
79.208428 45.661048 l
79.47595 46.018659 l
79.609711 46.643161 l
79.743472 45.318384 l
80.010993 46.48117 l
80.144754 46.245136 l
80.278515 46.464694 l
80.412276 46.27822 l
80.546037 46.939814 l
80.813559 46.029861 l
80.94732 46.038063 l
81.081081 45.669933 l
81.348603 46.430699 l
81.482364 45.653677 l
81.616125 46.120729 l
81.749886 46.077637 l
81.883647 46.547443 l
82.151169 45.411195 l
82.28493 46.068924 l
82.819973 45.854266 l
82.953734 46.336522 l
83.087495 45.795288 l
83.221256 45.899409 l
83.355017 45.60828 l
83.488778 45.77737 l
83.622539 45.709562 l
83.7563 45.879496 l
83.890061 45.319509 l
84.157583 45.981698 l
84.425105 45.600249 l
84.558866 46.440444 l
84.692627 45.850215 l
84.960149 46.153021 l
85.09391 39.191096 l
85.22767 38.103485 l
85.896475 37.955156 l
86.966563 38.003181 l
87.234085 37.945873 l
87.769129 37.954515 l
96.864873 38.004382 l
125.088433 38.007826 l
125.222194 37.521883 l
127.49613 37.785767 l
127.629891 37.716309 l
127.763652 37.816824 l
128.031174 37.766474 l
129.770066 37.77586 l
130.171349 37.714871 l
132.177763 37.720327 l
133.247851 37.716705 l
140.872225 37.742412 l
165.216718 37.742415 l
165.350479 37.456193 l
165.885522 37.633478 l
166.821849 37.672752 l
167.089371 37.68364 l
167.624415 37.624842 l
167.891937 37.680132 l
168.293219 37.709593 l
171.503482 37.737236 l
172.841092 37.656415 l
178.592812 37.740188 l
178.592812 37.740188 l
stroke
grestore
0.800 setlinewidth
[] 0 setdash
gsave
/o {
gsave
newpath
translate
0.8 setlinewidth
1 setlinejoin
0 setlinecap
0 0 m
0 -3.5 l

gsave
0.000 setgray
fill
grestore
stroke
grestore
} bind def
44.9656 31.7312 o
grestore
/DejaVuSans findfont
7.000 scalefont
setfont
gsave
42.739063 19.418750 translate
0.000000 rotate
0.000000 0 m /zero glyphshow
grestore
gsave
/o {
gsave
newpath
translate
0.8 setlinewidth
1 setlinejoin
0 setlinecap
0 0 m
0 -3.5 l

gsave
0.000 setgray
fill
grestore
stroke
grestore
} bind def
71.7178 31.7312 o
grestore
gsave
65.038127 19.418750 translate
0.000000 rotate
0.000000 0 m /two glyphshow
4.453613 0 m /zero glyphshow
8.907227 0 m /zero glyphshow
grestore
gsave
/o {
gsave
newpath
translate
0.8 setlinewidth
1 setlinejoin
0 setlinecap
0 0 m
0 -3.5 l

gsave
0.000 setgray
fill
grestore
stroke
grestore
} bind def
98.47 31.7312 o
grestore
gsave
91.790317 19.418750 translate
0.000000 rotate
0.000000 0 m /four glyphshow
4.453613 0 m /zero glyphshow
8.907227 0 m /zero glyphshow
grestore
gsave
/o {
gsave
newpath
translate
0.8 setlinewidth
1 setlinejoin
0 setlinecap
0 0 m
0 -3.5 l

gsave
0.000 setgray
fill
grestore
stroke
grestore
} bind def
125.222 31.7312 o
grestore
gsave
118.542507 19.418750 translate
0.000000 rotate
0.000000 0 m /six glyphshow
4.453613 0 m /zero glyphshow
8.907227 0 m /zero glyphshow
grestore
gsave
/o {
gsave
newpath
translate
0.8 setlinewidth
1 setlinejoin
0 setlinecap
0 0 m
0 -3.5 l

gsave
0.000 setgray
fill
grestore
stroke
grestore
} bind def
151.974 31.7312 o
grestore
gsave
145.294696 19.418750 translate
0.000000 rotate
0.000000 0 m /eight glyphshow
4.453613 0 m /zero glyphshow
8.907227 0 m /zero glyphshow
grestore
gsave
84.927656 8.653125 translate
0.000000 rotate
0.000000 0 m /I glyphshow
2.064453 0 m /n glyphshow
6.500977 0 m /n glyphshow
10.937500 0 m /e glyphshow
15.244141 0 m /r glyphshow
18.122070 0 m /space glyphshow
20.347168 0 m /I glyphshow
22.411621 0 m /t glyphshow
25.156250 0 m /e glyphshow
29.462891 0 m /r glyphshow
32.340820 0 m /a glyphshow
36.630371 0 m /t glyphshow
39.375000 0 m /i glyphshow
41.319824 0 m /o glyphshow
45.602539 0 m /n glyphshow
50.039062 0 m /s glyphshow
grestore
gsave
/o {
gsave
newpath
translate
0.8 setlinewidth
1 setlinejoin
0 setlinecap
0 0 m
-3.5 0 l

gsave
0.000 setgray
fill
grestore
stroke
grestore
} bind def
44.9656 53.1037 o
grestore
gsave
17.965625 49.830253 translate
0.000000 rotate
/DejaVuSans findfont
7.0 scalefont
setfont
0.000000 0.678125 moveto
/one glyphshow
4.453613 0.678125 moveto
/zero glyphshow
/DejaVuSans findfont
4.8999999999999995 scalefont
setfont
8.974219 3.357812 moveto
/minus glyphshow
13.079883 3.357812 moveto
/one glyphshow
16.197412 3.357812 moveto
/six glyphshow

grestore
gsave
/o {
gsave
newpath
translate
0.8 setlinewidth
1 setlinejoin
0 setlinecap
0 0 m
-3.5 0 l

gsave
0.000 setgray
fill
grestore
stroke
grestore
} bind def
44.9656 75.9861 o
grestore
gsave
17.965625 72.712646 translate
0.000000 rotate
/DejaVuSans findfont
7.0 scalefont
setfont
0.000000 0.678125 moveto
/one glyphshow
4.453613 0.678125 moveto
/zero glyphshow
/DejaVuSans findfont
4.8999999999999995 scalefont
setfont
8.974219 3.357812 moveto
/minus glyphshow
13.079883 3.357812 moveto
/one glyphshow
16.197412 3.357812 moveto
/three glyphshow

grestore
gsave
/o {
gsave
newpath
translate
0.8 setlinewidth
1 setlinejoin
0 setlinecap
0 0 m
-3.5 0 l

gsave
0.000 setgray
fill
grestore
stroke
grestore
} bind def
44.9656 98.8685 o
grestore
gsave
17.965625 95.595040 translate
0.000000 rotate
/DejaVuSans findfont
7.0 scalefont
setfont
0.000000 0.678125 moveto
/one glyphshow
4.453613 0.678125 moveto
/zero glyphshow
/DejaVuSans findfont
4.8999999999999995 scalefont
setfont
8.974219 3.357812 moveto
/minus glyphshow
13.079883 3.357812 moveto
/one glyphshow
16.197412 3.357812 moveto
/zero glyphshow

grestore
gsave
/o {
gsave
newpath
translate
0.8 setlinewidth
1 setlinejoin
0 setlinecap
0 0 m
-3.5 0 l

gsave
0.000 setgray
fill
grestore
stroke
grestore
} bind def
44.9656 121.751 o
grestore
gsave
20.965625 118.477433 translate
0.000000 rotate
/DejaVuSans findfont
7.0 scalefont
setfont
0.000000 0.743750 moveto
/one glyphshow
4.453613 0.743750 moveto
/zero glyphshow
/DejaVuSans findfont
4.8999999999999995 scalefont
setfont
8.974219 3.423438 moveto
/minus glyphshow
13.079883 3.423438 moveto
/seven glyphshow

grestore
gsave
/o {
gsave
newpath
translate
0.8 setlinewidth
1 setlinejoin
0 setlinecap
0 0 m
-3.5 0 l

gsave
0.000 setgray
fill
grestore
stroke
grestore
} bind def
44.9656 144.633 o
grestore
gsave
20.965625 141.359827 translate
0.000000 rotate
/DejaVuSans findfont
7.0 scalefont
setfont
0.000000 0.743750 moveto
/one glyphshow
4.453613 0.743750 moveto
/zero glyphshow
/DejaVuSans findfont
4.8999999999999995 scalefont
setfont
8.974219 3.423438 moveto
/minus glyphshow
13.079883 3.423438 moveto
/four glyphshow

grestore
gsave
12.512500 47.674375 translate
90.000000 rotate
0.000000 0 m /N glyphshow
5.236328 0 m /o glyphshow
9.519043 0 m /r glyphshow
12.271973 0 m /m glyphshow
19.090820 0 m /w glyphshow
24.815918 0 m /i glyphshow
26.760742 0 m /s glyphshow
30.407715 0 m /e glyphshow
34.714355 0 m /space glyphshow
36.939453 0 m /B glyphshow
41.741699 0 m /a glyphshow
46.031250 0 m /c glyphshow
49.879883 0 m /k glyphshow
53.933594 0 m /w glyphshow
59.658691 0 m /a glyphshow
63.948242 0 m /r glyphshow
66.701172 0 m /d glyphshow
71.144531 0 m /s glyphshow
74.791504 0 m /space glyphshow
77.016602 0 m /E glyphshow
81.439453 0 m /r glyphshow
84.192383 0 m /r glyphshow
86.945312 0 m /o glyphshow
91.228027 0 m /r glyphshow
grestore
0 setlinejoin
2 setlinecap
[] 0 setdash
gsave
44.965625 31.73125 m
44.965625 157.68 l
stroke
grestore
gsave
178.592812 31.73125 m
178.592812 157.68 l
stroke
grestore
gsave
44.965625 31.73125 m
178.592812 31.73125 l
stroke
grestore
gsave
44.965625 157.68 m
178.592812 157.68 l
stroke
grestore
gsave
189.652813 31.73125 m
323.28 31.73125 l
323.28 157.68 l
189.652813 157.68 l
cl
1.000 setgray
fill
grestore
1.500 setlinewidth
1 setlinejoin
[] 0 setdash
0.149 setgray
gsave
133.6 125.9 189.7 31.73 clipbox
189.652813 151.955057 m
189.920334 146.213248 l
190.455378 141.021114 l
191.124183 137.193471 l
191.926749 134.334395 l
192.328031 133.358751 l
192.863075 131.806247 l
193.53188 129.98728 l
193.933163 129.348869 l
194.601968 128.786068 l
195.00325 127.454068 l
195.538294 125.794295 l
196.073338 125.577799 l
196.34086 125.503242 l
197.143426 124.67819 l
197.544708 124.460238 l
198.347274 123.322002 l
199.417362 120.577496 l
201.691298 113.596598 l
202.092581 112.479984 l
202.493864 110.921714 l
202.895146 110.329666 l
203.162668 109.110588 l
203.697712 107.617713 l
203.831473 107.59813 l
203.965234 108.424865 l
204.098995 108.409824 l
204.366517 108.198451 l
204.901561 108.257986 l
205.169083 106.862555 l
205.302843 106.917463 l
205.436604 106.639943 l
205.570365 107.085286 l
205.704126 106.394835 l
206.105409 107.727159 l
206.23917 107.880964 l
206.372931 107.846175 l
206.506692 108.166637 l
207.041736 107.812798 l
207.309258 108.090839 l
207.57678 108.011003 l
207.710541 108.128833 l
207.978062 108.072099 l
208.111823 108.080733 l
208.245584 107.871158 l
208.513106 108.080302 l
208.646867 107.916146 l
209.181911 108.102975 l
209.449433 107.92399 l
209.583194 107.849281 l
209.716955 107.955183 l
210.118238 107.831732 l
210.38576 107.983612 l
210.51952 107.782094 l
210.787042 107.949186 l
229.647336 107.929926 l
229.914858 100.24623 l
230.18238 97.90861 l
230.449902 95.407846 l
231.118707 93.551025 l
231.787511 93.006208 l
232.188794 92.42794 l
232.99136 91.030368 l
233.927686 89.463796 l
234.195208 89.430497 l
234.596491 89.373298 l
234.864013 89.067632 l
235.532818 88.145165 l
236.067862 87.473883 l
237.27171 84.330924 l
237.806754 83.020429 l
238.208037 81.902058 l
238.743081 80.415242 l
239.411885 78.392422 l
240.615734 74.250645 l
242.354626 68.545946 l
242.488387 68.492551 l
243.023431 66.942922 l
243.290953 66.530169 l
243.424714 66.644418 l
243.558475 66.586678 l
243.825997 65.949974 l
244.093519 66.448581 l
244.36104 65.833472 l
244.494801 65.734577 l
244.628562 66.105453 l
244.762323 65.777823 l
245.163606 66.743442 l
245.431128 66.531848 l
245.564889 66.695411 l
245.832411 66.519717 l
245.966172 66.723787 l
246.099933 67.180643 l
246.367455 66.80453 l
246.501216 67.022063 l
246.768737 66.794884 l
246.902498 66.963049 l
247.036259 67.490391 l
247.17002 67.075202 l
247.437542 67.625911 l
247.571303 67.216077 l
247.705064 67.391805 l
247.838825 66.912825 l
247.972586 67.316069 l
248.373869 67.176386 l
248.50763 67.231796 l
248.641391 67.081457 l
248.908913 67.436419 l
249.176435 66.996321 l
249.577717 67.400734 l
249.711478 67.004138 l
249.845239 67.400761 l
250.112761 66.652262 l
250.246522 67.003704 l
250.514044 66.935865 l
250.647805 67.400584 l
250.915327 66.652722 l
251.182849 66.652628 l
251.31661 67.12996 l
251.584132 67.003335 l
252.119175 67.05767 l
252.252936 66.652462 l
252.520458 67.057714 l
253.189263 67.057714 l
253.323024 66.652473 l
253.456785 67.05768 l
254.794394 67.05768 l
254.928155 66.652467 l
255.061916 67.057719 l
255.730721 67.057685 l
255.864482 66.652467 l
255.998243 66.652473 l
256.132004 67.057685 l
257.202091 67.05768 l
257.335852 66.652478 l
257.737135 66.652478 l
257.870896 67.05768 l
269.775621 67.057685 l
270.043143 61.113949 l
270.310664 58.912734 l
270.711947 57.776215 l
270.845708 57.464379 l
271.246991 55.790819 l
271.514513 55.330175 l
272.183318 53.162786 l
275.39358 46.052124 l
275.661102 45.725946 l
276.329907 44.589784 l
276.73119 44.206629 l
277.266234 43.806532 l
277.667517 43.63331 l
278.336321 42.943999 l
278.737604 42.159926 l
279.807692 40.158493 l
280.610257 39.130372 l
281.680345 38.604276 l
282.616672 38.500047 l
282.884194 38.503148 l
283.552998 38.431501 l
286.228217 38.506626 l
286.6295 38.559221 l
287.030783 38.508554 l
289.037197 38.446026 l
289.43848 38.457486 l
290.77609 38.455831 l
309.903905 38.447852 l
310.171427 37.496106 l
310.57271 37.642833 l
313.782973 37.796207 l
314.451777 37.821994 l
314.85306 37.795291 l
323.28 37.774536 l
323.28 37.774536 l
stroke
grestore
0.451 setgray
gsave
133.6 125.9 189.7 31.73 clipbox
189.652813 151.955057 m
189.920334 146.213248 l
190.455378 141.021124 l
191.124183 137.193471 l
191.926749 134.33441 l
192.328031 133.358751 l
192.863075 131.806199 l
193.53188 129.987308 l
193.933163 129.348862 l
194.601968 128.786008 l
195.00325 127.454014 l
195.538294 125.794198 l
196.073338 125.577736 l
196.34086 125.503317 l
197.143426 124.677998 l
197.544708 124.460501 l
198.347274 123.321755 l
199.417362 120.577066 l
202.895146 109.712539 l
203.965234 106.683551 l
204.500278 106.106277 l
205.169083 105.692751 l
206.105409 105.173489 l
206.640453 105.089835 l
207.844301 105.058144 l
229.647336 105.058788 l
229.914858 98.513322 l
230.449902 94.252736 l
231.118707 91.547325 l
231.65375 89.962136 l
232.188794 88.347219 l
232.456316 87.94857 l
233.526404 85.306136 l
235.532818 79.696056 l
236.067862 78.583747 l
236.736666 77.005767 l
236.870427 76.947825 l
237.137949 76.528854 l
237.539232 75.675151 l
237.806754 75.889977 l
238.341798 76.484382 l
238.60932 76.224634 l
239.010602 75.539183 l
240.615734 71.284679 l
241.017017 70.663977 l
241.4183 69.295414 l
242.755909 64.513557 l
243.023431 64.177596 l
243.959758 63.031521 l
244.494801 61.825139 l
245.029845 60.676634 l
245.69865 59.771708 l
245.832411 59.719751 l
246.233694 59.274004 l
246.902498 58.950504 l
249.042674 58.895292 l
269.775621 58.894548 l
270.043143 52.428657 l
270.444425 49.455067 l
270.979469 46.797909 l
271.514513 45.017001 l
272.852122 41.691282 l
274.055971 39.614735 l
274.457254 39.399151 l
275.126059 39.530939 l
275.39358 39.616309 l
275.661102 39.536755 l
276.864951 38.799358 l
278.336321 38.487232 l
278.871365 38.489826 l
279.138887 38.424297 l
279.272648 38.503393 l
279.673931 38.426913 l
279.941453 38.460902 l
280.208975 38.409787 l
280.476496 38.433361 l
288.234632 38.408137 l
309.903905 38.41085 l
310.037666 37.567062 l
310.171427 37.514522 l
310.438949 37.661743 l
310.840232 37.655193 l
311.241515 37.620266 l
311.375276 37.735646 l
311.910319 37.680773 l
316.591953 37.785886 l
317.260757 37.807402 l
319.267172 37.800078 l
323.28 37.776819 l
323.28 37.776819 l
stroke
grestore
0 setlinecap
[9.6 2.4 1.5 2.4] 0 setdash
0.000 setgray
gsave
133.6 125.9 189.7 31.73 clipbox
189.652813 151.955057 m
189.920334 146.213248 l
190.455378 141.021124 l
191.124183 137.193471 l
191.926749 134.334417 l
192.328031 133.358741 l
192.863075 131.806231 l
193.53188 129.987308 l
193.933163 129.348879 l
194.601968 128.786032 l
195.00325 127.453979 l
195.538294 125.794325 l
196.073338 125.578081 l
196.34086 125.503296 l
197.143426 124.678162 l
197.544708 124.460574 l
198.347274 123.32161 l
199.417362 120.576915 l
201.691298 113.535825 l
201.825059 113.333432 l
202.493864 110.947632 l
202.895146 110.209209 l
203.296429 108.757959 l
203.697712 107.650767 l
203.831473 107.788693 l
204.098995 108.512264 l
204.366517 108.24289 l
204.634039 108.353679 l
204.7678 107.984373 l
204.901561 108.649852 l
205.169083 106.90062 l
205.302843 107.008743 l
205.436604 106.875282 l
205.570365 107.144069 l
205.837887 106.471044 l
205.971648 106.655985 l
206.105409 107.630885 l
206.23917 107.559863 l
206.372931 107.673828 l
206.640453 107.456394 l
206.907975 107.891892 l
207.041736 107.491358 l
207.175497 108.045751 l
207.309258 107.529718 l
207.57678 107.558974 l
207.710541 107.835072 l
208.111823 107.561304 l
208.245584 107.702972 l
208.513106 107.521099 l
208.646867 107.73503 l
208.780628 107.537902 l
208.914389 107.649809 l
209.04815 107.547852 l
209.315672 107.764388 l
209.850716 107.815202 l
210.118238 107.58404 l
210.251999 107.813644 l
210.653281 107.554862 l
210.787042 107.745133 l
210.920803 107.622008 l
211.188325 107.751397 l
211.322086 107.732135 l
211.455847 107.55438 l
211.85713 107.732386 l
211.990891 107.556064 l
212.124652 107.821912 l
212.659696 107.751556 l
212.927218 107.582633 l
229.513575 107.58175 l
229.647336 107.58175 l
229.781097 104.784935 l
230.18238 104.552033 l
231.386228 104.511885 l
231.921272 104.509871 l
237.004188 104.490514 l
238.074276 104.560873 l
239.278124 104.533066 l
242.087104 104.522925 l
253.055502 104.529667 l
269.775621 104.529667 l
269.909382 104.746062 l
270.176903 104.563083 l
271.782035 104.582971 l
272.584601 104.552176 l
274.055971 104.567414 l
274.992298 104.546757 l
278.871365 104.576337 l
289.572241 104.577141 l
323.28 104.603633 l
323.28 104.603633 l
stroke
grestore
[5.55 2.4] 0 setdash
gsave
133.6 125.9 189.7 31.73 clipbox
189.652813 151.955057 m
189.920334 146.213248 l
190.455378 141.021124 l
191.124183 137.193471 l
191.926749 134.33441 l
192.328031 133.358741 l
192.863075 131.806183 l
193.53188 129.98728 l
193.933163 129.348885 l
194.601968 128.786016 l
195.00325 127.454038 l
195.538294 125.794139 l
196.073338 125.57782 l
196.34086 125.503317 l
197.143426 124.678026 l
197.544708 124.460428 l
198.347274 123.321569 l
199.417362 120.577208 l
204.098995 105.629603 l
205.436604 103.172477 l
205.837887 101.696711 l
206.506692 98.672067 l
207.844301 92.99343 l
208.513106 90.610431 l
209.449433 86.268196 l
210.51952 82.623214 l
211.054564 80.216197 l
213.462261 68.149474 l
214.264827 64.934555 l
215.067393 61.091831 l
216.003719 55.503084 l
216.940046 51.525637 l
217.608851 48.561537 l
218.277655 45.767737 l
218.411416 45.652044 l
218.678938 45.322523 l
218.812699 45.259571 l
218.94646 45.45279 l
219.213982 45.111251 l
219.347743 45.09977 l
219.481504 44.813588 l
219.749026 45.057351 l
220.417831 45.008073 l
221.086635 44.993984 l
229.647336 44.982296 l
229.781097 38.707754 l
230.048619 38.051735 l
230.18238 37.943234 l
230.449902 38.003497 l
230.583663 37.960189 l
230.851185 38.06138 l
231.252467 38.04581 l
231.787511 38.097959 l
234.596491 38.191206 l
234.864013 38.139727 l
256.667048 38.246484 l
269.775621 38.246484 l
269.909382 37.644461 l
272.45084 37.852337 l
272.718361 37.76644 l
274.055971 37.849291 l
275.25982 37.844014 l
283.686759 37.835282 l
301.744487 37.834756 l
309.903905 37.834756 l
310.171427 37.522102 l
311.107754 37.739352 l
311.509037 37.72457 l
312.311602 37.771082 l
312.980407 37.787671 l
320.337259 37.81056 l
321.80863 37.823313 l
323.28 37.825322 l
323.28 37.825322 l
stroke
grestore
0.800 setlinewidth
[] 0 setdash
gsave
/o {
gsave
newpath
translate
0.8 setlinewidth
1 setlinejoin
0 setlinecap
0 0 m
0 -3.5 l

gsave
0.000 setgray
fill
grestore
stroke
grestore
} bind def
189.653 31.7312 o
grestore
gsave
187.426250 19.418750 translate
0.000000 rotate
0.000000 0 m /zero glyphshow
grestore
gsave
/o {
gsave
newpath
translate
0.8 setlinewidth
1 setlinejoin
0 setlinecap
0 0 m
0 -3.5 l

gsave
0.000 setgray
fill
grestore
stroke
grestore
} bind def
216.405 31.7312 o
grestore
gsave
209.725315 19.418750 translate
0.000000 rotate
0.000000 0 m /two glyphshow
4.453613 0 m /zero glyphshow
8.907227 0 m /zero glyphshow
grestore
gsave
/o {
gsave
newpath
translate
0.8 setlinewidth
1 setlinejoin
0 setlinecap
0 0 m
0 -3.5 l

gsave
0.000 setgray
fill
grestore
stroke
grestore
} bind def
243.157 31.7312 o
grestore
gsave
236.477504 19.418750 translate
0.000000 rotate
0.000000 0 m /four glyphshow
4.453613 0 m /zero glyphshow
8.907227 0 m /zero glyphshow
grestore
gsave
/o {
gsave
newpath
translate
0.8 setlinewidth
1 setlinejoin
0 setlinecap
0 0 m
0 -3.5 l

gsave
0.000 setgray
fill
grestore
stroke
grestore
} bind def
269.909 31.7312 o
grestore
gsave
263.229694 19.418750 translate
0.000000 rotate
0.000000 0 m /six glyphshow
4.453613 0 m /zero glyphshow
8.907227 0 m /zero glyphshow
grestore
gsave
/o {
gsave
newpath
translate
0.8 setlinewidth
1 setlinejoin
0 setlinecap
0 0 m
0 -3.5 l

gsave
0.000 setgray
fill
grestore
stroke
grestore
} bind def
296.662 31.7312 o
grestore
gsave
289.981884 19.418750 translate
0.000000 rotate
0.000000 0 m /eight glyphshow
4.453613 0 m /zero glyphshow
8.907227 0 m /zero glyphshow
grestore
gsave
229.614844 8.653125 translate
0.000000 rotate
0.000000 0 m /I glyphshow
2.064453 0 m /n glyphshow
6.500977 0 m /n glyphshow
10.937500 0 m /e glyphshow
15.244141 0 m /r glyphshow
18.122070 0 m /space glyphshow
20.347168 0 m /I glyphshow
22.411621 0 m /t glyphshow
25.156250 0 m /e glyphshow
29.462891 0 m /r glyphshow
32.340820 0 m /a glyphshow
36.630371 0 m /t glyphshow
39.375000 0 m /i glyphshow
41.319824 0 m /o glyphshow
45.602539 0 m /n glyphshow
50.039062 0 m /s glyphshow
grestore
gsave
/o {
gsave
newpath
translate
0.8 setlinewidth
1 setlinejoin
0 setlinecap
0 0 m
-3.5 0 l

gsave
0.000 setgray
fill
grestore
stroke
grestore
} bind def
189.653 53.1037 o
grestore
gsave
/o {
gsave
newpath
translate
0.8 setlinewidth
1 setlinejoin
0 setlinecap
0 0 m
-3.5 0 l

gsave
0.000 setgray
fill
grestore
stroke
grestore
} bind def
189.653 75.9861 o
grestore
gsave
/o {
gsave
newpath
translate
0.8 setlinewidth
1 setlinejoin
0 setlinecap
0 0 m
-3.5 0 l

gsave
0.000 setgray
fill
grestore
stroke
grestore
} bind def
189.653 98.8685 o
grestore
gsave
/o {
gsave
newpath
translate
0.8 setlinewidth
1 setlinejoin
0 setlinecap
0 0 m
-3.5 0 l

gsave
0.000 setgray
fill
grestore
stroke
grestore
} bind def
189.653 121.751 o
grestore
gsave
/o {
gsave
newpath
translate
0.8 setlinewidth
1 setlinejoin
0 setlinecap
0 0 m
-3.5 0 l

gsave
0.000 setgray
fill
grestore
stroke
grestore
} bind def
189.653 144.633 o
grestore
0 setlinejoin
2 setlinecap
[] 0 setdash
gsave
189.652813 31.73125 m
189.652813 157.68 l
stroke
grestore
gsave
323.28 31.73125 m
323.28 157.68 l
stroke
grestore
gsave
189.652813 31.73125 m
323.28 31.73125 l
stroke
grestore
gsave
189.652813 157.68 m
323.28 157.68 l
stroke
grestore
1.000 setlinewidth
0 setlinecap
0.800 setgray
gsave
254.915625 119.42 m
326.3 119.42 l
327.233333 119.42 327.7 119.886667 327.7 120.82 c
327.7 161.1825 l
327.7 162.115833 327.233333 162.5825 326.3 162.5825 c
254.915625 162.5825 l
253.982292 162.5825 253.515625 162.115833 253.515625 161.1825 c
253.515625 120.82 l
253.515625 119.886667 253.982292 119.42 254.915625 119.42 c
cl
gsave
1.000 setgray
fill
grestore
stroke
grestore
1.500 setlinewidth
1 setlinejoin
[9.6 2.4 1.5 2.4] 0 setdash
0.000 setgray
gsave
256.315625 156.92 m
270.315625 156.92 l
stroke
grestore
gsave
275.915625 154.470000 translate
0.000000 rotate
0.000000 0 m /S glyphshow
4.443359 0 m /i glyphshow
6.388184 0 m /n glyphshow
10.824707 0 m /g glyphshow
15.268066 0 m /l glyphshow
17.212891 0 m /e glyphshow
grestore
2 setlinecap
[] 0 setdash
0.149 setgray
gsave
256.315625 146.654375 m
270.315625 146.654375 l
stroke
grestore
0.000 setgray
gsave
275.915625 144.204375 translate
0.000000 rotate
0.000000 0 m /M glyphshow
6.039551 0 m /i glyphshow
7.984375 0 m /x glyphshow
11.876953 0 m /e glyphshow
16.183594 0 m /d glyphshow
grestore
0.451 setgray
gsave
256.315625 136.38875 m
270.315625 136.38875 l
stroke
grestore
0.000 setgray
gsave
275.915625 133.938750 translate
0.000000 rotate
0.000000 0 m /L glyphshow
3.899902 0 m /i glyphshow
5.844727 0 m /m glyphshow
12.663574 0 m /i glyphshow
14.608398 0 m /t glyphshow
17.353027 0 m /e glyphshow
21.659668 0 m /d glyphshow
26.103027 0 m /space glyphshow
28.328125 0 m /M glyphshow
34.367676 0 m /i glyphshow
36.312500 0 m /x glyphshow
40.205078 0 m /e glyphshow
44.511719 0 m /d glyphshow
grestore
0 setlinecap
[5.55 2.4] 0 setdash
gsave
256.315625 126.123125 m
270.315625 126.123125 l
stroke
grestore
gsave
275.915625 123.673125 translate
0.000000 rotate
0.000000 0 m /D glyphshow
5.390137 0 m /o glyphshow
9.672852 0 m /u glyphshow
14.109375 0 m /b glyphshow
18.552734 0 m /l glyphshow
20.497559 0 m /e glyphshow
grestore

end
showpage
