%!PS-Adobe-3.0 EPSF-3.0
%%Title: ../smc20/figures/restarts-orthloss-airfoil_2d-300.eps
%%Creator: matplotlib version 3.2.1, http://matplotlib.org/
%%CreationDate: Wed Sep  2 09:57:25 2020
%%Orientation: portrait
%%BoundingBox: 140.76000000000005 310.43100000000004 471.23999999999995 481.569
%%EndComments
%%BeginProlog
/mpldict 9 dict def
mpldict begin
/m { moveto } bind def
/l { lineto } bind def
/r { rlineto } bind def
/c { curveto } bind def
/cl { closepath } bind def
/box {
m
1 index 0 r
0 exch r
neg 0 r
cl
} bind def
/clipbox {
box
clip
newpath
} bind def
%!PS-Adobe-3.0 Resource-Font
%%Title: DejaVu Sans
%%Copyright: Copyright (c) 2003 by Bitstream, Inc. All Rights Reserved. Copyright (c) 2006 by Tavmjong Bah. All Rights Reserved. DejaVu changes are in public domain 
%%Creator: Converted from TrueType to type 3 by PPR
25 dict begin
/_d{bind def}bind def
/_m{moveto}_d
/_l{lineto}_d
/_cl{closepath eofill}_d
/_c{curveto}_d
/_sc{7 -1 roll{setcachedevice}{pop pop pop pop pop pop}ifelse}_d
/_e{exec}_d
/FontName /DejaVuSans def
/PaintType 0 def
/FontMatrix[.001 0 0 .001 0 0]def
/FontBBox[-1021 -463 1793 1232]def
/FontType 3 def
/Encoding [ /space /period /zero /one /two /three /four /five /six /seven /nine /B /D /E /I /N /S /a /b /c /d /e /g /i /k /l /m /n /o /r /s /t /u /w /bar /uni2016 /minus /greaterequal ] def
/FontInfo 10 dict dup begin
/FamilyName (DejaVu Sans) def
/FullName (DejaVu Sans) def
/Notice (Copyright (c) 2003 by Bitstream, Inc. All Rights Reserved. Copyright (c) 2006 by Tavmjong Bah. All Rights Reserved. DejaVu changes are in public domain ) def
/Weight (Book) def
/Version (Version 2.35) def
/ItalicAngle 0.0 def
/isFixedPitch false def
/UnderlinePosition -130 def
/UnderlineThickness 90 def
end readonly def
/CharStrings 39 dict dup begin
/.notdef 0 def
/space{318 0 0 0 0 0 _sc
}_d
/period{318 0 107 0 210 124 _sc
107 124 _m
210 124 _l
210 0 _l
107 0 _l
107 124 _l
_cl}_d
/zero{636 0 66 -13 570 742 _sc
318 664 _m
267 664 229 639 203 589 _c
177 539 165 464 165 364 _c
165 264 177 189 203 139 _c
229 89 267 64 318 64 _c
369 64 407 89 433 139 _c
458 189 471 264 471 364 _c
471 464 458 539 433 589 _c
407 639 369 664 318 664 _c
318 742 _m
399 742 461 709 505 645 _c
548 580 570 486 570 364 _c
570 241 548 147 505 83 _c
461 19 399 -13 318 -13 _c
236 -13 173 19 130 83 _c
87 147 66 241 66 364 _c
66 486 87 580 130 645 _c
173 709 236 742 318 742 _c
_cl}_d
/one{636 0 110 0 544 729 _sc
124 83 _m
285 83 _l
285 639 _l
110 604 _l
110 694 _l
284 729 _l
383 729 _l
383 83 _l
544 83 _l
544 0 _l
124 0 _l
124 83 _l
_cl}_d
/two{{636 0 73 0 536 742 _sc
192 83 _m
536 83 _l
536 0 _l
73 0 _l
73 83 _l
110 121 161 173 226 239 _c
290 304 331 346 348 365 _c
380 400 402 430 414 455 _c
426 479 433 504 433 528 _c
433 566 419 598 392 622 _c
365 646 330 659 286 659 _c
255 659 222 653 188 643 _c
154 632 117 616 78 594 _c
78 694 _l
118 710 155 722 189 730 _c
223 738 255 742 284 742 _c
}_e{359 742 419 723 464 685 _c
509 647 532 597 532 534 _c
532 504 526 475 515 449 _c
504 422 484 390 454 354 _c
446 344 420 317 376 272 _c
332 227 271 164 192 83 _c
_cl}_e}_d
/three{{636 0 76 -13 556 742 _sc
406 393 _m
453 383 490 362 516 330 _c
542 298 556 258 556 212 _c
556 140 531 84 482 45 _c
432 6 362 -13 271 -13 _c
240 -13 208 -10 176 -4 _c
144 1 110 10 76 22 _c
76 117 _l
103 101 133 89 166 81 _c
198 73 232 69 268 69 _c
330 69 377 81 409 105 _c
441 129 458 165 458 212 _c
458 254 443 288 413 312 _c
383 336 341 349 287 349 _c
}_e{202 349 _l
202 430 _l
291 430 _l
339 430 376 439 402 459 _c
428 478 441 506 441 543 _c
441 580 427 609 401 629 _c
374 649 336 659 287 659 _c
260 659 231 656 200 650 _c
169 644 135 635 98 623 _c
98 711 _l
135 721 170 729 203 734 _c
235 739 266 742 296 742 _c
370 742 429 725 473 691 _c
517 657 539 611 539 553 _c
539 513 527 479 504 451 _c
481 423 448 403 406 393 _c
_cl}_e}_d
/four{636 0 49 0 580 729 _sc
378 643 _m
129 254 _l
378 254 _l
378 643 _l
352 729 _m
476 729 _l
476 254 _l
580 254 _l
580 172 _l
476 172 _l
476 0 _l
378 0 _l
378 172 _l
49 172 _l
49 267 _l
352 729 _l
_cl}_d
/five{{636 0 77 -13 549 729 _sc
108 729 _m
495 729 _l
495 646 _l
198 646 _l
198 467 _l
212 472 227 476 241 478 _c
255 480 270 482 284 482 _c
365 482 429 459 477 415 _c
525 370 549 310 549 234 _c
549 155 524 94 475 51 _c
426 8 357 -13 269 -13 _c
238 -13 207 -10 175 -6 _c
143 -1 111 6 77 17 _c
77 116 _l
106 100 136 88 168 80 _c
199 72 232 69 267 69 _c
}_e{323 69 368 83 401 113 _c
433 143 450 183 450 234 _c
450 284 433 324 401 354 _c
368 384 323 399 267 399 _c
241 399 214 396 188 390 _c
162 384 135 375 108 363 _c
108 729 _l
_cl}_e}_d
/six{{636 0 70 -13 573 742 _sc
330 404 _m
286 404 251 388 225 358 _c
199 328 186 286 186 234 _c
186 181 199 139 225 109 _c
251 79 286 64 330 64 _c
374 64 409 79 435 109 _c
461 139 474 181 474 234 _c
474 286 461 328 435 358 _c
409 388 374 404 330 404 _c
526 713 _m
526 623 _l
501 635 476 644 451 650 _c
425 656 400 659 376 659 _c
310 659 260 637 226 593 _c
}_e{192 549 172 482 168 394 _c
187 422 211 444 240 459 _c
269 474 301 482 336 482 _c
409 482 467 459 509 415 _c
551 371 573 310 573 234 _c
573 159 550 99 506 54 _c
462 9 403 -13 330 -13 _c
246 -13 181 19 137 83 _c
92 147 70 241 70 364 _c
70 479 97 571 152 639 _c
206 707 280 742 372 742 _c
396 742 421 739 447 735 _c
472 730 498 723 526 713 _c
_cl}_e}_d
/seven{636 0 82 0 551 729 _sc
82 729 _m
551 729 _l
551 687 _l
286 0 _l
183 0 _l
432 646 _l
82 646 _l
82 729 _l
_cl}_d
/nine{{636 0 63 -13 566 742 _sc
110 15 _m
110 105 _l
134 93 159 84 185 78 _c
210 72 235 69 260 69 _c
324 69 374 90 408 134 _c
442 178 462 244 468 334 _c
448 306 424 284 396 269 _c
367 254 335 247 300 247 _c
226 247 168 269 126 313 _c
84 357 63 417 63 494 _c
63 568 85 628 129 674 _c
173 719 232 742 306 742 _c
390 742 455 709 499 645 _c
543 580 566 486 566 364 _c
}_e{566 248 538 157 484 89 _c
429 21 356 -13 264 -13 _c
239 -13 214 -10 189 -6 _c
163 -2 137 5 110 15 _c
306 324 _m
350 324 385 339 411 369 _c
437 399 450 441 450 494 _c
450 546 437 588 411 618 _c
385 648 350 664 306 664 _c
262 664 227 648 201 618 _c
175 588 162 546 162 494 _c
162 441 175 399 201 369 _c
227 339 262 324 306 324 _c
_cl}_e}_d
/B{{686 0 98 0 615 729 _sc
197 348 _m
197 81 _l
355 81 _l
408 81 447 92 473 114 _c
498 136 511 169 511 215 _c
511 260 498 293 473 315 _c
447 337 408 348 355 348 _c
197 348 _l
197 648 _m
197 428 _l
343 428 _l
391 428 426 437 450 455 _c
474 473 486 500 486 538 _c
486 574 474 602 450 620 _c
426 638 391 648 343 648 _c
197 648 _l
98 729 _m
350 729 _l
}_e{425 729 483 713 524 682 _c
564 650 585 606 585 549 _c
585 504 574 468 553 442 _c
532 416 502 399 462 393 _c
510 382 548 360 575 327 _c
601 294 615 253 615 204 _c
615 138 592 88 548 53 _c
504 17 441 0 360 0 _c
98 0 _l
98 729 _l
_cl}_e}_d
/D{770 0 98 0 711 729 _sc
197 648 _m
197 81 _l
316 81 _l
416 81 490 103 537 149 _c
583 195 607 267 607 365 _c
607 463 583 534 537 580 _c
490 625 416 648 316 648 _c
197 648 _l
98 729 _m
301 729 _l
442 729 546 699 612 641 _c
678 582 711 490 711 365 _c
711 239 677 147 611 88 _c
545 29 441 0 301 0 _c
98 0 _l
98 729 _l
_cl}_d
/E{632 0 98 0 568 729 _sc
98 729 _m
559 729 _l
559 646 _l
197 646 _l
197 430 _l
544 430 _l
544 347 _l
197 347 _l
197 83 _l
568 83 _l
568 0 _l
98 0 _l
98 729 _l
_cl}_d
/I{295 0 98 0 197 729 _sc
98 729 _m
197 729 _l
197 0 _l
98 0 _l
98 729 _l
_cl}_d
/N{748 0 98 0 650 729 _sc
98 729 _m
231 729 _l
554 119 _l
554 729 _l
650 729 _l
650 0 _l
517 0 _l
194 610 _l
194 0 _l
98 0 _l
98 729 _l
_cl}_d
/S{{635 0 66 -13 579 742 _sc
535 705 _m
535 609 _l
497 627 462 640 429 649 _c
395 657 363 662 333 662 _c
279 662 237 651 208 631 _c
179 610 165 580 165 542 _c
165 510 174 485 194 469 _c
213 452 250 439 304 429 _c
364 417 _l
437 403 491 378 526 343 _c
561 307 579 260 579 201 _c
579 130 555 77 508 41 _c
460 5 391 -13 300 -13 _c
265 -13 228 -9 189 -2 _c
}_e{150 5 110 16 69 32 _c
69 134 _l
109 111 148 94 186 83 _c
224 71 262 66 300 66 _c
356 66 399 77 430 99 _c
460 121 476 152 476 194 _c
476 230 465 258 443 278 _c
421 298 385 313 335 323 _c
275 335 _l
201 349 148 372 115 404 _c
82 435 66 478 66 534 _c
66 598 88 649 134 686 _c
179 723 242 742 322 742 _c
356 742 390 739 426 733 _c
461 727 497 717 535 705 _c
}_e{_cl}_e}_d
/a{{613 0 60 -13 522 560 _sc
343 275 _m
270 275 220 266 192 250 _c
164 233 150 205 150 165 _c
150 133 160 107 181 89 _c
202 70 231 61 267 61 _c
317 61 357 78 387 114 _c
417 149 432 196 432 255 _c
432 275 _l
343 275 _l
522 312 _m
522 0 _l
432 0 _l
432 83 _l
411 49 385 25 355 10 _c
325 -5 287 -13 243 -13 _c
187 -13 142 2 109 33 _c
76 64 60 106 60 159 _c
}_e{60 220 80 266 122 298 _c
163 329 224 345 306 345 _c
432 345 _l
432 354 _l
432 395 418 427 391 450 _c
364 472 326 484 277 484 _c
245 484 215 480 185 472 _c
155 464 127 453 100 439 _c
100 522 _l
132 534 164 544 195 550 _c
226 556 256 560 286 560 _c
365 560 424 539 463 498 _c
502 457 522 395 522 312 _c
_cl}_e}_d
/b{{635 0 91 -13 580 760 _sc
487 273 _m
487 339 473 390 446 428 _c
418 466 381 485 334 485 _c
286 485 249 466 222 428 _c
194 390 181 339 181 273 _c
181 207 194 155 222 117 _c
249 79 286 61 334 61 _c
381 61 418 79 446 117 _c
473 155 487 207 487 273 _c
181 464 _m
199 496 223 520 252 536 _c
281 552 316 560 356 560 _c
422 560 476 533 518 481 _c
559 428 580 359 580 273 _c
}_e{580 187 559 117 518 65 _c
476 13 422 -13 356 -13 _c
316 -13 281 -5 252 10 _c
223 25 199 49 181 82 _c
181 0 _l
91 0 _l
91 760 _l
181 760 _l
181 464 _l
_cl}_e}_d
/c{{550 0 55 -13 488 560 _sc
488 526 _m
488 442 _l
462 456 437 466 411 473 _c
385 480 360 484 334 484 _c
276 484 230 465 198 428 _c
166 391 150 339 150 273 _c
150 206 166 154 198 117 _c
230 80 276 62 334 62 _c
360 62 385 65 411 72 _c
437 79 462 90 488 104 _c
488 21 _l
462 9 436 0 410 -5 _c
383 -10 354 -13 324 -13 _c
242 -13 176 12 128 64 _c
}_e{79 115 55 185 55 273 _c
55 362 79 432 128 483 _c
177 534 244 560 330 560 _c
358 560 385 557 411 551 _c
437 545 463 537 488 526 _c
_cl}_e}_d
/d{{635 0 55 -13 544 760 _sc
454 464 _m
454 760 _l
544 760 _l
544 0 _l
454 0 _l
454 82 _l
435 49 411 25 382 10 _c
353 -5 319 -13 279 -13 _c
213 -13 159 13 117 65 _c
75 117 55 187 55 273 _c
55 359 75 428 117 481 _c
159 533 213 560 279 560 _c
319 560 353 552 382 536 _c
411 520 435 496 454 464 _c
148 273 _m
148 207 161 155 188 117 _c
215 79 253 61 301 61 _c
}_e{348 61 385 79 413 117 _c
440 155 454 207 454 273 _c
454 339 440 390 413 428 _c
385 466 348 485 301 485 _c
253 485 215 466 188 428 _c
161 390 148 339 148 273 _c
_cl}_e}_d
/e{{615 0 55 -13 562 560 _sc
562 296 _m
562 252 _l
149 252 _l
153 190 171 142 205 110 _c
238 78 284 62 344 62 _c
378 62 412 66 444 74 _c
476 82 509 95 541 113 _c
541 28 _l
509 14 476 3 442 -3 _c
408 -9 373 -13 339 -13 _c
251 -13 182 12 131 62 _c
80 112 55 181 55 268 _c
55 357 79 428 127 481 _c
175 533 241 560 323 560 _c
397 560 455 536 498 489 _c
}_e{540 441 562 377 562 296 _c
472 322 _m
471 371 457 410 431 440 _c
404 469 368 484 324 484 _c
274 484 234 469 204 441 _c
174 413 156 373 152 322 _c
472 322 _l
_cl}_e}_d
/g{{635 0 55 -207 544 560 _sc
454 280 _m
454 344 440 395 414 431 _c
387 467 349 485 301 485 _c
253 485 215 467 188 431 _c
161 395 148 344 148 280 _c
148 215 161 165 188 129 _c
215 93 253 75 301 75 _c
349 75 387 93 414 129 _c
440 165 454 215 454 280 _c
544 68 _m
544 -24 523 -93 482 -139 _c
440 -184 377 -207 292 -207 _c
260 -207 231 -204 203 -200 _c
175 -195 147 -188 121 -178 _c
}_e{121 -91 _l
147 -105 173 -115 199 -122 _c
225 -129 251 -133 278 -133 _c
336 -133 380 -117 410 -87 _c
439 -56 454 -10 454 52 _c
454 96 _l
435 64 411 40 382 24 _c
353 8 319 0 279 0 _c
211 0 157 25 116 76 _c
75 127 55 195 55 280 _c
55 364 75 432 116 483 _c
157 534 211 560 279 560 _c
319 560 353 552 382 536 _c
411 520 435 496 454 464 _c
454 547 _l
544 547 _l
}_e{544 68 _l
_cl}_e}_d
/i{278 0 94 0 184 760 _sc
94 547 _m
184 547 _l
184 0 _l
94 0 _l
94 547 _l
94 760 _m
184 760 _l
184 646 _l
94 646 _l
94 760 _l
_cl}_d
/k{579 0 91 0 576 760 _sc
91 760 _m
181 760 _l
181 311 _l
449 547 _l
564 547 _l
274 291 _l
576 0 _l
459 0 _l
181 267 _l
181 0 _l
91 0 _l
91 760 _l
_cl}_d
/l{278 0 94 0 184 760 _sc
94 760 _m
184 760 _l
184 0 _l
94 0 _l
94 760 _l
_cl}_d
/m{{974 0 91 0 889 560 _sc
520 442 _m
542 482 569 511 600 531 _c
631 550 668 560 711 560 _c
767 560 811 540 842 500 _c
873 460 889 403 889 330 _c
889 0 _l
799 0 _l
799 327 _l
799 379 789 418 771 444 _c
752 469 724 482 686 482 _c
639 482 602 466 575 435 _c
548 404 535 362 535 309 _c
535 0 _l
445 0 _l
445 327 _l
445 379 435 418 417 444 _c
398 469 369 482 331 482 _c
}_e{285 482 248 466 221 435 _c
194 404 181 362 181 309 _c
181 0 _l
91 0 _l
91 547 _l
181 547 _l
181 462 _l
201 495 226 520 255 536 _c
283 552 317 560 357 560 _c
397 560 430 550 458 530 _c
486 510 506 480 520 442 _c
_cl}_e}_d
/n{634 0 91 0 549 560 _sc
549 330 _m
549 0 _l
459 0 _l
459 327 _l
459 379 448 417 428 443 _c
408 469 378 482 338 482 _c
289 482 251 466 223 435 _c
195 404 181 362 181 309 _c
181 0 _l
91 0 _l
91 547 _l
181 547 _l
181 462 _l
202 494 227 519 257 535 _c
286 551 320 560 358 560 _c
420 560 468 540 500 501 _c
532 462 549 405 549 330 _c
_cl}_d
/o{612 0 55 -13 557 560 _sc
306 484 _m
258 484 220 465 192 427 _c
164 389 150 338 150 273 _c
150 207 163 156 191 118 _c
219 80 257 62 306 62 _c
354 62 392 80 420 118 _c
448 156 462 207 462 273 _c
462 337 448 389 420 427 _c
392 465 354 484 306 484 _c
306 560 _m
384 560 445 534 490 484 _c
534 433 557 363 557 273 _c
557 183 534 113 490 63 _c
445 12 384 -13 306 -13 _c
227 -13 165 12 121 63 _c
77 113 55 183 55 273 _c
55 363 77 433 121 484 _c
165 534 227 560 306 560 _c
_cl}_d
/r{411 0 91 0 411 560 _sc
411 463 _m
401 469 390 473 378 476 _c
366 478 353 480 339 480 _c
288 480 249 463 222 430 _c
194 397 181 350 181 288 _c
181 0 _l
91 0 _l
91 547 _l
181 547 _l
181 462 _l
199 495 224 520 254 536 _c
284 552 321 560 365 560 _c
371 560 378 559 386 559 _c
393 558 401 557 411 555 _c
411 463 _l
_cl}_d
/s{{521 0 54 -13 472 560 _sc
443 531 _m
443 446 _l
417 458 391 468 364 475 _c
336 481 308 485 279 485 _c
234 485 200 478 178 464 _c
156 450 145 430 145 403 _c
145 382 153 366 169 354 _c
185 342 217 330 265 320 _c
296 313 _l
360 299 405 279 432 255 _c
458 230 472 195 472 151 _c
472 100 452 60 412 31 _c
372 1 316 -13 246 -13 _c
216 -13 186 -10 154 -5 _c
}_e{122 0 89 8 54 20 _c
54 113 _l
87 95 120 82 152 74 _c
184 65 216 61 248 61 _c
290 61 323 68 346 82 _c
368 96 380 117 380 144 _c
380 168 371 187 355 200 _c
339 213 303 226 247 238 _c
216 245 _l
160 257 119 275 95 299 _c
70 323 58 356 58 399 _c
58 450 76 490 112 518 _c
148 546 200 560 268 560 _c
301 560 332 557 362 552 _c
391 547 418 540 443 531 _c
}_e{_cl}_e}_d
/t{392 0 27 0 368 702 _sc
183 702 _m
183 547 _l
368 547 _l
368 477 _l
183 477 _l
183 180 _l
183 135 189 106 201 94 _c
213 81 238 75 276 75 _c
368 75 _l
368 0 _l
276 0 _l
206 0 158 13 132 39 _c
106 65 93 112 93 180 _c
93 477 _l
27 477 _l
27 547 _l
93 547 _l
93 702 _l
183 702 _l
_cl}_d
/u{634 0 85 -13 543 560 _sc
85 216 _m
85 547 _l
175 547 _l
175 219 _l
175 167 185 129 205 103 _c
225 77 255 64 296 64 _c
344 64 383 79 411 110 _c
439 141 453 183 453 237 _c
453 547 _l
543 547 _l
543 0 _l
453 0 _l
453 84 _l
431 50 405 26 377 10 _c
348 -5 315 -13 277 -13 _c
214 -13 166 6 134 45 _c
101 83 85 140 85 216 _c
311 560 _m
311 560 _l
_cl}_d
/w{818 0 42 0 776 547 _sc
42 547 _m
132 547 _l
244 120 _l
356 547 _l
462 547 _l
574 120 _l
686 547 _l
776 547 _l
633 0 _l
527 0 _l
409 448 _l
291 0 _l
185 0 _l
42 547 _l
_cl}_d
/bar{337 0 127 -235 210 764 _sc
210 764 _m
210 -235 _l
127 -235 _l
127 764 _l
210 764 _l
_cl}_d
/uni2016{500 0 127 -235 371 764 _sc
false CharStrings /bar get exec
gsave 161 0 translate
false CharStrings /bar get exec
grestore }_d
/minus{838 0 106 272 732 355 _sc
106 355 _m
732 355 _l
732 272 _l
106 272 _l
106 355 _l
_cl}_d
/greaterequal{838 0 106 0 732 582 _sc
106 496 _m
106 582 _l
732 403 _l
732 320 _l
106 140 _l
106 227 _l
575 361 _l
106 496 _l
732 83 _m
732 0 _l
106 0 _l
106 83 _l
732 83 _l
_cl}_d
end readonly def

/BuildGlyph
 {exch begin
 CharStrings exch
 2 copy known not{pop /.notdef}if
 true 3 1 roll get exec
 end}_d

/BuildChar {
 1 index /Encoding get exch get
 1 index /BuildGlyph get exec
}_d

FontName currentdict end definefont pop
%!PS-Adobe-3.0 Resource-Font
%%Title: DejaVu Sans Oblique
%%Copyright: Copyright (c) 2003 by Bitstream, Inc. All Rights Reserved. Copyright (c) 2006 by Tavmjong Bah. All Rights Reserved. DejaVu changes are in public domain 
%%Creator: Converted from TrueType to type 3 by PPR
25 dict begin
/_d{bind def}bind def
/_m{moveto}_d
/_l{lineto}_d
/_cl{closepath eofill}_d
/_c{curveto}_d
/_sc{7 -1 roll{setcachedevice}{pop pop pop pop pop pop}ifelse}_d
/_e{exec}_d
/FontName /DejaVuSans-Oblique def
/PaintType 0 def
/FontMatrix[.001 0 0 .001 0 0]def
/FontBBox[-1016 -350 1659 1068]def
/FontType 3 def
/Encoding [ /S ] def
/FontInfo 10 dict dup begin
/FamilyName (DejaVu Sans) def
/FullName (DejaVu Sans Oblique) def
/Notice (Copyright (c) 2003 by Bitstream, Inc. All Rights Reserved. Copyright (c) 2006 by Tavmjong Bah. All Rights Reserved. DejaVu changes are in public domain ) def
/Weight (Oblique) def
/Version (Version 2.35) def
/ItalicAngle -11.0 def
/isFixedPitch false def
/UnderlinePosition -130 def
/UnderlineThickness 90 def
end readonly def
/CharStrings 2 dict dup begin
/.notdef 0 def
/S{{635 0 6 -13 603 742 _sc
603 705 _m
584 609 _l
551 626 518 639 486 648 _c
454 657 422 662 392 662 _c
333 662 286 649 251 623 _c
216 597 199 563 199 521 _c
199 497 205 479 218 467 _c
231 454 264 441 318 427 _c
377 412 _l
443 394 490 372 516 346 _c
542 320 555 283 555 235 _c
555 161 526 102 468 56 _c
410 10 334 -13 240 -13 _c
201 -13 162 -9 123 -2 _c
}_e{84 5 45 16 6 32 _c
26 134 _l
62 111 98 94 134 83 _c
170 71 207 66 243 66 _c
304 66 353 79 391 107 _c
428 134 447 170 447 214 _c
447 243 439 265 424 280 _c
409 295 377 309 329 322 _c
270 337 _l
202 354 156 374 132 397 _c
107 420 95 452 95 494 _c
95 566 123 626 179 672 _c
235 718 307 742 397 742 _c
431 742 466 739 500 733 _c
534 727 569 717 603 705 _c
}_e{_cl}_e}_d
end readonly def

/BuildGlyph
 {exch begin
 CharStrings exch
 2 copy known not{pop /.notdef}if
 true 3 1 roll get exec
 end}_d

/BuildChar {
 1 index /Encoding get exch get
 1 index /BuildGlyph get exec
}_d

FontName currentdict end definefont pop
end
%%EndProlog
mpldict begin
140.76 310.431 translate
330.48 171.138 0 0 clipbox
gsave
0 -0 m
330.48 -0 l
330.48 171.138 l
0 171.138 l
cl
1.000 setgray
fill
grestore
gsave
44.965625 31.73125 m
178.592812 31.73125 l
178.592812 157.68 l
44.965625 157.68 l
cl
1.000 setgray
fill
grestore
1.500 setlinewidth
1 setlinejoin
0 setlinecap
[] 0 setdash
0.000 setgray
gsave
133.6 125.9 44.97 31.73 clipbox
/o {
gsave
newpath
translate
1.5 setlinewidth
1 setlinejoin
0 setlinecap
0 -3 m
0 3 l

gsave
0.000 setgray
fill
grestore
stroke
grestore
} bind def
133.951 111.183 o
grestore
gsave
133.6 125.9 44.97 31.73 clipbox
/o {
gsave
newpath
translate
1.5 setlinewidth
1 setlinejoin
0 setlinecap
0 -3 m
0 3 l

gsave
0.000 setgray
fill
grestore
stroke
grestore
} bind def
133.951 46.0433 o
grestore
[9.6 2.4 1.5 2.4] 0 setdash
gsave
133.6 125.9 44.97 31.73 clipbox
44.965625 151.955057 m
45.263236 148.308237 l
45.858457 144.576251 l
46.751289 141.009785 l
47.644121 138.564048 l
48.239342 137.178163 l
49.727396 134.723752 l
50.620228 133.648757 l
51.51306 132.708066 l
52.703502 130.944768 l
53.596334 129.964554 l
54.489166 129.325415 l
55.97722 128.761922 l
56.572441 128.035352 l
57.167662 126.938148 l
58.060494 125.766579 l
58.953326 125.528124 l
59.548547 125.554933 l
60.143769 125.314585 l
61.929433 124.591188 l
62.524654 124.432501 l
64.310318 123.292454 l
65.798371 121.60943 l
68.179257 118.459761 l
70.560142 114.727816 l
72.643417 112.232173 l
72.941027 111.707065 l
73.238638 111.435209 l
73.536249 110.936579 l
73.833859 111.020865 l
74.13147 110.493285 l
74.429081 110.475897 l
74.726691 109.726024 l
75.024302 109.630451 l
75.321913 108.835799 l
75.619523 108.452422 l
75.917134 108.435617 l
76.214745 107.762563 l
76.512355 107.490703 l
76.809966 108.248959 l
77.107577 108.575757 l
77.405187 108.487878 l
77.702798 107.377306 l
78.000409 107.296097 l
78.59563 108.346437 l
78.893241 108.195661 l
79.190851 107.416916 l
79.488462 107.729893 l
79.786073 109.069093 l
80.083683 107.412158 l
80.381294 107.290699 l
80.678905 108.059132 l
80.976515 107.949274 l
81.274126 108.062497 l
81.571736 107.775679 l
81.869347 109.607454 l
82.166958 107.502935 l
82.464568 107.010827 l
82.762179 106.274132 l
83.05979 106.392496 l
83.3574 108.000839 l
83.655011 106.828592 l
83.952622 106.756337 l
84.250232 107.361378 l
84.547843 109.001374 l
85.143064 106.887301 l
85.440675 107.164088 l
85.738286 106.910664 l
86.035896 107.088316 l
86.333507 110.078586 l
86.631118 106.46174 l
86.928728 108.188957 l
87.226339 106.942104 l
87.82156 110.28431 l
88.119171 109.347403 l
88.416782 106.781447 l
88.714392 107.822924 l
89.012003 107.311037 l
89.309614 109.913708 l
89.607224 109.724938 l
89.904835 107.581175 l
90.202446 109.313989 l
90.500056 106.860318 l
90.797667 108.731188 l
91.095278 106.863773 l
91.392888 107.432358 l
91.690499 106.828385 l
91.98811 109.030501 l
92.28572 108.318724 l
92.583331 106.447868 l
92.880942 107.338789 l
93.178552 106.568189 l
93.476163 107.276753 l
93.773774 109.075977 l
94.071384 107.39859 l
94.368995 107.780653 l
94.666606 108.527744 l
94.964216 108.96327 l
95.261827 106.876797 l
95.559438 106.479266 l
96.154659 109.893868 l
96.45227 106.08795 l
96.74988 108.716561 l
97.047491 109.775164 l
97.642712 106.803957 l
97.940323 109.900525 l
98.237934 107.814807 l
98.535544 106.850433 l
98.833155 109.046961 l
99.130766 110.239261 l
99.428376 107.798536 l
99.725987 107.516493 l
100.023598 110.43719 l
100.321208 110.494969 l
100.618819 112.845152 l
100.91643 109.181156 l
101.21404 108.88787 l
101.511651 110.134368 l
101.809262 110.405285 l
102.404483 107.21493 l
102.702094 108.670186 l
102.999704 109.132388 l
103.297315 112.032144 l
103.594926 111.38521 l
103.892536 108.431808 l
104.190147 110.274031 l
104.487758 108.163233 l
104.785368 109.590578 l
105.38059 108.564318 l
105.6782 110.048173 l
105.975811 109.53697 l
106.273421 108.385295 l
106.571032 109.15982 l
106.868643 109.316462 l
107.166253 107.581034 l
107.463864 108.043794 l
108.059085 107.844892 l
108.356696 107.294659 l
108.654307 109.579064 l
109.249528 107.439228 l
109.547139 107.472123 l
109.844749 109.470119 l
110.14236 108.260769 l
110.439971 109.224453 l
110.737581 108.445946 l
111.035192 109.451227 l
111.928024 107.846916 l
112.225635 109.225243 l
112.523245 108.430459 l
112.820856 108.401823 l
113.118467 107.881861 l
113.416077 109.047385 l
113.713688 107.495374 l
114.011299 107.756957 l
114.308909 109.271697 l
114.60652 109.595216 l
114.904131 107.798469 l
115.201741 107.659269 l
115.499352 109.308534 l
115.796963 110.242928 l
116.094573 108.053189 l
116.392184 107.749193 l
116.689795 110.050054 l
116.987405 109.438787 l
117.285016 112.123841 l
117.582627 110.567635 l
117.880237 107.798447 l
118.177848 111.552803 l
118.475459 107.752037 l
118.773069 108.654775 l
119.07068 111.005595 l
119.368291 108.085956 l
119.665901 109.93796 l
119.963512 108.822989 l
120.261123 108.351822 l
120.856344 110.806089 l
121.153955 111.236164 l
121.451565 108.626146 l
121.749176 107.903872 l
122.344397 108.480537 l
122.642008 110.397089 l
122.939619 110.776847 l
123.237229 110.745621 l
123.53484 111.955365 l
123.832451 108.399522 l
124.130061 110.598735 l
124.427672 108.224068 l
124.725283 110.481896 l
125.022893 107.680905 l
125.320504 110.026352 l
125.618115 109.977998 l
125.915725 111.947088 l
126.213336 108.42394 l
126.510947 108.204655 l
127.106168 108.408569 l
127.403779 108.977593 l
127.701389 108.494397 l
127.999 109.197118 l
128.594221 108.105289 l
128.891832 107.864272 l
129.189443 108.977639 l
129.487053 108.268153 l
129.784664 110.337552 l
130.082274 109.459476 l
130.379885 109.497736 l
130.677496 111.822689 l
130.975106 108.338213 l
131.272717 110.445794 l
131.570328 108.690723 l
131.867938 109.509048 l
132.165549 108.111501 l
132.76077 109.136489 l
133.355992 108.666756 l
133.951213 111.182665 l
134.248824 105.348113 l
134.546434 104.706563 l
135.141656 104.522442 l
135.736877 104.505331 l
141.986701 104.492316 l
142.879533 104.505945 l
165.497943 104.527797 l
178.592812 104.530902 l
178.592812 104.530902 l
stroke
grestore
[5.55 2.4] 0 setdash
gsave
133.6 125.9 44.97 31.73 clipbox
44.965625 151.955057 m
45.263236 148.308237 l
45.858457 144.576248 l
46.751289 141.009785 l
47.644121 138.564048 l
48.239342 137.178163 l
49.727396 134.723739 l
50.620228 133.648748 l
51.51306 132.708078 l
52.703502 130.944747 l
53.596334 129.964499 l
54.489166 129.325442 l
55.97722 128.76199 l
56.572441 128.035312 l
57.167662 126.938196 l
58.060494 125.76701 l
58.953326 125.528281 l
59.548547 125.555111 l
60.143769 125.31482 l
61.929433 124.590881 l
62.524654 124.431915 l
64.310318 123.291876 l
65.798371 121.609464 l
68.179257 118.459185 l
69.964921 115.680398 l
70.857753 114.34263 l
71.452974 113.76102 l
72.048195 113.074429 l
74.13147 109.986201 l
75.321913 108.206998 l
77.107577 105.581563 l
79.786073 103.44682 l
80.381294 102.719887 l
81.274126 101.126015 l
82.166958 99.207235 l
83.05979 97.25268 l
83.655011 95.680661 l
84.547843 94.131579 l
86.928728 90.546815 l
88.714392 86.647882 l
89.607224 85.40875 l
90.500056 84.285909 l
92.583331 80.141803 l
94.666606 75.524358 l
95.857048 72.633964 l
97.345102 69.066414 l
98.833155 66.665772 l
101.511651 60.997783 l
102.702094 57.768721 l
103.892536 54.776001 l
105.082979 52.323461 l
105.975811 50.928261 l
107.463864 48.025422 l
107.761475 47.671669 l
108.059085 47.066349 l
108.356696 46.759851 l
108.654307 46.276722 l
108.951917 46.123872 l
109.249528 46.13864 l
109.547139 45.583088 l
109.844749 46.216465 l
110.14236 45.944696 l
110.439971 46.002093 l
111.035192 45.860995 l
111.332803 45.615723 l
111.630413 45.784141 l
111.928024 45.473916 l
112.225635 45.881353 l
112.523245 45.745095 l
112.820856 45.946645 l
113.118467 45.396502 l
113.416077 45.871005 l
113.713688 46.045491 l
114.308909 45.941408 l
114.60652 46.284472 l
114.904131 45.956205 l
115.201741 46.431311 l
115.499352 46.566385 l
115.796963 46.543449 l
116.094573 45.997163 l
116.392184 46.337535 l
117.285016 46.014823 l
117.582627 46.551901 l
117.880237 46.187889 l
118.177848 46.057195 l
118.475459 46.569938 l
119.07068 46.128854 l
119.368291 46.094669 l
119.665901 45.636447 l
119.963512 46.650006 l
120.261123 46.136538 l
120.558733 46.186906 l
120.856344 46.571068 l
121.153955 45.550819 l
121.749176 45.908801 l
122.046787 46.533951 l
122.344397 45.2078 l
122.642008 46.142604 l
122.939619 46.371792 l
123.237229 46.135513 l
123.53484 46.355298 l
123.832451 46.168631 l
124.130061 46.830911 l
124.427672 46.059536 l
124.725283 45.920015 l
125.022893 45.928225 l
125.320504 45.559713 l
125.618115 45.839448 l
125.915725 46.321268 l
126.213336 45.543441 l
126.510947 46.010976 l
126.808557 45.967841 l
127.106168 46.438133 l
127.701389 45.300708 l
127.999 45.959118 l
129.189443 45.744237 l
129.487053 46.226994 l
129.784664 45.685199 l
130.082274 45.789428 l
130.379885 45.497997 l
130.677496 45.667262 l
130.975106 45.599384 l
131.272717 45.769494 l
131.570328 45.208927 l
131.867938 45.736477 l
132.165549 45.871802 l
132.46316 45.752776 l
132.76077 45.489957 l
133.058381 46.331023 l
133.355992 45.740182 l
133.951213 46.043302 l
134.248824 39.074158 l
134.546434 37.985419 l
136.034488 37.836937 l
138.415373 37.885011 l
139.010594 37.827643 l
140.201037 37.836294 l
160.438562 37.886214 l
178.592812 37.88966 l
178.592812 37.88966 l
stroke
grestore
[] 0 setdash
gsave
133.6 125.9 44.97 31.73 clipbox
/o {
gsave
newpath
translate
1.5 setlinewidth
1 setlinejoin
0 setlinecap
0 -3 m
0 3 l

gsave
0.000 setgray
fill
grestore
stroke
grestore
} bind def
70.2625 115.276 o
94.9642 92.105 o
119.368 69.1329 o
143.772 46.0373 o
168.176 38.3477 o
grestore
0.149 setgray
gsave
133.6 125.9 44.97 31.73 clipbox
/o {
gsave
newpath
translate
1.5 setlinewidth
1 setlinejoin
0 setlinecap
0 -3 m
0 3 l

gsave
0.149 setgray
fill
grestore
stroke
grestore
} bind def
75.6195 110.196 o
104.785 79.3298 o
133.654 46.6712 o
164.605 38.2538 o
grestore
0.298 setgray
gsave
133.6 125.9 44.97 31.73 clipbox
/o {
gsave
newpath
translate
1.5 setlinewidth
1 setlinejoin
0 setlinecap
0 -3 m
0 3 l

gsave
0.298 setgray
fill
grestore
stroke
grestore
} bind def
100.619 107.643 o
134.249 65.4942 o
169.069 38.4797 o
grestore
0.451 setgray
gsave
133.6 125.9 44.97 31.73 clipbox
/o {
gsave
newpath
translate
1.5 setlinewidth
1 setlinejoin
0 setlinecap
0 -3 m
0 3 l

gsave
0.451 setgray
fill
grestore
stroke
grestore
} bind def
103 108.126 o
143.475 64.9159 o
178.295 38.3011 o
grestore
0.604 setgray
gsave
133.6 125.9 44.97 31.73 clipbox
/o {
gsave
newpath
translate
1.5 setlinewidth
1 setlinejoin
0 setlinecap
0 -3 m
0 3 l

gsave
0.604 setgray
fill
grestore
stroke
grestore
} bind def
114.011 112.153 o
grestore
2 setlinecap
0.000 setgray
gsave
133.6 125.9 44.97 31.73 clipbox
44.965625 151.955057 m
45.263236 148.308237 l
45.858457 144.576251 l
46.751289 141.009785 l
47.644121 138.564048 l
48.239342 137.178163 l
49.727396 134.723732 l
50.620228 133.64873 l
51.51306 132.708102 l
52.703502 130.944768 l
53.596334 129.964499 l
54.489166 129.325442 l
55.97722 128.762009 l
56.572441 128.035386 l
57.167662 126.938128 l
58.060494 125.766677 l
58.953326 125.527955 l
59.548547 125.554537 l
60.143769 125.31454 l
61.929433 124.591202 l
62.524654 124.431945 l
64.310318 123.292763 l
65.798371 121.610108 l
68.179257 118.459265 l
69.964921 115.687051 l
70.560142 114.743537 l
71.155363 113.803111 l
71.750585 113.43278 l
72.643417 112.555016 l
75.321913 109.656013 l
75.917134 108.971865 l
76.809966 107.733226 l
79.190851 104.690379 l
80.083683 103.950241 l
82.762179 101.941005 l
83.3574 101.260558 l
84.547843 100.440386 l
86.333507 99.508662 l
87.226339 99.27301 l
88.714392 99.070317 l
89.012003 98.930703 l
89.904835 97.952518 l
90.797667 96.701931 l
92.880942 95.025586 l
93.476163 94.46848 l
94.666606 92.710388 l
96.45227 89.142052 l
96.74988 89.303886 l
97.047491 88.936764 l
97.642712 88.727094 l
98.535544 87.9442 l
100.321208 86.820815 l
101.21404 85.952969 l
102.106872 84.782845 l
103.297315 82.796987 l
105.082979 80.653087 l
106.571032 78.413093 l
107.166253 78.001553 l
107.761475 78.015647 l
108.951917 77.789224 l
109.547139 77.473267 l
110.14236 77.27987 l
110.737581 77.402859 l
111.332803 77.455394 l
111.928024 77.171905 l
112.523245 76.457357 l
113.713688 74.625714 l
114.904131 73.513445 l
116.392184 72.749668 l
116.689795 72.518419 l
118.773069 69.732982 l
121.749176 66.787519 l
122.046787 66.173759 l
122.344397 65.95819 l
123.53484 64.598575 l
124.130061 64.033842 l
125.915725 61.768694 l
126.510947 61.094291 l
127.106168 60.677551 l
128.296611 59.92158 l
130.082274 57.46104 l
130.677496 56.614189 l
132.165549 55.418454 l
133.058381 54.333011 l
133.355992 54.085748 l
133.653602 54.004766 l
134.248824 54.279545 l
134.546434 54.549604 l
135.439266 54.881559 l
136.034488 54.746023 l
136.629709 54.3333 l
138.117762 52.844614 l
141.68909 48.464126 l
142.581922 47.298803 l
144.069976 45.656101 l
144.367586 45.556021 l
144.962808 45.700792 l
145.558029 44.617444 l
145.85564 44.351543 l
146.15325 44.400753 l
147.343693 43.799528 l
148.236525 43.079992 l
150.022189 41.566609 l
150.915021 40.564774 l
152.105464 39.59503 l
152.998296 39.148283 l
155.974402 38.371806 l
156.569623 38.411278 l
156.867234 38.347201 l
157.760066 38.424538 l
159.54573 38.389141 l
159.843341 38.508646 l
160.438562 38.366746 l
161.033783 38.372188 l
161.926615 38.362939 l
163.712279 38.403383 l
165.200333 38.368251 l
168.176439 38.347724 l
169.664493 38.325102 l
169.962103 37.580915 l
170.557325 37.548888 l
171.152546 37.566222 l
172.045378 37.623937 l
173.831042 37.723802 l
174.128653 37.671638 l
174.723874 37.752969 l
178.295202 37.711239 l
178.592812 37.753529 l
178.592812 37.753529 l
stroke
grestore
0.149 setgray
gsave
133.6 125.9 44.97 31.73 clipbox
44.965625 151.955057 m
45.263236 148.308237 l
45.858457 144.576251 l
46.751289 141.009785 l
47.644121 138.564048 l
48.239342 137.178163 l
49.727396 134.723732 l
50.620228 133.64873 l
51.51306 132.708102 l
52.703502 130.944768 l
53.596334 129.964499 l
54.489166 129.325442 l
55.97722 128.762009 l
56.572441 128.035386 l
57.167662 126.938128 l
58.060494 125.766677 l
58.953326 125.527955 l
59.548547 125.554537 l
60.143769 125.31454 l
61.929433 124.591202 l
62.524654 124.431945 l
64.310318 123.292763 l
65.798371 121.610108 l
68.179257 118.459265 l
69.964921 115.687051 l
71.452974 113.802497 l
72.048195 113.143607 l
72.941027 111.719686 l
73.238638 111.675184 l
73.536249 111.281494 l
73.833859 111.590832 l
74.13147 111.292856 l
74.429081 111.62685 l
74.726691 110.503796 l
75.024302 110.697989 l
75.619523 110.196495 l
75.917134 110.276405 l
76.214745 106.69176 l
76.512355 106.608155 l
77.405187 105.904284 l
78.893241 104.646135 l
79.190851 104.51289 l
79.786073 103.903004 l
80.381294 103.333203 l
80.976515 102.596891 l
81.869347 101.079547 l
84.250232 96.613146 l
85.440675 95.205443 l
89.607224 90.810187 l
90.797667 90.297837 l
91.095278 90.367704 l
91.690499 90.06102 l
91.98811 90.476618 l
92.28572 90.310685 l
92.583331 89.966246 l
92.880942 89.861584 l
93.178552 89.490017 l
93.773774 89.45221 l
94.368995 89.444937 l
94.666606 89.364765 l
96.45227 87.336636 l
97.642712 85.60854 l
98.237934 85.120242 l
98.833155 84.427032 l
99.130766 83.966941 l
99.725987 83.444719 l
100.321208 82.717554 l
100.91643 81.818365 l
101.511651 81.377239 l
101.809262 81.31433 l
102.106872 81.017283 l
103.297315 80.368217 l
103.892536 80.03292 l
104.190147 79.791012 l
104.487758 79.891078 l
105.6782 77.718965 l
110.14236 72.008628 l
110.439971 71.695006 l
111.630413 69.706195 l
113.416077 68.243016 l
116.094573 65.987013 l
117.582627 63.681243 l
118.177848 63.065453 l
118.475459 62.786877 l
119.368291 61.577692 l
119.665901 61.362062 l
120.261123 60.211765 l
121.451565 58.728045 l
122.344397 58.673651 l
122.642008 58.761875 l
123.237229 59.07877 l
124.427672 58.700567 l
125.320504 57.918128 l
127.106168 57.21902 l
127.403779 57.065914 l
128.296611 56.147352 l
129.784664 53.609293 l
131.570328 50.401369 l
133.653602 46.671235 l
133.951213 46.056037 l
134.248824 45.773455 l
134.546434 45.126127 l
134.844045 44.017363 l
135.141656 43.620056 l
135.736877 43.187716 l
136.92732 41.528327 l
139.903426 39.028762 l
141.093869 38.534636 l
141.68909 38.44144 l
141.986701 38.45362 l
142.581922 38.361679 l
143.474754 38.306201 l
144.069976 38.368114 l
144.962808 38.254568 l
147.046082 38.348522 l
148.236525 38.259802 l
148.831746 38.243508 l
150.61741 38.237993 l
152.105464 38.236797 l
153.891128 38.212142 l
162.224226 38.266466 l
163.414669 38.235886 l
164.902722 38.254738 l
165.795554 38.251622 l
166.093165 37.55512 l
166.390775 37.464 l
167.283607 37.601339 l
168.771661 37.624372 l
169.962103 37.568462 l
170.259714 37.66397 l
171.747767 37.607302 l
174.723874 37.713213 l
177.40237 37.631291 l
178.592812 37.68611 l
178.592812 37.68611 l
stroke
grestore
0.298 setgray
gsave
133.6 125.9 44.97 31.73 clipbox
44.965625 151.955057 m
45.263236 148.308237 l
45.858457 144.576251 l
46.751289 141.009785 l
47.644121 138.564048 l
48.239342 137.178163 l
49.727396 134.723732 l
50.620228 133.64873 l
51.51306 132.708102 l
52.703502 130.944768 l
53.596334 129.964499 l
54.489166 129.325442 l
55.97722 128.762009 l
56.572441 128.035386 l
57.167662 126.938128 l
58.060494 125.766677 l
58.953326 125.527955 l
59.548547 125.554537 l
60.143769 125.31454 l
61.929433 124.591202 l
62.524654 124.431945 l
64.310318 123.292763 l
65.798371 121.610108 l
68.179257 118.459265 l
69.964921 115.687051 l
71.452974 113.802497 l
72.048195 113.143607 l
72.941027 111.719686 l
73.238638 111.675184 l
73.536249 111.281494 l
73.833859 111.590832 l
74.13147 111.292856 l
74.429081 111.62685 l
74.726691 110.503796 l
75.024302 110.697989 l
75.619523 110.196495 l
75.917134 110.276405 l
76.214745 109.376468 l
76.512355 109.835536 l
76.809966 108.263226 l
77.107577 111.039945 l
77.405187 109.377044 l
77.702798 108.935754 l
78.000409 109.303842 l
78.298019 110.463539 l
78.893241 110.301008 l
79.190851 110.215067 l
79.488462 111.299398 l
79.786073 111.194679 l
80.083683 110.642743 l
80.381294 109.153269 l
80.678905 111.385973 l
80.976515 111.037037 l
81.274126 110.398389 l
81.571736 111.913872 l
81.869347 110.14387 l
82.464568 108.915706 l
82.762179 110.166674 l
83.05979 109.953542 l
83.3574 109.145015 l
83.655011 110.308699 l
83.952622 108.604234 l
84.250232 110.276133 l
84.547843 109.347611 l
84.845454 109.398352 l
85.143064 107.907846 l
85.440675 108.696672 l
85.738286 109.862758 l
86.035896 109.499322 l
86.333507 110.307032 l
86.631118 107.468395 l
86.928728 108.513062 l
87.226339 108.106013 l
87.52395 109.371856 l
87.82156 109.357225 l
88.119171 107.683694 l
88.416782 111.141258 l
88.714392 111.343263 l
89.309614 108.619639 l
89.607224 108.384814 l
89.904835 111.232953 l
90.202446 108.002209 l
90.500056 110.120326 l
90.797667 110.724773 l
91.392888 111.300864 l
91.690499 110.341204 l
91.98811 111.320503 l
92.583331 109.514854 l
92.880942 111.228147 l
93.178552 109.772597 l
93.476163 109.838306 l
93.773774 110.802014 l
94.071384 109.067347 l
94.368995 109.321374 l
94.666606 108.707395 l
94.964216 108.96268 l
95.261827 107.652264 l
95.559438 108.065818 l
95.857048 106.303641 l
96.154659 107.657151 l
96.45227 110.246886 l
96.74988 107.280471 l
97.047491 107.432826 l
97.345102 107.229976 l
97.642712 109.627617 l
97.940323 108.884165 l
98.237934 109.917554 l
98.535544 109.437575 l
98.833155 109.548996 l
99.130766 107.849003 l
99.428376 109.093424 l
100.023598 107.081747 l
100.321208 107.00256 l
100.618819 107.642538 l
100.91643 110.258216 l
101.21404 103.951284 l
101.511651 101.489654 l
101.809262 100.456891 l
103.594926 97.117338 l
105.082979 94.597572 l
106.273421 91.884427 l
106.868643 90.655386 l
108.356696 88.359055 l
109.249528 87.755616 l
110.439971 87.759625 l
111.332803 87.997314 l
112.225635 87.665465 l
112.820856 87.362536 l
113.416077 87.295905 l
114.011299 87.145353 l
114.60652 86.68908 l
116.094573 85.132665 l
116.689795 84.259568 l
118.177848 82.228073 l
118.773069 81.553145 l
119.665901 80.247124 l
121.749176 76.844093 l
122.344397 76.139212 l
122.939619 75.715818 l
123.53484 75.137358 l
124.427672 74.062638 l
125.022893 73.363436 l
126.213336 72.020577 l
128.594221 70.106324 l
129.189443 69.409696 l
130.082274 67.852634 l
131.272717 66.70926 l
131.570328 66.850189 l
131.867938 66.291375 l
132.165549 66.408227 l
132.76077 65.862157 l
133.355992 65.861423 l
133.653602 66.071288 l
133.951213 65.61222 l
134.248824 65.494156 l
134.546434 65.563724 l
134.844045 65.81888 l
135.141656 62.1522 l
135.736877 60.340264 l
136.034488 60.181413 l
137.22493 59.011674 l
137.522541 58.779204 l
137.820152 58.187784 l
138.712984 57.318827 l
140.796258 54.738766 l
141.093869 54.529963 l
142.284312 53.128524 l
142.879533 52.635397 l
143.474754 52.342287 l
144.069976 51.707504 l
144.962808 50.699843 l
145.558029 50.157511 l
147.641304 48.291992 l
147.938914 48.150864 l
148.236525 48.190273 l
148.534136 48.104933 l
149.426968 48.20325 l
150.3198 47.539728 l
151.510242 47.895372 l
152.105464 47.358446 l
152.403074 47.243419 l
152.998296 46.692751 l
153.593517 45.838701 l
155.08157 44.313928 l
155.676791 43.54331 l
156.867234 42.383723 l
157.462455 41.944133 l
159.54573 39.959665 l
160.736173 39.205584 l
161.629005 38.827028 l
162.819447 38.695574 l
164.902722 38.515535 l
165.497943 38.515326 l
166.688386 38.426797 l
166.985997 38.516765 l
167.581218 38.508148 l
169.664493 38.4665 l
169.962103 38.477371 l
170.259714 37.527837 l
174.128653 37.740728 l
174.723874 37.730962 l
178.592812 37.7692 l
178.592812 37.7692 l
stroke
grestore
0.451 setgray
gsave
133.6 125.9 44.97 31.73 clipbox
44.965625 151.955057 m
45.263236 148.308237 l
45.858457 144.576251 l
46.751289 141.009785 l
47.644121 138.564048 l
48.239342 137.178163 l
49.727396 134.723732 l
50.620228 133.64873 l
51.51306 132.708102 l
52.703502 130.944768 l
53.596334 129.964499 l
54.489166 129.325442 l
55.97722 128.762009 l
56.572441 128.035386 l
57.167662 126.938128 l
58.060494 125.766677 l
58.953326 125.527955 l
59.548547 125.554537 l
60.143769 125.31454 l
61.929433 124.591202 l
62.524654 124.431945 l
64.310318 123.292763 l
65.798371 121.610108 l
68.179257 118.459265 l
69.964921 115.687051 l
71.452974 113.802497 l
72.048195 113.143607 l
72.941027 111.719686 l
73.238638 111.675184 l
73.536249 111.281494 l
73.833859 111.590832 l
74.13147 111.292856 l
74.429081 111.62685 l
74.726691 110.503796 l
75.024302 110.697989 l
75.619523 110.196495 l
75.917134 110.276405 l
76.214745 109.376468 l
76.512355 109.835536 l
76.809966 108.263226 l
77.107577 111.039945 l
77.405187 109.377044 l
77.702798 108.935754 l
78.000409 109.303842 l
78.298019 110.463539 l
78.893241 110.301008 l
79.190851 110.215067 l
79.488462 111.299398 l
79.786073 111.194679 l
80.083683 110.642743 l
80.381294 109.153269 l
80.678905 111.385973 l
80.976515 111.037037 l
81.274126 110.398389 l
81.571736 111.913872 l
81.869347 110.14387 l
82.464568 108.915706 l
82.762179 110.166674 l
83.05979 109.953542 l
83.3574 109.145015 l
83.655011 110.308699 l
83.952622 108.604234 l
84.250232 110.276133 l
84.547843 109.347611 l
84.845454 109.398352 l
85.143064 107.907846 l
85.440675 108.696672 l
85.738286 109.862758 l
86.035896 109.499322 l
86.333507 110.307032 l
86.631118 107.468395 l
86.928728 108.513062 l
87.226339 108.106013 l
87.52395 109.371856 l
87.82156 109.357225 l
88.119171 107.683694 l
88.416782 111.141258 l
88.714392 111.343263 l
89.309614 108.619639 l
89.607224 108.384814 l
89.904835 111.232953 l
90.202446 108.002209 l
90.500056 110.120326 l
90.797667 110.724773 l
91.392888 111.300864 l
91.690499 110.341204 l
91.98811 111.320503 l
92.583331 109.514854 l
92.880942 111.228147 l
93.178552 109.772597 l
93.476163 109.838306 l
93.773774 110.802014 l
94.071384 109.067347 l
94.368995 109.321374 l
94.666606 108.707395 l
94.964216 108.96268 l
95.261827 107.652264 l
95.559438 108.065818 l
95.857048 106.303641 l
96.154659 107.657151 l
96.45227 110.246886 l
96.74988 107.280471 l
97.047491 107.432826 l
97.345102 107.229976 l
97.642712 109.627617 l
97.940323 108.884165 l
98.237934 109.917554 l
98.535544 109.437575 l
98.833155 109.548996 l
99.130766 107.849003 l
99.428376 109.093424 l
100.023598 107.081747 l
100.321208 107.00256 l
100.618819 107.642538 l
100.91643 110.258216 l
101.21404 107.261554 l
101.511651 107.360044 l
101.809262 110.561472 l
102.106872 108.420465 l
102.404483 107.555221 l
103.297315 108.181572 l
103.594926 103.830702 l
103.892536 101.804045 l
104.487758 99.636363 l
105.082979 98.408853 l
106.273421 96.398561 l
107.166253 94.31092 l
108.654307 91.523392 l
109.844749 90.070355 l
110.737581 88.429409 l
111.332803 87.547619 l
112.523245 85.983907 l
113.416077 85.109427 l
114.011299 84.348755 l
114.60652 83.932833 l
114.904131 83.845042 l
115.499352 83.384977 l
116.094573 82.938801 l
118.475459 81.452458 l
118.773069 81.164903 l
119.07068 81.074209 l
119.963512 80.22375 l
120.261123 79.834576 l
121.451565 79.305352 l
122.046787 79.308231 l
122.939619 78.961866 l
123.53484 78.871767 l
125.022893 77.315887 l
126.213336 76.137696 l
127.999 74.473894 l
128.891832 73.325297 l
130.082274 71.718005 l
130.975106 69.967603 l
131.867938 68.375832 l
132.76077 67.181591 l
133.058381 67.013882 l
133.653602 66.306201 l
133.951213 66.048895 l
134.248824 65.528152 l
134.546434 65.485531 l
135.439266 64.837352 l
135.736877 65.156824 l
136.332098 64.464138 l
136.629709 64.720098 l
136.92732 64.747154 l
137.22493 64.133254 l
137.522541 64.797778 l
137.820152 63.941959 l
138.117762 64.2398 l
138.415373 64.162822 l
138.712984 65.310823 l
139.308205 64.914883 l
139.605816 63.843615 l
139.903426 64.993121 l
140.201037 65.021195 l
140.498648 65.372471 l
140.796258 64.560742 l
141.093869 64.870499 l
141.39148 64.7378 l
141.68909 64.188359 l
141.986701 64.431421 l
143.177144 63.569785 l
143.474754 64.915914 l
143.772365 64.097809 l
144.069976 63.823663 l
144.367586 59.521352 l
144.665197 57.449763 l
144.962808 56.181687 l
145.85564 54.122862 l
148.236525 50.385425 l
148.534136 50.151259 l
149.129357 49.99242 l
150.022189 49.220565 l
151.807853 47.044295 l
153.295906 45.848777 l
155.08157 44.911083 l
156.272013 44.923129 l
157.462455 44.822497 l
159.248119 43.428201 l
160.438562 42.267676 l
161.629005 41.470922 l
162.224226 41.092284 l
163.712279 39.857388 l
165.200333 39.012222 l
166.093165 38.766322 l
168.47405 38.354352 l
169.366882 38.323245 l
169.664493 38.412466 l
170.557325 38.277056 l
171.152546 38.305254 l
175.914317 38.311382 l
177.40237 38.241235 l
178.295202 38.301069 l
178.592812 38.2813 l
178.592812 38.2813 l
stroke
grestore
0.604 setgray
gsave
133.6 125.9 44.97 31.73 clipbox
44.965625 151.955057 m
45.263236 148.308237 l
45.858457 144.576251 l
46.751289 141.009785 l
47.644121 138.564048 l
48.239342 137.178163 l
49.727396 134.723732 l
50.620228 133.64873 l
51.51306 132.708102 l
52.703502 130.944768 l
53.596334 129.964499 l
54.489166 129.325442 l
55.97722 128.762009 l
56.572441 128.035386 l
57.167662 126.938128 l
58.060494 125.766677 l
58.953326 125.527955 l
59.548547 125.554537 l
60.143769 125.31454 l
61.929433 124.591202 l
62.524654 124.431945 l
64.310318 123.292763 l
65.798371 121.610108 l
68.179257 118.459265 l
69.964921 115.687051 l
71.452974 113.802497 l
72.048195 113.143607 l
72.941027 111.719686 l
73.238638 111.675184 l
73.536249 111.281494 l
73.833859 111.590832 l
74.13147 111.292856 l
74.429081 111.62685 l
74.726691 110.503796 l
75.024302 110.697989 l
75.619523 110.196495 l
75.917134 110.276405 l
76.214745 109.376468 l
76.512355 109.835536 l
76.809966 108.263226 l
77.107577 111.039945 l
77.405187 109.377044 l
77.702798 108.935754 l
78.000409 109.303842 l
78.298019 110.463539 l
78.893241 110.301008 l
79.190851 110.215067 l
79.488462 111.299398 l
79.786073 111.194679 l
80.083683 110.642743 l
80.381294 109.153269 l
80.678905 111.385973 l
80.976515 111.037037 l
81.274126 110.398389 l
81.571736 111.913872 l
81.869347 110.14387 l
82.464568 108.915706 l
82.762179 110.166674 l
83.05979 109.953542 l
83.3574 109.145015 l
83.655011 110.308699 l
83.952622 108.604234 l
84.250232 110.276133 l
84.547843 109.347611 l
84.845454 109.398352 l
85.143064 107.907846 l
85.440675 108.696672 l
85.738286 109.862758 l
86.035896 109.499322 l
86.333507 110.307032 l
86.631118 107.468395 l
86.928728 108.513062 l
87.226339 108.106013 l
87.52395 109.371856 l
87.82156 109.357225 l
88.119171 107.683694 l
88.416782 111.141258 l
88.714392 111.343263 l
89.309614 108.619639 l
89.607224 108.384814 l
89.904835 111.232953 l
90.202446 108.002209 l
90.500056 110.120326 l
90.797667 110.724773 l
91.392888 111.300864 l
91.690499 110.341204 l
91.98811 111.320503 l
92.583331 109.514854 l
92.880942 111.228147 l
93.178552 109.772597 l
93.476163 109.838306 l
93.773774 110.802014 l
94.071384 109.067347 l
94.368995 109.321374 l
94.666606 108.707395 l
94.964216 108.96268 l
95.261827 107.652264 l
95.559438 108.065818 l
95.857048 106.303641 l
96.154659 107.657151 l
96.45227 110.246886 l
96.74988 107.280471 l
97.047491 107.432826 l
97.345102 107.229976 l
97.642712 109.627617 l
97.940323 108.884165 l
98.237934 109.917554 l
98.535544 109.437575 l
98.833155 109.548996 l
99.130766 107.849003 l
99.428376 109.093424 l
100.023598 107.081747 l
100.321208 107.00256 l
100.618819 107.642538 l
100.91643 110.258216 l
101.21404 107.261554 l
101.511651 107.360044 l
101.809262 110.561472 l
102.106872 108.420465 l
102.404483 107.555221 l
103.297315 108.181572 l
103.594926 110.988964 l
103.892536 108.642717 l
104.190147 108.759523 l
104.487758 110.407979 l
104.785368 110.237654 l
105.082979 107.859248 l
105.38059 109.888584 l
105.6782 110.521253 l
105.975811 108.612153 l
106.571032 109.231911 l
106.868643 111.878011 l
107.166253 109.239881 l
107.761475 108.164518 l
108.059085 109.049929 l
108.356696 108.394381 l
108.654307 110.034324 l
108.951917 108.571563 l
109.249528 109.434612 l
109.547139 108.53765 l
109.844749 109.017215 l
110.14236 109.712407 l
110.439971 110.018485 l
110.737581 108.467754 l
111.035192 108.965305 l
111.332803 110.088459 l
111.630413 109.007158 l
111.928024 108.800288 l
112.225635 108.32773 l
112.820856 108.476437 l
113.118467 108.271121 l
113.416077 108.672357 l
113.713688 109.789579 l
114.011299 112.153177 l
114.904131 102.099106 l
117.285016 96.446481 l
117.880237 95.739952 l
118.773069 94.71884 l
119.368291 93.943711 l
120.558733 93.133723 l
121.153955 92.34573 l
123.237229 89.13232 l
124.130061 88.589269 l
124.725283 88.471213 l
125.022893 88.244112 l
127.999 83.771555 l
129.784664 80.848469 l
130.379885 79.521003 l
131.272717 78.338449 l
131.570328 78.367315 l
131.867938 78.520486 l
132.46316 78.476895 l
132.76077 78.520079 l
134.546434 77.634328 l
135.141656 77.532659 l
135.736877 77.239445 l
137.22493 76.367205 l
137.522541 76.234246 l
138.117762 75.586757 l
139.308205 73.906162 l
139.903426 73.178639 l
140.498648 72.936587 l
141.39148 73.010174 l
141.68909 72.984238 l
141.986701 72.804638 l
144.367586 70.222779 l
144.962808 69.285764 l
145.260418 68.941359 l
145.558029 68.864159 l
146.450861 67.711595 l
147.046082 67.754081 l
147.641304 67.047372 l
147.938914 67.201644 l
148.236525 67.071044 l
148.534136 66.331741 l
148.831746 66.498823 l
149.129357 66.388764 l
149.426968 66.157857 l
149.724578 67.195241 l
150.022189 66.093468 l
150.3198 65.841462 l
150.61741 65.737418 l
150.915021 66.747289 l
151.510242 66.276379 l
151.807853 67.17692 l
152.105464 66.852902 l
152.403074 66.150452 l
152.700685 67.416103 l
152.998296 68.005005 l
153.295906 67.005201 l
153.593517 67.449577 l
153.891128 68.308041 l
154.188738 66.258237 l
155.08157 66.850983 l
155.379181 67.096264 l
155.676791 66.623374 l
155.974402 66.627069 l
156.272013 66.834113 l
156.867234 67.637213 l
157.164845 66.225478 l
157.462455 66.046391 l
157.760066 67.363453 l
158.057677 65.899048 l
158.355287 67.055972 l
158.950509 66.620025 l
159.248119 66.63893 l
159.54573 67.046552 l
159.843341 66.688536 l
160.140951 66.811665 l
160.438562 66.466196 l
160.736173 66.921473 l
161.033783 67.629909 l
161.331394 66.48754 l
161.629005 66.210304 l
161.926615 66.936929 l
162.224226 66.854122 l
162.521837 66.400527 l
162.819447 66.913186 l
163.117058 66.916292 l
163.414669 65.919084 l
163.712279 65.881407 l
164.00989 66.34213 l
164.307501 66.023743 l
164.902722 65.846324 l
165.200333 67.084235 l
165.497943 66.709584 l
165.795554 67.444645 l
166.390775 66.099979 l
166.688386 65.980468 l
166.985997 67.050082 l
167.283607 67.021351 l
167.581218 66.392273 l
167.878829 66.928467 l
168.176439 66.143611 l
168.47405 66.291971 l
168.771661 65.673047 l
169.069271 66.855027 l
169.366882 66.612869 l
169.664493 66.19619 l
169.962103 68.151737 l
170.259714 66.768198 l
170.557325 66.67949 l
170.854935 68.006891 l
171.152546 66.78059 l
171.450157 66.159456 l
171.747767 66.867834 l
172.045378 66.993978 l
172.342989 66.706449 l
172.640599 66.869287 l
172.93821 66.489703 l
173.235821 66.673809 l
173.533431 66.494581 l
173.831042 68.165431 l
174.128653 66.171423 l
174.426263 66.186396 l
174.723874 67.377257 l
175.021485 66.787124 l
175.319095 68.014085 l
175.616706 67.670773 l
175.914317 66.559114 l
176.211927 68.512731 l
176.509538 66.525404 l
176.807149 66.819953 l
177.40237 68.417444 l
177.699981 68.521692 l
177.997591 67.896598 l
178.295202 68.069993 l
178.592812 67.176293 l
178.592812 67.176293 l
stroke
grestore
0.800 setlinewidth
0 setlinecap
0.000 setgray
gsave
/o {
gsave
newpath
translate
0.8 setlinewidth
1 setlinejoin
0 setlinecap
0 0 m
0 -3.5 l

gsave
0.000 setgray
fill
grestore
stroke
grestore
} bind def
44.9656 31.7312 o
grestore
/DejaVuSans findfont
7.000 scalefont
setfont
gsave
42.739063 19.418750 translate
0.000000 rotate
0.000000 0 m /zero glyphshow
grestore
gsave
/o {
gsave
newpath
translate
0.8 setlinewidth
1 setlinejoin
0 setlinecap
0 0 m
0 -3.5 l

gsave
0.000 setgray
fill
grestore
stroke
grestore
} bind def
74.7267 31.7312 o
grestore
gsave
68.047004 19.418750 translate
0.000000 rotate
0.000000 0 m /one glyphshow
4.453613 0 m /zero glyphshow
8.907227 0 m /zero glyphshow
grestore
gsave
/o {
gsave
newpath
translate
0.8 setlinewidth
1 setlinejoin
0 setlinecap
0 0 m
0 -3.5 l

gsave
0.000 setgray
fill
grestore
stroke
grestore
} bind def
104.488 31.7312 o
grestore
gsave
97.808070 19.418750 translate
0.000000 rotate
0.000000 0 m /two glyphshow
4.453613 0 m /zero glyphshow
8.907227 0 m /zero glyphshow
grestore
gsave
/o {
gsave
newpath
translate
0.8 setlinewidth
1 setlinejoin
0 setlinecap
0 0 m
0 -3.5 l

gsave
0.000 setgray
fill
grestore
stroke
grestore
} bind def
134.249 31.7312 o
grestore
gsave
127.569136 19.418750 translate
0.000000 rotate
0.000000 0 m /three glyphshow
4.453613 0 m /zero glyphshow
8.907227 0 m /zero glyphshow
grestore
gsave
/o {
gsave
newpath
translate
0.8 setlinewidth
1 setlinejoin
0 setlinecap
0 0 m
0 -3.5 l

gsave
0.000 setgray
fill
grestore
stroke
grestore
} bind def
164.01 31.7312 o
grestore
gsave
157.330203 19.418750 translate
0.000000 rotate
0.000000 0 m /four glyphshow
4.453613 0 m /zero glyphshow
8.907227 0 m /zero glyphshow
grestore
gsave
84.927656 8.653125 translate
0.000000 rotate
0.000000 0 m /I glyphshow
2.064453 0 m /n glyphshow
6.500977 0 m /n glyphshow
10.937500 0 m /e glyphshow
15.244141 0 m /r glyphshow
18.122070 0 m /space glyphshow
20.347168 0 m /I glyphshow
22.411621 0 m /t glyphshow
25.156250 0 m /e glyphshow
29.462891 0 m /r glyphshow
32.340820 0 m /a glyphshow
36.630371 0 m /t glyphshow
39.375000 0 m /i glyphshow
41.319824 0 m /o glyphshow
45.602539 0 m /n glyphshow
50.039062 0 m /s glyphshow
grestore
gsave
/o {
gsave
newpath
translate
0.8 setlinewidth
1 setlinejoin
0 setlinecap
0 0 m
-3.5 0 l

gsave
0.000 setgray
fill
grestore
stroke
grestore
} bind def
44.9656 53.0012 o
grestore
gsave
17.965625 49.727742 translate
0.000000 rotate
/DejaVuSans findfont
7.0 scalefont
setfont
0.000000 0.678125 moveto
/one glyphshow
4.453613 0.678125 moveto
/zero glyphshow
/DejaVuSans findfont
4.8999999999999995 scalefont
setfont
8.974219 3.357812 moveto
/minus glyphshow
13.079883 3.357812 moveto
/one glyphshow
16.197412 3.357812 moveto
/six glyphshow

grestore
gsave
/o {
gsave
newpath
translate
0.8 setlinewidth
1 setlinejoin
0 setlinecap
0 0 m
-3.5 0 l

gsave
0.000 setgray
fill
grestore
stroke
grestore
} bind def
44.9656 75.9073 o
grestore
gsave
17.965625 72.633865 translate
0.000000 rotate
/DejaVuSans findfont
7.0 scalefont
setfont
0.000000 0.678125 moveto
/one glyphshow
4.453613 0.678125 moveto
/zero glyphshow
/DejaVuSans findfont
4.8999999999999995 scalefont
setfont
8.974219 3.357812 moveto
/minus glyphshow
13.079883 3.357812 moveto
/one glyphshow
16.197412 3.357812 moveto
/three glyphshow

grestore
gsave
/o {
gsave
newpath
translate
0.8 setlinewidth
1 setlinejoin
0 setlinecap
0 0 m
-3.5 0 l

gsave
0.000 setgray
fill
grestore
stroke
grestore
} bind def
44.9656 98.8134 o
grestore
gsave
17.965625 95.539988 translate
0.000000 rotate
/DejaVuSans findfont
7.0 scalefont
setfont
0.000000 0.678125 moveto
/one glyphshow
4.453613 0.678125 moveto
/zero glyphshow
/DejaVuSans findfont
4.8999999999999995 scalefont
setfont
8.974219 3.357812 moveto
/minus glyphshow
13.079883 3.357812 moveto
/one glyphshow
16.197412 3.357812 moveto
/zero glyphshow

grestore
gsave
/o {
gsave
newpath
translate
0.8 setlinewidth
1 setlinejoin
0 setlinecap
0 0 m
-3.5 0 l

gsave
0.000 setgray
fill
grestore
stroke
grestore
} bind def
44.9656 121.72 o
grestore
gsave
20.965625 118.446111 translate
0.000000 rotate
/DejaVuSans findfont
7.0 scalefont
setfont
0.000000 0.743750 moveto
/one glyphshow
4.453613 0.743750 moveto
/zero glyphshow
/DejaVuSans findfont
4.8999999999999995 scalefont
setfont
8.974219 3.423438 moveto
/minus glyphshow
13.079883 3.423438 moveto
/seven glyphshow

grestore
gsave
/o {
gsave
newpath
translate
0.8 setlinewidth
1 setlinejoin
0 setlinecap
0 0 m
-3.5 0 l

gsave
0.000 setgray
fill
grestore
stroke
grestore
} bind def
44.9656 144.626 o
grestore
gsave
20.965625 141.352234 translate
0.000000 rotate
/DejaVuSans findfont
7.0 scalefont
setfont
0.000000 0.743750 moveto
/one glyphshow
4.453613 0.743750 moveto
/zero glyphshow
/DejaVuSans findfont
4.8999999999999995 scalefont
setfont
8.974219 3.423438 moveto
/minus glyphshow
13.079883 3.423438 moveto
/four glyphshow

grestore
gsave
12.512500 47.674375 translate
90.000000 rotate
0.000000 0 m /N glyphshow
5.236328 0 m /o glyphshow
9.519043 0 m /r glyphshow
12.271973 0 m /m glyphshow
19.090820 0 m /w glyphshow
24.815918 0 m /i glyphshow
26.760742 0 m /s glyphshow
30.407715 0 m /e glyphshow
34.714355 0 m /space glyphshow
36.939453 0 m /B glyphshow
41.741699 0 m /a glyphshow
46.031250 0 m /c glyphshow
49.879883 0 m /k glyphshow
53.933594 0 m /w glyphshow
59.658691 0 m /a glyphshow
63.948242 0 m /r glyphshow
66.701172 0 m /d glyphshow
71.144531 0 m /s glyphshow
74.791504 0 m /space glyphshow
77.016602 0 m /E glyphshow
81.439453 0 m /r glyphshow
84.192383 0 m /r glyphshow
86.945312 0 m /o glyphshow
91.228027 0 m /r glyphshow
grestore
0 setlinejoin
2 setlinecap
[] 0 setdash
gsave
44.965625 31.73125 m
44.965625 157.68 l
stroke
grestore
gsave
178.592812 31.73125 m
178.592812 157.68 l
stroke
grestore
gsave
44.965625 31.73125 m
178.592812 31.73125 l
stroke
grestore
gsave
44.965625 157.68 m
178.592812 157.68 l
stroke
grestore
gsave
189.652813 31.73125 m
323.28 31.73125 l
323.28 157.68 l
189.652813 157.68 l
cl
1.000 setgray
fill
grestore
1.500 setlinewidth
1 setlinejoin
0 setlinecap
[] 0 setdash
gsave
133.6 125.9 189.7 31.73 clipbox
/o {
gsave
newpath
translate
1.5 setlinewidth
1 setlinejoin
0 setlinecap
0 -3 m
0 3 l

gsave
0.000 setgray
fill
grestore
stroke
grestore
} bind def
278.638 111.183 o
grestore
gsave
133.6 125.9 189.7 31.73 clipbox
/o {
gsave
newpath
translate
1.5 setlinewidth
1 setlinejoin
0 setlinecap
0 -3 m
0 3 l

gsave
0.000 setgray
fill
grestore
stroke
grestore
} bind def
278.638 46.0433 o
grestore
[9.6 2.4 1.5 2.4] 0 setdash
gsave
133.6 125.9 189.7 31.73 clipbox
189.652813 151.955057 m
189.950423 148.308237 l
190.545644 144.576251 l
191.438476 141.009785 l
192.331308 138.564048 l
192.92653 137.178163 l
194.414583 134.723752 l
195.307415 133.648757 l
196.200247 132.708066 l
197.39069 130.944768 l
198.283522 129.964554 l
199.176354 129.325415 l
200.664407 128.761922 l
201.259628 128.035352 l
201.85485 126.938148 l
202.747682 125.766579 l
203.640514 125.528124 l
204.235735 125.554933 l
204.830956 125.314585 l
206.61662 124.591188 l
207.211842 124.432501 l
208.997506 123.292454 l
210.485559 121.60943 l
212.866444 118.459761 l
215.247329 114.727816 l
217.330604 112.232173 l
217.628215 111.707065 l
217.925825 111.435209 l
218.223436 110.936579 l
218.521047 111.020865 l
218.818657 110.493285 l
219.116268 110.475897 l
219.413879 109.726024 l
219.711489 109.630451 l
220.0091 108.835799 l
220.306711 108.452422 l
220.604321 108.435617 l
220.901932 107.762563 l
221.199543 107.490703 l
221.497153 108.248959 l
221.794764 108.575757 l
222.092375 108.487878 l
222.389985 107.377306 l
222.687596 107.296097 l
223.282817 108.346437 l
223.580428 108.195661 l
223.878039 107.416916 l
224.175649 107.729893 l
224.47326 109.069093 l
224.770871 107.412158 l
225.068481 107.290699 l
225.366092 108.059132 l
225.663703 107.949274 l
225.961313 108.062497 l
226.258924 107.775679 l
226.556535 109.607454 l
226.854145 107.502935 l
227.151756 107.010827 l
227.449367 106.274132 l
227.746977 106.392496 l
228.044588 108.000839 l
228.342199 106.828592 l
228.639809 106.756337 l
228.93742 107.361378 l
229.235031 109.001374 l
229.830252 106.887301 l
230.127863 107.164088 l
230.425473 106.910664 l
230.723084 107.088316 l
231.020695 110.078586 l
231.318305 106.46174 l
231.615916 108.188957 l
231.913527 106.942104 l
232.508748 110.28431 l
232.806359 109.347403 l
233.103969 106.781447 l
233.40158 107.822924 l
233.699191 107.311037 l
233.996801 109.913708 l
234.294412 109.724938 l
234.592023 107.581175 l
234.889633 109.313989 l
235.187244 106.860318 l
235.484855 108.731188 l
235.782465 106.863773 l
236.080076 107.432358 l
236.377687 106.828385 l
236.675297 109.030501 l
236.972908 108.318724 l
237.270519 106.447868 l
237.568129 107.338789 l
237.86574 106.568189 l
238.163351 107.276753 l
238.460961 109.075977 l
238.758572 107.39859 l
239.056182 107.780653 l
239.353793 108.527744 l
239.651404 108.96327 l
239.949014 106.876797 l
240.246625 106.479266 l
240.841846 109.893868 l
241.139457 106.08795 l
241.437068 108.716561 l
241.734678 109.775164 l
242.3299 106.803957 l
242.62751 109.900525 l
242.925121 107.814807 l
243.222732 106.850433 l
243.520342 109.046961 l
243.817953 110.239261 l
244.115564 107.798536 l
244.413174 107.516493 l
244.710785 110.43719 l
245.008396 110.494969 l
245.306006 112.845152 l
245.603617 109.181156 l
245.901228 108.88787 l
246.198838 110.134368 l
246.496449 110.405285 l
247.09167 107.21493 l
247.389281 108.670186 l
247.686892 109.132388 l
247.984502 112.032144 l
248.282113 111.38521 l
248.579724 108.431808 l
248.877334 110.274031 l
249.174945 108.163233 l
249.472556 109.590578 l
250.067777 108.564318 l
250.365388 110.048173 l
250.662998 109.53697 l
250.960609 108.385295 l
251.25822 109.15982 l
251.55583 109.316462 l
251.853441 107.581034 l
252.151052 108.043794 l
252.746273 107.844892 l
253.043884 107.294659 l
253.341494 109.579064 l
253.936716 107.439228 l
254.234326 107.472123 l
254.531937 109.470119 l
254.829548 108.260769 l
255.127158 109.224453 l
255.424769 108.445946 l
255.72238 109.451227 l
256.615212 107.846916 l
256.912822 109.225243 l
257.210433 108.430459 l
257.508044 108.401823 l
257.805654 107.881861 l
258.103265 109.047385 l
258.400876 107.495374 l
258.698486 107.756957 l
258.996097 109.271697 l
259.293708 109.595216 l
259.591318 107.798469 l
259.888929 107.659269 l
260.18654 109.308534 l
260.48415 110.242928 l
260.781761 108.053189 l
261.079372 107.749193 l
261.376982 110.050054 l
261.674593 109.438787 l
261.972204 112.123841 l
262.269814 110.567635 l
262.567425 107.798447 l
262.865035 111.552803 l
263.162646 107.752037 l
263.460257 108.654775 l
263.757867 111.005595 l
264.055478 108.085956 l
264.353089 109.93796 l
264.650699 108.822989 l
264.94831 108.351822 l
265.543531 110.806089 l
265.841142 111.236164 l
266.138753 108.626146 l
266.436363 107.903872 l
267.031585 108.480537 l
267.329195 110.397089 l
267.626806 110.776847 l
267.924417 110.745621 l
268.222027 111.955365 l
268.519638 108.399522 l
268.817249 110.598735 l
269.114859 108.224068 l
269.41247 110.481896 l
269.710081 107.680905 l
270.007691 110.026352 l
270.305302 109.977998 l
270.602913 111.947088 l
270.900523 108.42394 l
271.198134 108.204655 l
271.793355 108.408569 l
272.090966 108.977593 l
272.388577 108.494397 l
272.686187 109.197118 l
273.281409 108.105289 l
273.579019 107.864272 l
273.87663 108.977639 l
274.174241 108.268153 l
274.471851 110.337552 l
274.769462 109.459476 l
275.067073 109.497736 l
275.364683 111.822689 l
275.662294 108.338213 l
275.959905 110.445794 l
276.257515 108.690723 l
276.555126 109.509048 l
276.852737 108.111501 l
277.447958 109.136489 l
278.043179 108.666756 l
278.638401 111.182665 l
278.936011 105.348113 l
279.233622 104.706563 l
279.828843 104.522442 l
280.424065 104.505331 l
286.673889 104.492316 l
287.56672 104.505945 l
310.185131 104.527797 l
323.28 104.530902 l
323.28 104.530902 l
stroke
grestore
[5.55 2.4] 0 setdash
gsave
133.6 125.9 189.7 31.73 clipbox
189.652813 151.955057 m
189.950423 148.308237 l
190.545644 144.576248 l
191.438476 141.009785 l
192.331308 138.564048 l
192.92653 137.178163 l
194.414583 134.723739 l
195.307415 133.648748 l
196.200247 132.708078 l
197.39069 130.944747 l
198.283522 129.964499 l
199.176354 129.325442 l
200.664407 128.76199 l
201.259628 128.035312 l
201.85485 126.938196 l
202.747682 125.76701 l
203.640514 125.528281 l
204.235735 125.555111 l
204.830956 125.31482 l
206.61662 124.590881 l
207.211842 124.431915 l
208.997506 123.291876 l
210.485559 121.609464 l
212.866444 118.459185 l
214.652108 115.680398 l
215.54494 114.34263 l
216.140161 113.76102 l
216.735383 113.074429 l
218.818657 109.986201 l
220.0091 108.206998 l
221.794764 105.581563 l
224.47326 103.44682 l
225.068481 102.719887 l
225.961313 101.126015 l
226.854145 99.207235 l
227.746977 97.25268 l
228.342199 95.680661 l
229.235031 94.131579 l
231.615916 90.546815 l
233.40158 86.647882 l
234.294412 85.40875 l
235.187244 84.285909 l
237.270519 80.141803 l
239.353793 75.524358 l
240.544236 72.633964 l
242.032289 69.066414 l
243.520342 66.665772 l
246.198838 60.997783 l
247.389281 57.768721 l
248.579724 54.776001 l
249.770166 52.323461 l
250.662998 50.928261 l
252.151052 48.025422 l
252.448662 47.671669 l
252.746273 47.066349 l
253.043884 46.759851 l
253.341494 46.276722 l
253.639105 46.123872 l
253.936716 46.13864 l
254.234326 45.583088 l
254.531937 46.216465 l
254.829548 45.944696 l
255.127158 46.002093 l
255.72238 45.860995 l
256.01999 45.615723 l
256.317601 45.784141 l
256.615212 45.473916 l
256.912822 45.881353 l
257.210433 45.745095 l
257.508044 45.946645 l
257.805654 45.396502 l
258.103265 45.871005 l
258.400876 46.045491 l
258.996097 45.941408 l
259.293708 46.284472 l
259.591318 45.956205 l
259.888929 46.431311 l
260.18654 46.566385 l
260.48415 46.543449 l
260.781761 45.997163 l
261.079372 46.337535 l
261.972204 46.014823 l
262.269814 46.551901 l
262.567425 46.187889 l
262.865035 46.057195 l
263.162646 46.569938 l
263.757867 46.128854 l
264.055478 46.094669 l
264.353089 45.636447 l
264.650699 46.650006 l
264.94831 46.136538 l
265.245921 46.186906 l
265.543531 46.571068 l
265.841142 45.550819 l
266.436363 45.908801 l
266.733974 46.533951 l
267.031585 45.2078 l
267.329195 46.142604 l
267.626806 46.371792 l
267.924417 46.135513 l
268.222027 46.355298 l
268.519638 46.168631 l
268.817249 46.830911 l
269.114859 46.059536 l
269.41247 45.920015 l
269.710081 45.928225 l
270.007691 45.559713 l
270.305302 45.839448 l
270.602913 46.321268 l
270.900523 45.543441 l
271.198134 46.010976 l
271.495745 45.967841 l
271.793355 46.438133 l
272.388577 45.300708 l
272.686187 45.959118 l
273.87663 45.744237 l
274.174241 46.226994 l
274.471851 45.685199 l
274.769462 45.789428 l
275.067073 45.497997 l
275.364683 45.667262 l
275.662294 45.599384 l
275.959905 45.769494 l
276.257515 45.208927 l
276.555126 45.736477 l
276.852737 45.871802 l
277.150347 45.752776 l
277.447958 45.489957 l
277.745569 46.331023 l
278.043179 45.740182 l
278.638401 46.043302 l
278.936011 39.074158 l
279.233622 37.985419 l
280.721675 37.836937 l
283.102561 37.885011 l
283.697782 37.827643 l
284.888225 37.836294 l
305.12575 37.886214 l
323.28 37.88966 l
323.28 37.88966 l
stroke
grestore
[] 0 setdash
gsave
133.6 125.9 189.7 31.73 clipbox
/o {
gsave
newpath
translate
1.5 setlinewidth
1 setlinejoin
0 setlinecap
0 -3 m
0 3 l

gsave
0.000 setgray
fill
grestore
stroke
grestore
} bind def
212.866 118.459 o
236.378 96.082 o
260.782 73.7623 o
285.186 49.8152 o
309.888 38.307 o
grestore
0.149 setgray
gsave
133.6 125.9 189.7 31.73 clipbox
/o {
gsave
newpath
translate
1.5 setlinewidth
1 setlinejoin
0 setlinecap
0 -3 m
0 3 l

gsave
0.149 setgray
fill
grestore
stroke
grestore
} bind def
218.521 111.591 o
247.389 81.5272 o
278.638 49.3678 o
308.102 38.3164 o
grestore
0.298 setgray
gsave
133.6 125.9 189.7 31.73 clipbox
/o {
gsave
newpath
translate
1.5 setlinewidth
1 setlinejoin
0 setlinecap
0 -3 m
0 3 l

gsave
0.298 setgray
fill
grestore
stroke
grestore
} bind def
223.58 110.301 o
255.425 71.7217 o
287.269 39.0949 o
320.304 38.0035 o
grestore
0.451 setgray
gsave
133.6 125.9 189.7 31.73 clipbox
/o {
gsave
newpath
translate
1.5 setlinewidth
1 setlinejoin
0 setlinecap
0 -3 m
0 3 l

gsave
0.451 setgray
fill
grestore
stroke
grestore
} bind def
225.961 110.398 o
263.163 68.2546 o
298.281 38.3952 o
grestore
0.604 setgray
gsave
133.6 125.9 189.7 31.73 clipbox
/o {
gsave
newpath
translate
1.5 setlinewidth
1 setlinejoin
0 setlinecap
0 -3 m
0 3 l

gsave
0.604 setgray
fill
grestore
stroke
grestore
} bind def
235.782 110.954 o
281.912 67.7739 o
grestore
2 setlinecap
0.000 setgray
gsave
133.6 125.9 189.7 31.73 clipbox
189.652813 151.955057 m
189.950423 148.308237 l
190.545644 144.576251 l
191.438476 141.009785 l
192.331308 138.564048 l
192.92653 137.178163 l
194.414583 134.723732 l
195.307415 133.64873 l
196.200247 132.708102 l
197.39069 130.944768 l
198.283522 129.964499 l
199.176354 129.325442 l
200.664407 128.762009 l
201.259628 128.035386 l
201.85485 126.938128 l
202.747682 125.766677 l
203.640514 125.527955 l
204.235735 125.554537 l
204.830956 125.31454 l
206.61662 124.591202 l
207.211842 124.431945 l
208.997506 123.292763 l
210.485559 121.610108 l
212.866444 118.459265 l
213.759276 117.114986 l
214.652108 116.480459 l
215.842551 115.337275 l
216.437772 114.740328 l
221.497153 108.289978 l
222.389985 107.645105 l
222.985207 107.220321 l
223.878039 106.738791 l
224.47326 106.674241 l
225.068481 106.528901 l
225.663703 106.047635 l
226.854145 104.603128 l
227.449367 104.38029 l
228.342199 104.506493 l
228.639809 104.583085 l
229.235031 104.388503 l
229.830252 104.015144 l
230.425473 103.27661 l
231.318305 102.299806 l
232.508748 101.44386 l
233.699191 100.740606 l
234.294412 100.077552 l
235.187244 98.573523 l
236.080076 96.826153 l
236.972908 94.555101 l
237.270519 94.387759 l
237.568129 93.890901 l
239.353793 92.438008 l
241.734678 89.839563 l
242.62751 89.129461 l
243.520342 88.208643 l
244.115564 87.381846 l
245.008396 86.006335 l
245.901228 84.951153 l
246.496449 84.16992 l
247.686892 82.46137 l
250.067777 80.056517 l
250.662998 79.763421 l
251.25822 79.70522 l
252.448662 80.193871 l
253.341494 80.103117 l
254.829548 78.945458 l
255.424769 78.17262 l
256.01999 77.366627 l
256.912822 76.661752 l
257.805654 76.287332 l
258.400876 75.870239 l
258.698486 75.753315 l
259.293708 75.21198 l
260.18654 74.098476 l
261.079372 73.334718 l
261.376982 72.261653 l
261.972204 71.392631 l
262.269814 71.188909 l
262.865035 70.527401 l
263.460257 70.117956 l
264.650699 68.667004 l
267.031585 65.40077 l
267.329195 65.029422 l
270.007691 63.343458 l
270.602913 62.702541 l
272.686187 60.007319 l
273.281409 59.409498 l
273.579019 59.176549 l
275.364683 58.736007 l
276.555126 58.818681 l
277.150347 58.945385 l
277.447958 58.850228 l
278.638401 57.87434 l
280.126454 56.243402 l
281.019286 54.817313 l
281.614507 53.723596 l
282.209729 52.865365 l
282.80495 52.098112 l
283.400171 51.281449 l
283.995393 50.829607 l
285.185835 49.815195 l
285.781057 49.092615 l
287.26911 47.844934 l
287.56672 47.889274 l
288.459552 47.259212 l
289.947606 45.664202 l
291.138048 44.612117 l
293.221323 42.660069 l
295.304598 40.031311 l
296.49504 39.089468 l
297.685483 38.651762 l
297.983094 38.58627 l
298.280704 38.656104 l
299.471147 38.536795 l
299.768758 38.580783 l
300.066368 38.485911 l
300.363979 38.5886 l
300.66159 38.497798 l
301.256811 38.58773 l
303.042475 38.507754 l
304.828139 38.467297 l
305.42336 38.412925 l
306.613803 38.402246 l
310.185131 38.329561 l
311.375573 38.345383 l
311.673184 37.64038 l
312.863627 37.499666 l
313.458848 37.604602 l
314.35168 37.67926 l
319.113451 37.743404 l
322.089557 37.767921 l
322.982389 37.775192 l
323.28 37.766544 l
323.28 37.766544 l
stroke
grestore
0.149 setgray
gsave
133.6 125.9 189.7 31.73 clipbox
189.652813 151.955057 m
189.950423 148.308237 l
190.545644 144.576251 l
191.438476 141.009785 l
192.331308 138.564048 l
192.92653 137.178163 l
194.414583 134.723732 l
195.307415 133.64873 l
196.200247 132.708102 l
197.39069 130.944768 l
198.283522 129.964499 l
199.176354 129.325442 l
200.664407 128.762009 l
201.259628 128.035386 l
201.85485 126.938128 l
202.747682 125.766677 l
203.640514 125.527955 l
204.235735 125.554537 l
204.830956 125.31454 l
206.61662 124.591202 l
207.211842 124.431945 l
208.997506 123.292763 l
210.485559 121.610108 l
212.866444 118.459265 l
214.652108 115.687051 l
216.140161 113.802497 l
216.735383 113.143607 l
217.628215 111.719686 l
217.925825 111.675184 l
218.223436 111.281494 l
218.521047 111.590832 l
218.818657 111.292856 l
219.116268 109.164736 l
219.711489 108.640646 l
222.687596 105.462403 l
222.985207 105.403647 l
223.878039 104.621947 l
225.366092 102.772705 l
227.151756 100.171472 l
227.746977 99.307301 l
228.342199 98.399234 l
228.93742 97.736678 l
230.425473 95.703263 l
231.318305 94.194981 l
231.913527 93.303489 l
232.508748 92.558238 l
233.40158 92.3228 l
233.996801 92.001041 l
234.294412 92.067254 l
234.592023 91.780059 l
235.187244 91.744247 l
235.484855 91.957026 l
235.782465 91.99796 l
236.080076 92.223489 l
236.377687 92.293794 l
236.972908 92.094958 l
237.86574 91.405846 l
239.353793 90.002098 l
240.841846 88.482894 l
243.520342 84.905651 l
244.115564 84.597126 l
246.496449 83.186744 l
247.09167 82.292264 l
248.282113 79.323451 l
248.877334 79.0282 l
249.472556 78.394147 l
250.960609 76.312459 l
253.341494 73.846895 l
253.936716 72.748989 l
254.829548 71.0929 l
255.424769 70.33692 l
256.615212 69.957167 l
257.210433 69.720943 l
257.805654 69.247317 l
259.888929 66.853049 l
260.781761 65.719159 l
262.567425 63.283896 l
262.865035 63.287312 l
263.162646 63.151785 l
263.460257 63.156395 l
265.245921 62.523509 l
265.543531 62.515278 l
266.138753 62.295919 l
266.733974 61.999638 l
267.924417 61.189725 l
268.222027 61.276507 l
268.817249 61.144258 l
269.41247 60.588975 l
271.495745 57.255741 l
272.090966 56.332174 l
273.87663 53.635332 l
274.769462 52.733494 l
276.257515 51.244094 l
276.555126 50.957286 l
276.852737 50.833881 l
277.150347 51.063997 l
277.447958 50.514688 l
278.34079 49.765349 l
279.531233 48.34386 l
279.828843 47.271497 l
281.019286 46.080906 l
282.80495 43.558558 l
285.483446 40.639615 l
286.971499 39.728522 l
287.56672 39.35867 l
287.864331 39.238321 l
288.161942 39.260803 l
288.459552 39.093054 l
288.757163 39.072897 l
289.649995 38.681839 l
292.626102 38.337247 l
292.923712 38.387156 l
293.518934 38.306731 l
296.49504 38.367211 l
297.090262 38.320498 l
301.256811 38.293354 l
302.744864 38.332881 l
303.637696 38.320498 l
309.292299 38.292039 l
309.58991 37.53093 l
310.185131 37.490386 l
310.482742 37.630409 l
312.268405 37.615482 l
314.35168 37.748256 l
315.244512 37.666659 l
316.137344 37.774047 l
320.303893 37.762835 l
321.196725 37.782186 l
323.28 37.762179 l
323.28 37.762179 l
stroke
grestore
0.298 setgray
gsave
133.6 125.9 189.7 31.73 clipbox
189.652813 151.955057 m
189.950423 148.308237 l
190.545644 144.576251 l
191.438476 141.009785 l
192.331308 138.564048 l
192.92653 137.178163 l
194.414583 134.723732 l
195.307415 133.64873 l
196.200247 132.708102 l
197.39069 130.944768 l
198.283522 129.964499 l
199.176354 129.325442 l
200.664407 128.762009 l
201.259628 128.035386 l
201.85485 126.938128 l
202.747682 125.766677 l
203.640514 125.527955 l
204.235735 125.554537 l
204.830956 125.31454 l
206.61662 124.591202 l
207.211842 124.431945 l
208.997506 123.292763 l
210.485559 121.610108 l
212.866444 118.459265 l
214.652108 115.687051 l
216.140161 113.802497 l
216.735383 113.143607 l
217.628215 111.719686 l
217.925825 111.675184 l
218.223436 111.281494 l
218.521047 111.590832 l
218.818657 111.292856 l
219.116268 111.62685 l
219.413879 110.503796 l
219.711489 110.697989 l
220.306711 110.196495 l
220.604321 110.276405 l
220.901932 109.376468 l
221.199543 109.835536 l
221.497153 108.263226 l
221.794764 111.039945 l
222.092375 109.377044 l
222.389985 108.935754 l
222.687596 109.303842 l
222.985207 110.463539 l
223.580428 110.301008 l
223.878039 110.215067 l
224.175649 103.878332 l
224.47326 103.582502 l
225.068481 102.783699 l
227.746977 101.133469 l
229.532641 98.959417 l
230.425473 97.310995 l
231.020695 96.076045 l
231.615916 95.342516 l
233.996801 92.816503 l
235.782465 90.724222 l
236.675297 90.138765 l
237.568129 89.341208 l
237.86574 89.159506 l
238.460961 89.349898 l
239.353793 89.362059 l
239.949014 89.473968 l
240.246625 89.409075 l
240.544236 89.499878 l
240.841846 89.281942 l
241.437068 89.054179 l
242.925121 88.086415 l
243.817953 87.168055 l
244.710785 85.481427 l
245.603617 84.299424 l
247.09167 82.395099 l
247.686892 81.317017 l
249.174945 78.267639 l
250.067777 76.703719 l
250.365388 76.278983 l
250.662998 76.141407 l
251.25822 75.368035 l
251.853441 74.958946 l
252.151052 74.065118 l
252.448662 73.763457 l
252.746273 73.624388 l
254.234326 71.961237 l
254.531937 72.684433 l
254.829548 71.889006 l
255.127158 72.738262 l
255.424769 71.721651 l
255.72238 72.519267 l
256.01999 72.096856 l
256.317601 68.060952 l
256.615212 67.345629 l
256.912822 67.076702 l
257.210433 67.008222 l
257.508044 66.754487 l
257.805654 66.724678 l
258.400876 66.304875 l
258.698486 66.182531 l
258.996097 65.91876 l
259.591318 65.655218 l
261.079372 64.530844 l
261.972204 63.286253 l
263.757867 59.669349 l
266.138753 55.657598 l
267.924417 53.428273 l
268.817249 52.496112 l
270.007691 50.949058 l
270.602913 50.315122 l
271.198134 49.510462 l
273.87663 46.434555 l
275.959905 43.879102 l
277.745569 41.941135 l
278.043179 41.457575 l
278.34079 41.334718 l
278.638401 40.734681 l
278.936011 40.399773 l
279.233622 40.296155 l
279.531233 40.05584 l
279.828843 39.558146 l
280.126454 39.466446 l
280.424065 39.643711 l
280.721675 39.389254 l
281.019286 39.449804 l
281.316897 39.312733 l
281.912118 39.443955 l
282.209729 39.331282 l
282.507339 39.071415 l
282.80495 39.371228 l
283.400171 39.100345 l
283.697782 39.499364 l
283.995393 39.025039 l
284.590614 39.321364 l
284.888225 39.072742 l
285.185835 39.141551 l
285.483446 39.397407 l
285.781057 39.179746 l
286.078667 39.235036 l
286.376278 39.044417 l
286.971499 39.305172 l
287.26911 39.0949 l
287.864331 39.230124 l
288.161942 39.236658 l
288.459552 37.927121 l
289.054774 37.799866 l
290.245216 37.903632 l
290.840438 37.896606 l
292.03088 37.9172 l
292.626102 37.928371 l
292.923712 38.024309 l
293.221323 37.940439 l
293.518934 38.015101 l
294.114155 37.96716 l
296.19743 37.89004 l
313.161237 37.992014 l
318.518229 37.991646 l
321.494336 37.997832 l
321.791947 37.468941 l
322.387168 37.488567 l
322.684779 37.592795 l
323.28 37.542777 l
323.28 37.542777 l
stroke
grestore
0.451 setgray
gsave
133.6 125.9 189.7 31.73 clipbox
189.652813 151.955057 m
189.950423 148.308237 l
190.545644 144.576251 l
191.438476 141.009785 l
192.331308 138.564048 l
192.92653 137.178163 l
194.414583 134.723732 l
195.307415 133.64873 l
196.200247 132.708102 l
197.39069 130.944768 l
198.283522 129.964499 l
199.176354 129.325442 l
200.664407 128.762009 l
201.259628 128.035386 l
201.85485 126.938128 l
202.747682 125.766677 l
203.640514 125.527955 l
204.235735 125.554537 l
204.830956 125.31454 l
206.61662 124.591202 l
207.211842 124.431945 l
208.997506 123.292763 l
210.485559 121.610108 l
212.866444 118.459265 l
214.652108 115.687051 l
216.140161 113.802497 l
216.735383 113.143607 l
217.628215 111.719686 l
217.925825 111.675184 l
218.223436 111.281494 l
218.521047 111.590832 l
218.818657 111.292856 l
219.116268 111.62685 l
219.413879 110.503796 l
219.711489 110.697989 l
220.306711 110.196495 l
220.604321 110.276405 l
220.901932 109.376468 l
221.199543 109.835536 l
221.497153 108.263226 l
221.794764 111.039945 l
222.092375 109.377044 l
222.389985 108.935754 l
222.687596 109.303842 l
222.985207 110.463539 l
223.580428 110.301008 l
223.878039 110.215067 l
224.175649 111.299398 l
224.47326 111.194679 l
224.770871 110.642743 l
225.068481 109.153269 l
225.366092 111.385973 l
225.663703 111.037037 l
225.961313 110.398389 l
226.258924 111.913872 l
226.556535 104.015144 l
226.854145 101.485553 l
227.746977 99.744136 l
228.044588 99.330732 l
229.235031 96.931958 l
229.830252 95.911328 l
230.127863 95.929252 l
230.425473 95.597272 l
231.020695 95.396105 l
231.913527 94.798926 l
233.996801 92.376645 l
234.592023 91.884481 l
235.187244 91.648473 l
235.782465 91.514236 l
236.675297 90.696693 l
237.270519 90.101735 l
238.163351 89.492433 l
238.758572 89.278533 l
239.353793 89.093831 l
240.246625 88.833623 l
240.544236 88.700223 l
242.032289 88.662118 l
242.3299 88.526513 l
242.925121 87.697958 l
243.520342 87.161191 l
244.413174 86.061711 l
246.198838 82.710538 l
248.579724 79.778499 l
249.174945 78.974119 l
250.662998 77.431294 l
251.25822 76.680452 l
251.853441 76.100241 l
252.151052 75.882513 l
252.746273 75.054982 l
254.234326 73.050781 l
255.424769 71.737338 l
256.912822 70.142003 l
258.103265 69.298027 l
258.400876 69.63332 l
258.698486 69.585178 l
259.293708 68.891945 l
259.591318 69.029995 l
259.888929 68.724693 l
260.18654 69.234468 l
260.48415 68.807202 l
260.781761 68.977768 l
261.079372 68.830679 l
261.376982 68.959924 l
261.674593 68.315119 l
261.972204 68.808979 l
262.865035 68.313449 l
263.460257 68.281299 l
263.757867 68.438545 l
264.353089 62.753911 l
265.841142 58.412833 l
266.436363 57.685194 l
266.733974 57.710053 l
267.329195 57.378503 l
267.924417 57.034198 l
268.519638 56.51916 l
270.305302 53.77115 l
270.900523 53.286793 l
271.793355 52.793026 l
272.388577 52.396035 l
272.983798 52.213125 l
273.87663 52.277688 l
275.959905 51.67565 l
276.555126 51.03715 l
276.852737 50.647418 l
277.447958 50.155971 l
279.233622 47.705082 l
280.126454 46.806885 l
281.316897 44.807219 l
281.912118 44.330282 l
284.293003 43.180834 l
285.185835 42.458317 l
286.376278 40.900769 l
286.971499 40.214987 l
287.864331 39.458736 l
288.459552 39.078401 l
289.352384 38.624803 l
289.947606 38.579449 l
290.840438 38.405061 l
291.138048 38.463657 l
291.435659 38.371423 l
292.626102 38.368935 l
295.006987 38.385768 l
295.304598 38.45394 l
296.19743 38.377103 l
297.983094 38.373226 l
299.173536 38.382474 l
299.471147 37.552347 l
300.066368 37.589648 l
301.852032 37.628515 l
303.340086 37.604475 l
303.935307 37.698199 l
304.828139 37.677192 l
323.28 37.69691 l
323.28 37.69691 l
stroke
grestore
0.604 setgray
gsave
133.6 125.9 189.7 31.73 clipbox
189.652813 151.955057 m
189.950423 148.308237 l
190.545644 144.576251 l
191.438476 141.009785 l
192.331308 138.564048 l
192.92653 137.178163 l
194.414583 134.723732 l
195.307415 133.64873 l
196.200247 132.708102 l
197.39069 130.944768 l
198.283522 129.964499 l
199.176354 129.325442 l
200.664407 128.762009 l
201.259628 128.035386 l
201.85485 126.938128 l
202.747682 125.766677 l
203.640514 125.527955 l
204.235735 125.554537 l
204.830956 125.31454 l
206.61662 124.591202 l
207.211842 124.431945 l
208.997506 123.292763 l
210.485559 121.610108 l
212.866444 118.459265 l
214.652108 115.687051 l
216.140161 113.802497 l
216.735383 113.143607 l
217.628215 111.719686 l
217.925825 111.675184 l
218.223436 111.281494 l
218.521047 111.590832 l
218.818657 111.292856 l
219.116268 111.62685 l
219.413879 110.503796 l
219.711489 110.697989 l
220.306711 110.196495 l
220.604321 110.276405 l
220.901932 109.376468 l
221.199543 109.835536 l
221.497153 108.263226 l
221.794764 111.039945 l
222.092375 109.377044 l
222.389985 108.935754 l
222.687596 109.303842 l
222.985207 110.463539 l
223.580428 110.301008 l
223.878039 110.215067 l
224.175649 111.299398 l
224.47326 111.194679 l
224.770871 110.642743 l
225.068481 109.153269 l
225.366092 111.385973 l
225.663703 111.037037 l
225.961313 110.398389 l
226.258924 111.913872 l
226.556535 110.14387 l
227.151756 108.915706 l
227.449367 110.166674 l
227.746977 109.953542 l
228.044588 109.145015 l
228.342199 110.308699 l
228.639809 108.604234 l
228.93742 110.276133 l
229.235031 109.347611 l
229.532641 109.398352 l
229.830252 107.907846 l
230.127863 108.696672 l
230.425473 109.862758 l
230.723084 109.499322 l
231.020695 110.307032 l
231.318305 107.468395 l
231.615916 108.513062 l
231.913527 108.106013 l
232.211137 109.371856 l
232.508748 109.357225 l
232.806359 107.683694 l
233.103969 111.141258 l
233.40158 111.343263 l
233.996801 108.619639 l
234.294412 108.384814 l
234.592023 111.232953 l
234.889633 108.002209 l
235.187244 110.120326 l
235.484855 110.724773 l
236.080076 111.300864 l
236.377687 103.707419 l
236.972908 99.689287 l
237.86574 97.249727 l
238.460961 96.225411 l
239.353793 95.577446 l
239.651404 95.095307 l
239.949014 94.973763 l
240.246625 94.39664 l
240.841846 93.872854 l
243.222732 91.398097 l
245.306006 90.738927 l
245.603617 90.691394 l
247.389281 89.432397 l
248.877334 88.825078 l
249.770166 88.448806 l
250.365388 88.075961 l
251.853441 87.260313 l
252.151052 87.17844 l
252.448662 86.899244 l
253.341494 85.684668 l
255.72238 82.654787 l
256.317601 81.868593 l
257.805654 79.816846 l
258.996097 77.78275 l
260.18654 75.664864 l
261.376982 74.52876 l
261.972204 73.583214 l
262.567425 73.15743 l
263.162646 72.577333 l
263.460257 72.353487 l
264.353089 71.19144 l
265.245921 70.304976 l
267.031585 69.039216 l
267.626806 68.362823 l
267.924417 68.539329 l
268.817249 68.208997 l
269.114859 68.805762 l
269.41247 69.143076 l
269.710081 68.235207 l
270.007691 68.30108 l
270.305302 68.141036 l
270.602913 68.457694 l
270.900523 67.793334 l
271.495745 67.988865 l
271.793355 67.757185 l
272.090966 68.206536 l
272.388577 68.257382 l
272.686187 67.634148 l
272.983798 67.787901 l
273.579019 67.568089 l
273.87663 67.70295 l
274.174241 67.421421 l
274.471851 68.210089 l
275.364683 67.924888 l
275.662294 67.983841 l
275.959905 67.813884 l
276.257515 67.828225 l
276.555126 68.049362 l
276.852737 67.543752 l
277.150347 67.975871 l
277.447958 68.198392 l
277.745569 68.151932 l
278.043179 67.7988 l
278.34079 67.948171 l
278.638401 67.586321 l
279.531233 67.969734 l
279.828843 67.780483 l
280.126454 68.11092 l
280.424065 68.02145 l
280.721675 68.173434 l
281.019286 68.138959 l
281.316897 67.786105 l
281.614507 68.107078 l
282.209729 67.576185 l
282.507339 67.847072 l
283.102561 61.103175 l
284.590614 56.555177 l
286.078667 53.464486 l
286.376278 52.482906 l
286.673889 52.112796 l
288.459552 48.764521 l
289.947606 46.816962 l
291.73327 44.33476 l
292.328491 44.186447 l
292.923712 44.012658 l
293.816544 43.910365 l
294.709376 43.878302 l
295.304598 43.675939 l
296.49504 42.979455 l
297.685483 42.414429 l
299.768758 41.004519 l
300.66159 40.977938 l
300.9592 40.944972 l
302.447254 39.878482 l
303.042475 39.332735 l
303.637696 38.845747 l
304.232918 38.604612 l
308.399467 38.350063 l
308.697078 38.48356 l
309.292299 38.339704 l
311.077963 38.364446 l
320.303893 38.388135 l
321.494336 38.429295 l
323.28 38.427603 l
323.28 38.427603 l
stroke
grestore
0.800 setlinewidth
0 setlinecap
0.000 setgray
gsave
/o {
gsave
newpath
translate
0.8 setlinewidth
1 setlinejoin
0 setlinecap
0 0 m
0 -3.5 l

gsave
0.000 setgray
fill
grestore
stroke
grestore
} bind def
189.653 31.7312 o
grestore
gsave
187.426250 19.418750 translate
0.000000 rotate
0.000000 0 m /zero glyphshow
grestore
gsave
/o {
gsave
newpath
translate
0.8 setlinewidth
1 setlinejoin
0 setlinecap
0 0 m
0 -3.5 l

gsave
0.000 setgray
fill
grestore
stroke
grestore
} bind def
219.414 31.7312 o
grestore
gsave
212.734191 19.418750 translate
0.000000 rotate
0.000000 0 m /one glyphshow
4.453613 0 m /zero glyphshow
8.907227 0 m /zero glyphshow
grestore
gsave
/o {
gsave
newpath
translate
0.8 setlinewidth
1 setlinejoin
0 setlinecap
0 0 m
0 -3.5 l

gsave
0.000 setgray
fill
grestore
stroke
grestore
} bind def
249.175 31.7312 o
grestore
gsave
242.495258 19.418750 translate
0.000000 rotate
0.000000 0 m /two glyphshow
4.453613 0 m /zero glyphshow
8.907227 0 m /zero glyphshow
grestore
gsave
/o {
gsave
newpath
translate
0.8 setlinewidth
1 setlinejoin
0 setlinecap
0 0 m
0 -3.5 l

gsave
0.000 setgray
fill
grestore
stroke
grestore
} bind def
278.936 31.7312 o
grestore
gsave
272.256324 19.418750 translate
0.000000 rotate
0.000000 0 m /three glyphshow
4.453613 0 m /zero glyphshow
8.907227 0 m /zero glyphshow
grestore
gsave
/o {
gsave
newpath
translate
0.8 setlinewidth
1 setlinejoin
0 setlinecap
0 0 m
0 -3.5 l

gsave
0.000 setgray
fill
grestore
stroke
grestore
} bind def
308.697 31.7312 o
grestore
gsave
302.017390 19.418750 translate
0.000000 rotate
0.000000 0 m /four glyphshow
4.453613 0 m /zero glyphshow
8.907227 0 m /zero glyphshow
grestore
gsave
229.614844 8.653125 translate
0.000000 rotate
0.000000 0 m /I glyphshow
2.064453 0 m /n glyphshow
6.500977 0 m /n glyphshow
10.937500 0 m /e glyphshow
15.244141 0 m /r glyphshow
18.122070 0 m /space glyphshow
20.347168 0 m /I glyphshow
22.411621 0 m /t glyphshow
25.156250 0 m /e glyphshow
29.462891 0 m /r glyphshow
32.340820 0 m /a glyphshow
36.630371 0 m /t glyphshow
39.375000 0 m /i glyphshow
41.319824 0 m /o glyphshow
45.602539 0 m /n glyphshow
50.039062 0 m /s glyphshow
grestore
gsave
/o {
gsave
newpath
translate
0.8 setlinewidth
1 setlinejoin
0 setlinecap
0 0 m
-3.5 0 l

gsave
0.000 setgray
fill
grestore
stroke
grestore
} bind def
189.653 53.0012 o
grestore
gsave
/o {
gsave
newpath
translate
0.8 setlinewidth
1 setlinejoin
0 setlinecap
0 0 m
-3.5 0 l

gsave
0.000 setgray
fill
grestore
stroke
grestore
} bind def
189.653 75.9073 o
grestore
gsave
/o {
gsave
newpath
translate
0.8 setlinewidth
1 setlinejoin
0 setlinecap
0 0 m
-3.5 0 l

gsave
0.000 setgray
fill
grestore
stroke
grestore
} bind def
189.653 98.8134 o
grestore
gsave
/o {
gsave
newpath
translate
0.8 setlinewidth
1 setlinejoin
0 setlinecap
0 0 m
-3.5 0 l

gsave
0.000 setgray
fill
grestore
stroke
grestore
} bind def
189.653 121.72 o
grestore
gsave
/o {
gsave
newpath
translate
0.8 setlinewidth
1 setlinejoin
0 setlinecap
0 0 m
-3.5 0 l

gsave
0.000 setgray
fill
grestore
stroke
grestore
} bind def
189.653 144.626 o
grestore
0 setlinejoin
2 setlinecap
[] 0 setdash
gsave
189.652813 31.73125 m
189.652813 157.68 l
stroke
grestore
gsave
323.28 31.73125 m
323.28 157.68 l
stroke
grestore
gsave
189.652813 31.73125 m
323.28 31.73125 l
stroke
grestore
gsave
189.652813 157.68 m
323.28 157.68 l
stroke
grestore
1.000 setlinewidth
0 setlinecap
0.800 setgray
gsave
58.15375 140.948 m
306.16625 140.948 l
307.099583 140.948 307.56625 141.414667 307.56625 142.348 c
307.56625 162.898 l
307.56625 163.831333 307.099583 164.298 306.16625 164.298 c
58.15375 164.298 l
57.220417 164.298 56.75375 163.831333 56.75375 162.898 c
56.75375 142.348 l
56.75375 141.414667 57.220417 140.948 58.15375 140.948 c
cl
gsave
1.000 setgray
fill
grestore
stroke
grestore
1.500 setlinewidth
1 setlinejoin
[9.6 2.4 1.5 2.4] 0 setdash
0.000 setgray
gsave
59.55375 157.948 m
73.55375 157.948 l
stroke
grestore
gsave
79.153750 155.498000 translate
0.000000 rotate
0.000000 0 m /S glyphshow
4.443359 0 m /i glyphshow
6.388184 0 m /n glyphshow
10.824707 0 m /g glyphshow
15.268066 0 m /l glyphshow
17.212891 0 m /e glyphshow
grestore
2 setlinecap
[] 0 setdash
gsave
59.55375 148.744875 m
73.55375 148.744875 l
stroke
grestore
gsave
79.153750 146.294875 translate
0.000000 rotate
/DejaVuSans findfont
7.0 scalefont
setfont
0.000000 0.656250 moveto
/uni2016 glyphshow
/DejaVuSans-Oblique findfont
7.0 scalefont
setfont
3.500000 0.656250 moveto
/S glyphshow
/DejaVuSans findfont
7.0 scalefont
setfont
7.943359 0.656250 moveto
/uni2016 glyphshow
12.807129 0.656250 moveto
/greaterequal glyphshow
20.036133 0.656250 moveto
/zero glyphshow
24.489746 0.656250 moveto
/period glyphshow
26.714844 0.656250 moveto
/zero glyphshow
31.168457 0.656250 moveto
/one glyphshow

grestore
0.149 setgray
gsave
129.15375 157.948 m
143.15375 157.948 l
stroke
grestore
0.000 setgray
gsave
148.753750 155.498000 translate
0.000000 rotate
/DejaVuSans findfont
7.0 scalefont
setfont
0.000000 0.656250 moveto
/uni2016 glyphshow
/DejaVuSans-Oblique findfont
7.0 scalefont
setfont
3.500000 0.656250 moveto
/S glyphshow
/DejaVuSans findfont
7.0 scalefont
setfont
7.943359 0.656250 moveto
/uni2016 glyphshow
12.807129 0.656250 moveto
/greaterequal glyphshow
20.036133 0.656250 moveto
/zero glyphshow
24.489746 0.656250 moveto
/period glyphshow
26.714844 0.656250 moveto
/one glyphshow

grestore
0.298 setgray
gsave
129.15375 148.198 m
143.15375 148.198 l
stroke
grestore
0.000 setgray
gsave
148.753750 145.748000 translate
0.000000 rotate
/DejaVuSans findfont
7.0 scalefont
setfont
0.000000 0.656250 moveto
/uni2016 glyphshow
/DejaVuSans-Oblique findfont
7.0 scalefont
setfont
3.500000 0.656250 moveto
/S glyphshow
/DejaVuSans findfont
7.0 scalefont
setfont
7.943359 0.656250 moveto
/uni2016 glyphshow
12.807129 0.656250 moveto
/greaterequal glyphshow
20.036133 0.656250 moveto
/zero glyphshow
24.489746 0.656250 moveto
/period glyphshow
26.714844 0.656250 moveto
/five glyphshow

grestore
0.451 setgray
gsave
194.75375 157.948 m
208.75375 157.948 l
stroke
grestore
0.000 setgray
gsave
214.353750 155.498000 translate
0.000000 rotate
/DejaVuSans findfont
7.0 scalefont
setfont
0.000000 0.656250 moveto
/uni2016 glyphshow
/DejaVuSans-Oblique findfont
7.0 scalefont
setfont
3.500000 0.656250 moveto
/S glyphshow
/DejaVuSans findfont
7.0 scalefont
setfont
7.943359 0.656250 moveto
/uni2016 glyphshow
12.807129 0.656250 moveto
/greaterequal glyphshow
20.036133 0.656250 moveto
/zero glyphshow
24.489746 0.656250 moveto
/period glyphshow
26.714844 0.656250 moveto
/nine glyphshow

grestore
0.604 setgray
gsave
194.75375 148.198 m
208.75375 148.198 l
stroke
grestore
0.000 setgray
gsave
214.353750 145.748000 translate
0.000000 rotate
/DejaVuSans findfont
7.0 scalefont
setfont
0.000000 0.656250 moveto
/uni2016 glyphshow
/DejaVuSans-Oblique findfont
7.0 scalefont
setfont
3.500000 0.656250 moveto
/S glyphshow
/DejaVuSans findfont
7.0 scalefont
setfont
7.943359 0.656250 moveto
/uni2016 glyphshow
12.807129 0.656250 moveto
/greaterequal glyphshow
20.036133 0.656250 moveto
/one glyphshow
24.489746 0.656250 moveto
/period glyphshow
26.714844 0.656250 moveto
/zero glyphshow

grestore
0 setlinecap
[5.55 2.4] 0 setdash
gsave
260.35375 157.948 m
274.35375 157.948 l
stroke
grestore
gsave
279.953750 155.498000 translate
0.000000 rotate
0.000000 0 m /D glyphshow
5.390137 0 m /o glyphshow
9.672852 0 m /u glyphshow
14.109375 0 m /b glyphshow
18.552734 0 m /l glyphshow
20.497559 0 m /e glyphshow
grestore

end
showpage
