%!PS-Adobe-3.0 EPSF-3.0
%%Title: ../smc20/figures/restarts-fixedthresh+repeatiter-airfoil_2d-300.eps
%%Creator: matplotlib version 3.2.1, http://matplotlib.org/
%%CreationDate: Wed Sep  2 09:57:24 2020
%%Orientation: portrait
%%BoundingBox: 140.76000000000005 309.845 471.23999999999995 482.155
%%EndComments
%%BeginProlog
/mpldict 8 dict def
mpldict begin
/m { moveto } bind def
/l { lineto } bind def
/r { rlineto } bind def
/c { curveto } bind def
/cl { closepath } bind def
/box {
m
1 index 0 r
0 exch r
neg 0 r
cl
} bind def
/clipbox {
box
clip
newpath
} bind def
%!PS-Adobe-3.0 Resource-Font
%%Title: DejaVu Sans
%%Copyright: Copyright (c) 2003 by Bitstream, Inc. All Rights Reserved. Copyright (c) 2006 by Tavmjong Bah. All Rights Reserved. DejaVu changes are in public domain 
%%Creator: Converted from TrueType to type 3 by PPR
25 dict begin
/_d{bind def}bind def
/_m{moveto}_d
/_l{lineto}_d
/_cl{closepath eofill}_d
/_c{curveto}_d
/_sc{7 -1 roll{setcachedevice}{pop pop pop pop pop pop}ifelse}_d
/_e{exec}_d
/FontName /DejaVuSans def
/PaintType 0 def
/FontMatrix[.001 0 0 .001 0 0]def
/FontBBox[-1021 -463 1793 1232]def
/FontType 3 def
/Encoding [ /space /zero /one /two /three /four /five /six /seven /B /D /E /I /N /S /a /b /c /d /e /g /h /i /k /l /m /n /o /p /r /s /t /u /v /w /minus ] def
/FontInfo 10 dict dup begin
/FamilyName (DejaVu Sans) def
/FullName (DejaVu Sans) def
/Notice (Copyright (c) 2003 by Bitstream, Inc. All Rights Reserved. Copyright (c) 2006 by Tavmjong Bah. All Rights Reserved. DejaVu changes are in public domain ) def
/Weight (Book) def
/Version (Version 2.35) def
/ItalicAngle 0.0 def
/isFixedPitch false def
/UnderlinePosition -130 def
/UnderlineThickness 90 def
end readonly def
/CharStrings 37 dict dup begin
/.notdef 0 def
/space{318 0 0 0 0 0 _sc
}_d
/zero{636 0 66 -13 570 742 _sc
318 664 _m
267 664 229 639 203 589 _c
177 539 165 464 165 364 _c
165 264 177 189 203 139 _c
229 89 267 64 318 64 _c
369 64 407 89 433 139 _c
458 189 471 264 471 364 _c
471 464 458 539 433 589 _c
407 639 369 664 318 664 _c
318 742 _m
399 742 461 709 505 645 _c
548 580 570 486 570 364 _c
570 241 548 147 505 83 _c
461 19 399 -13 318 -13 _c
236 -13 173 19 130 83 _c
87 147 66 241 66 364 _c
66 486 87 580 130 645 _c
173 709 236 742 318 742 _c
_cl}_d
/one{636 0 110 0 544 729 _sc
124 83 _m
285 83 _l
285 639 _l
110 604 _l
110 694 _l
284 729 _l
383 729 _l
383 83 _l
544 83 _l
544 0 _l
124 0 _l
124 83 _l
_cl}_d
/two{{636 0 73 0 536 742 _sc
192 83 _m
536 83 _l
536 0 _l
73 0 _l
73 83 _l
110 121 161 173 226 239 _c
290 304 331 346 348 365 _c
380 400 402 430 414 455 _c
426 479 433 504 433 528 _c
433 566 419 598 392 622 _c
365 646 330 659 286 659 _c
255 659 222 653 188 643 _c
154 632 117 616 78 594 _c
78 694 _l
118 710 155 722 189 730 _c
223 738 255 742 284 742 _c
}_e{359 742 419 723 464 685 _c
509 647 532 597 532 534 _c
532 504 526 475 515 449 _c
504 422 484 390 454 354 _c
446 344 420 317 376 272 _c
332 227 271 164 192 83 _c
_cl}_e}_d
/three{{636 0 76 -13 556 742 _sc
406 393 _m
453 383 490 362 516 330 _c
542 298 556 258 556 212 _c
556 140 531 84 482 45 _c
432 6 362 -13 271 -13 _c
240 -13 208 -10 176 -4 _c
144 1 110 10 76 22 _c
76 117 _l
103 101 133 89 166 81 _c
198 73 232 69 268 69 _c
330 69 377 81 409 105 _c
441 129 458 165 458 212 _c
458 254 443 288 413 312 _c
383 336 341 349 287 349 _c
}_e{202 349 _l
202 430 _l
291 430 _l
339 430 376 439 402 459 _c
428 478 441 506 441 543 _c
441 580 427 609 401 629 _c
374 649 336 659 287 659 _c
260 659 231 656 200 650 _c
169 644 135 635 98 623 _c
98 711 _l
135 721 170 729 203 734 _c
235 739 266 742 296 742 _c
370 742 429 725 473 691 _c
517 657 539 611 539 553 _c
539 513 527 479 504 451 _c
481 423 448 403 406 393 _c
_cl}_e}_d
/four{636 0 49 0 580 729 _sc
378 643 _m
129 254 _l
378 254 _l
378 643 _l
352 729 _m
476 729 _l
476 254 _l
580 254 _l
580 172 _l
476 172 _l
476 0 _l
378 0 _l
378 172 _l
49 172 _l
49 267 _l
352 729 _l
_cl}_d
/five{{636 0 77 -13 549 729 _sc
108 729 _m
495 729 _l
495 646 _l
198 646 _l
198 467 _l
212 472 227 476 241 478 _c
255 480 270 482 284 482 _c
365 482 429 459 477 415 _c
525 370 549 310 549 234 _c
549 155 524 94 475 51 _c
426 8 357 -13 269 -13 _c
238 -13 207 -10 175 -6 _c
143 -1 111 6 77 17 _c
77 116 _l
106 100 136 88 168 80 _c
199 72 232 69 267 69 _c
}_e{323 69 368 83 401 113 _c
433 143 450 183 450 234 _c
450 284 433 324 401 354 _c
368 384 323 399 267 399 _c
241 399 214 396 188 390 _c
162 384 135 375 108 363 _c
108 729 _l
_cl}_e}_d
/six{{636 0 70 -13 573 742 _sc
330 404 _m
286 404 251 388 225 358 _c
199 328 186 286 186 234 _c
186 181 199 139 225 109 _c
251 79 286 64 330 64 _c
374 64 409 79 435 109 _c
461 139 474 181 474 234 _c
474 286 461 328 435 358 _c
409 388 374 404 330 404 _c
526 713 _m
526 623 _l
501 635 476 644 451 650 _c
425 656 400 659 376 659 _c
310 659 260 637 226 593 _c
}_e{192 549 172 482 168 394 _c
187 422 211 444 240 459 _c
269 474 301 482 336 482 _c
409 482 467 459 509 415 _c
551 371 573 310 573 234 _c
573 159 550 99 506 54 _c
462 9 403 -13 330 -13 _c
246 -13 181 19 137 83 _c
92 147 70 241 70 364 _c
70 479 97 571 152 639 _c
206 707 280 742 372 742 _c
396 742 421 739 447 735 _c
472 730 498 723 526 713 _c
_cl}_e}_d
/seven{636 0 82 0 551 729 _sc
82 729 _m
551 729 _l
551 687 _l
286 0 _l
183 0 _l
432 646 _l
82 646 _l
82 729 _l
_cl}_d
/B{{686 0 98 0 615 729 _sc
197 348 _m
197 81 _l
355 81 _l
408 81 447 92 473 114 _c
498 136 511 169 511 215 _c
511 260 498 293 473 315 _c
447 337 408 348 355 348 _c
197 348 _l
197 648 _m
197 428 _l
343 428 _l
391 428 426 437 450 455 _c
474 473 486 500 486 538 _c
486 574 474 602 450 620 _c
426 638 391 648 343 648 _c
197 648 _l
98 729 _m
350 729 _l
}_e{425 729 483 713 524 682 _c
564 650 585 606 585 549 _c
585 504 574 468 553 442 _c
532 416 502 399 462 393 _c
510 382 548 360 575 327 _c
601 294 615 253 615 204 _c
615 138 592 88 548 53 _c
504 17 441 0 360 0 _c
98 0 _l
98 729 _l
_cl}_e}_d
/D{770 0 98 0 711 729 _sc
197 648 _m
197 81 _l
316 81 _l
416 81 490 103 537 149 _c
583 195 607 267 607 365 _c
607 463 583 534 537 580 _c
490 625 416 648 316 648 _c
197 648 _l
98 729 _m
301 729 _l
442 729 546 699 612 641 _c
678 582 711 490 711 365 _c
711 239 677 147 611 88 _c
545 29 441 0 301 0 _c
98 0 _l
98 729 _l
_cl}_d
/E{632 0 98 0 568 729 _sc
98 729 _m
559 729 _l
559 646 _l
197 646 _l
197 430 _l
544 430 _l
544 347 _l
197 347 _l
197 83 _l
568 83 _l
568 0 _l
98 0 _l
98 729 _l
_cl}_d
/I{295 0 98 0 197 729 _sc
98 729 _m
197 729 _l
197 0 _l
98 0 _l
98 729 _l
_cl}_d
/N{748 0 98 0 650 729 _sc
98 729 _m
231 729 _l
554 119 _l
554 729 _l
650 729 _l
650 0 _l
517 0 _l
194 610 _l
194 0 _l
98 0 _l
98 729 _l
_cl}_d
/S{{635 0 66 -13 579 742 _sc
535 705 _m
535 609 _l
497 627 462 640 429 649 _c
395 657 363 662 333 662 _c
279 662 237 651 208 631 _c
179 610 165 580 165 542 _c
165 510 174 485 194 469 _c
213 452 250 439 304 429 _c
364 417 _l
437 403 491 378 526 343 _c
561 307 579 260 579 201 _c
579 130 555 77 508 41 _c
460 5 391 -13 300 -13 _c
265 -13 228 -9 189 -2 _c
}_e{150 5 110 16 69 32 _c
69 134 _l
109 111 148 94 186 83 _c
224 71 262 66 300 66 _c
356 66 399 77 430 99 _c
460 121 476 152 476 194 _c
476 230 465 258 443 278 _c
421 298 385 313 335 323 _c
275 335 _l
201 349 148 372 115 404 _c
82 435 66 478 66 534 _c
66 598 88 649 134 686 _c
179 723 242 742 322 742 _c
356 742 390 739 426 733 _c
461 727 497 717 535 705 _c
}_e{_cl}_e}_d
/a{{613 0 60 -13 522 560 _sc
343 275 _m
270 275 220 266 192 250 _c
164 233 150 205 150 165 _c
150 133 160 107 181 89 _c
202 70 231 61 267 61 _c
317 61 357 78 387 114 _c
417 149 432 196 432 255 _c
432 275 _l
343 275 _l
522 312 _m
522 0 _l
432 0 _l
432 83 _l
411 49 385 25 355 10 _c
325 -5 287 -13 243 -13 _c
187 -13 142 2 109 33 _c
76 64 60 106 60 159 _c
}_e{60 220 80 266 122 298 _c
163 329 224 345 306 345 _c
432 345 _l
432 354 _l
432 395 418 427 391 450 _c
364 472 326 484 277 484 _c
245 484 215 480 185 472 _c
155 464 127 453 100 439 _c
100 522 _l
132 534 164 544 195 550 _c
226 556 256 560 286 560 _c
365 560 424 539 463 498 _c
502 457 522 395 522 312 _c
_cl}_e}_d
/b{{635 0 91 -13 580 760 _sc
487 273 _m
487 339 473 390 446 428 _c
418 466 381 485 334 485 _c
286 485 249 466 222 428 _c
194 390 181 339 181 273 _c
181 207 194 155 222 117 _c
249 79 286 61 334 61 _c
381 61 418 79 446 117 _c
473 155 487 207 487 273 _c
181 464 _m
199 496 223 520 252 536 _c
281 552 316 560 356 560 _c
422 560 476 533 518 481 _c
559 428 580 359 580 273 _c
}_e{580 187 559 117 518 65 _c
476 13 422 -13 356 -13 _c
316 -13 281 -5 252 10 _c
223 25 199 49 181 82 _c
181 0 _l
91 0 _l
91 760 _l
181 760 _l
181 464 _l
_cl}_e}_d
/c{{550 0 55 -13 488 560 _sc
488 526 _m
488 442 _l
462 456 437 466 411 473 _c
385 480 360 484 334 484 _c
276 484 230 465 198 428 _c
166 391 150 339 150 273 _c
150 206 166 154 198 117 _c
230 80 276 62 334 62 _c
360 62 385 65 411 72 _c
437 79 462 90 488 104 _c
488 21 _l
462 9 436 0 410 -5 _c
383 -10 354 -13 324 -13 _c
242 -13 176 12 128 64 _c
}_e{79 115 55 185 55 273 _c
55 362 79 432 128 483 _c
177 534 244 560 330 560 _c
358 560 385 557 411 551 _c
437 545 463 537 488 526 _c
_cl}_e}_d
/d{{635 0 55 -13 544 760 _sc
454 464 _m
454 760 _l
544 760 _l
544 0 _l
454 0 _l
454 82 _l
435 49 411 25 382 10 _c
353 -5 319 -13 279 -13 _c
213 -13 159 13 117 65 _c
75 117 55 187 55 273 _c
55 359 75 428 117 481 _c
159 533 213 560 279 560 _c
319 560 353 552 382 536 _c
411 520 435 496 454 464 _c
148 273 _m
148 207 161 155 188 117 _c
215 79 253 61 301 61 _c
}_e{348 61 385 79 413 117 _c
440 155 454 207 454 273 _c
454 339 440 390 413 428 _c
385 466 348 485 301 485 _c
253 485 215 466 188 428 _c
161 390 148 339 148 273 _c
_cl}_e}_d
/e{{615 0 55 -13 562 560 _sc
562 296 _m
562 252 _l
149 252 _l
153 190 171 142 205 110 _c
238 78 284 62 344 62 _c
378 62 412 66 444 74 _c
476 82 509 95 541 113 _c
541 28 _l
509 14 476 3 442 -3 _c
408 -9 373 -13 339 -13 _c
251 -13 182 12 131 62 _c
80 112 55 181 55 268 _c
55 357 79 428 127 481 _c
175 533 241 560 323 560 _c
397 560 455 536 498 489 _c
}_e{540 441 562 377 562 296 _c
472 322 _m
471 371 457 410 431 440 _c
404 469 368 484 324 484 _c
274 484 234 469 204 441 _c
174 413 156 373 152 322 _c
472 322 _l
_cl}_e}_d
/g{{635 0 55 -207 544 560 _sc
454 280 _m
454 344 440 395 414 431 _c
387 467 349 485 301 485 _c
253 485 215 467 188 431 _c
161 395 148 344 148 280 _c
148 215 161 165 188 129 _c
215 93 253 75 301 75 _c
349 75 387 93 414 129 _c
440 165 454 215 454 280 _c
544 68 _m
544 -24 523 -93 482 -139 _c
440 -184 377 -207 292 -207 _c
260 -207 231 -204 203 -200 _c
175 -195 147 -188 121 -178 _c
}_e{121 -91 _l
147 -105 173 -115 199 -122 _c
225 -129 251 -133 278 -133 _c
336 -133 380 -117 410 -87 _c
439 -56 454 -10 454 52 _c
454 96 _l
435 64 411 40 382 24 _c
353 8 319 0 279 0 _c
211 0 157 25 116 76 _c
75 127 55 195 55 280 _c
55 364 75 432 116 483 _c
157 534 211 560 279 560 _c
319 560 353 552 382 536 _c
411 520 435 496 454 464 _c
454 547 _l
544 547 _l
}_e{544 68 _l
_cl}_e}_d
/h{634 0 91 0 549 760 _sc
549 330 _m
549 0 _l
459 0 _l
459 327 _l
459 379 448 417 428 443 _c
408 469 378 482 338 482 _c
289 482 251 466 223 435 _c
195 404 181 362 181 309 _c
181 0 _l
91 0 _l
91 760 _l
181 760 _l
181 462 _l
202 494 227 519 257 535 _c
286 551 320 560 358 560 _c
420 560 468 540 500 501 _c
532 462 549 405 549 330 _c
_cl}_d
/i{278 0 94 0 184 760 _sc
94 547 _m
184 547 _l
184 0 _l
94 0 _l
94 547 _l
94 760 _m
184 760 _l
184 646 _l
94 646 _l
94 760 _l
_cl}_d
/k{579 0 91 0 576 760 _sc
91 760 _m
181 760 _l
181 311 _l
449 547 _l
564 547 _l
274 291 _l
576 0 _l
459 0 _l
181 267 _l
181 0 _l
91 0 _l
91 760 _l
_cl}_d
/l{278 0 94 0 184 760 _sc
94 760 _m
184 760 _l
184 0 _l
94 0 _l
94 760 _l
_cl}_d
/m{{974 0 91 0 889 560 _sc
520 442 _m
542 482 569 511 600 531 _c
631 550 668 560 711 560 _c
767 560 811 540 842 500 _c
873 460 889 403 889 330 _c
889 0 _l
799 0 _l
799 327 _l
799 379 789 418 771 444 _c
752 469 724 482 686 482 _c
639 482 602 466 575 435 _c
548 404 535 362 535 309 _c
535 0 _l
445 0 _l
445 327 _l
445 379 435 418 417 444 _c
398 469 369 482 331 482 _c
}_e{285 482 248 466 221 435 _c
194 404 181 362 181 309 _c
181 0 _l
91 0 _l
91 547 _l
181 547 _l
181 462 _l
201 495 226 520 255 536 _c
283 552 317 560 357 560 _c
397 560 430 550 458 530 _c
486 510 506 480 520 442 _c
_cl}_e}_d
/n{634 0 91 0 549 560 _sc
549 330 _m
549 0 _l
459 0 _l
459 327 _l
459 379 448 417 428 443 _c
408 469 378 482 338 482 _c
289 482 251 466 223 435 _c
195 404 181 362 181 309 _c
181 0 _l
91 0 _l
91 547 _l
181 547 _l
181 462 _l
202 494 227 519 257 535 _c
286 551 320 560 358 560 _c
420 560 468 540 500 501 _c
532 462 549 405 549 330 _c
_cl}_d
/o{612 0 55 -13 557 560 _sc
306 484 _m
258 484 220 465 192 427 _c
164 389 150 338 150 273 _c
150 207 163 156 191 118 _c
219 80 257 62 306 62 _c
354 62 392 80 420 118 _c
448 156 462 207 462 273 _c
462 337 448 389 420 427 _c
392 465 354 484 306 484 _c
306 560 _m
384 560 445 534 490 484 _c
534 433 557 363 557 273 _c
557 183 534 113 490 63 _c
445 12 384 -13 306 -13 _c
227 -13 165 12 121 63 _c
77 113 55 183 55 273 _c
55 363 77 433 121 484 _c
165 534 227 560 306 560 _c
_cl}_d
/p{{635 0 91 -207 580 560 _sc
181 82 _m
181 -207 _l
91 -207 _l
91 547 _l
181 547 _l
181 464 _l
199 496 223 520 252 536 _c
281 552 316 560 356 560 _c
422 560 476 533 518 481 _c
559 428 580 359 580 273 _c
580 187 559 117 518 65 _c
476 13 422 -13 356 -13 _c
316 -13 281 -5 252 10 _c
223 25 199 49 181 82 _c
487 273 _m
487 339 473 390 446 428 _c
418 466 381 485 334 485 _c
}_e{286 485 249 466 222 428 _c
194 390 181 339 181 273 _c
181 207 194 155 222 117 _c
249 79 286 61 334 61 _c
381 61 418 79 446 117 _c
473 155 487 207 487 273 _c
_cl}_e}_d
/r{411 0 91 0 411 560 _sc
411 463 _m
401 469 390 473 378 476 _c
366 478 353 480 339 480 _c
288 480 249 463 222 430 _c
194 397 181 350 181 288 _c
181 0 _l
91 0 _l
91 547 _l
181 547 _l
181 462 _l
199 495 224 520 254 536 _c
284 552 321 560 365 560 _c
371 560 378 559 386 559 _c
393 558 401 557 411 555 _c
411 463 _l
_cl}_d
/s{{521 0 54 -13 472 560 _sc
443 531 _m
443 446 _l
417 458 391 468 364 475 _c
336 481 308 485 279 485 _c
234 485 200 478 178 464 _c
156 450 145 430 145 403 _c
145 382 153 366 169 354 _c
185 342 217 330 265 320 _c
296 313 _l
360 299 405 279 432 255 _c
458 230 472 195 472 151 _c
472 100 452 60 412 31 _c
372 1 316 -13 246 -13 _c
216 -13 186 -10 154 -5 _c
}_e{122 0 89 8 54 20 _c
54 113 _l
87 95 120 82 152 74 _c
184 65 216 61 248 61 _c
290 61 323 68 346 82 _c
368 96 380 117 380 144 _c
380 168 371 187 355 200 _c
339 213 303 226 247 238 _c
216 245 _l
160 257 119 275 95 299 _c
70 323 58 356 58 399 _c
58 450 76 490 112 518 _c
148 546 200 560 268 560 _c
301 560 332 557 362 552 _c
391 547 418 540 443 531 _c
}_e{_cl}_e}_d
/t{392 0 27 0 368 702 _sc
183 702 _m
183 547 _l
368 547 _l
368 477 _l
183 477 _l
183 180 _l
183 135 189 106 201 94 _c
213 81 238 75 276 75 _c
368 75 _l
368 0 _l
276 0 _l
206 0 158 13 132 39 _c
106 65 93 112 93 180 _c
93 477 _l
27 477 _l
27 547 _l
93 547 _l
93 702 _l
183 702 _l
_cl}_d
/u{634 0 85 -13 543 560 _sc
85 216 _m
85 547 _l
175 547 _l
175 219 _l
175 167 185 129 205 103 _c
225 77 255 64 296 64 _c
344 64 383 79 411 110 _c
439 141 453 183 453 237 _c
453 547 _l
543 547 _l
543 0 _l
453 0 _l
453 84 _l
431 50 405 26 377 10 _c
348 -5 315 -13 277 -13 _c
214 -13 166 6 134 45 _c
101 83 85 140 85 216 _c
311 560 _m
311 560 _l
_cl}_d
/v{592 0 30 0 562 547 _sc
30 547 _m
125 547 _l
296 88 _l
467 547 _l
562 547 _l
357 0 _l
235 0 _l
30 547 _l
_cl}_d
/w{818 0 42 0 776 547 _sc
42 547 _m
132 547 _l
244 120 _l
356 547 _l
462 547 _l
574 120 _l
686 547 _l
776 547 _l
633 0 _l
527 0 _l
409 448 _l
291 0 _l
185 0 _l
42 547 _l
_cl}_d
/minus{838 0 106 272 732 355 _sc
106 355 _m
732 355 _l
732 272 _l
106 272 _l
106 355 _l
_cl}_d
end readonly def

/BuildGlyph
 {exch begin
 CharStrings exch
 2 copy known not{pop /.notdef}if
 true 3 1 roll get exec
 end}_d

/BuildChar {
 1 index /Encoding get exch get
 1 index /BuildGlyph get exec
}_d

FontName currentdict end definefont pop
end
%%EndProlog
mpldict begin
140.76 309.845 translate
330.48 172.31 0 0 clipbox
gsave
0 -0 m
330.48 -0 l
330.48 172.31 l
0 172.31 l
cl
1.000 setgray
fill
grestore
gsave
44.965625 31.73125 m
178.592812 31.73125 l
178.592812 157.68 l
44.965625 157.68 l
cl
1.000 setgray
fill
grestore
1.500 setlinewidth
1 setlinejoin
0 setlinecap
[] 0 setdash
0.000 setgray
gsave
133.6 125.9 44.97 31.73 clipbox
/o {
gsave
newpath
translate
1.5 setlinewidth
1 setlinejoin
0 setlinecap
0 -3 m
0 3 l

gsave
0.000 setgray
fill
grestore
stroke
grestore
} bind def
133.951 111.237 o
grestore
gsave
133.6 125.9 44.97 31.73 clipbox
/o {
gsave
newpath
translate
1.5 setlinewidth
1 setlinejoin
0 setlinecap
0 -3 m
0 3 l

gsave
0.000 setgray
fill
grestore
stroke
grestore
} bind def
133.951 46.1833 o
grestore
[9.6 2.4 1.5 2.4] 0 setdash
gsave
133.6 125.9 44.97 31.73 clipbox
44.965625 151.955057 m
45.263236 148.313056 l
45.858457 144.586002 l
46.751289 141.024249 l
47.644121 138.581744 l
48.239342 137.197691 l
49.727396 134.746523 l
50.620228 133.672949 l
51.51306 132.7335 l
52.703502 130.972532 l
53.596334 129.993614 l
54.489166 129.35532 l
55.97722 128.792571 l
56.572441 128.066961 l
57.167662 126.971208 l
58.060494 125.801187 l
58.953326 125.563046 l
59.548547 125.589821 l
60.143769 125.34979 l
61.929433 124.627349 l
62.524654 124.468871 l
64.310318 123.330331 l
65.798371 121.649531 l
68.179257 118.504025 l
70.560142 114.777011 l
72.643417 112.284666 l
72.941027 111.760252 l
73.238638 111.488755 l
73.536249 110.990784 l
73.833859 111.074958 l
74.13147 110.548076 l
74.429081 110.530711 l
74.726691 109.781829 l
75.024302 109.686382 l
75.321913 108.89278 l
75.619523 108.50991 l
75.917134 108.493127 l
76.214745 107.820962 l
76.512355 107.549462 l
76.809966 108.306716 l
77.107577 108.633081 l
77.405187 108.545319 l
77.702798 107.436214 l
78.000409 107.355113 l
78.59563 108.404065 l
78.893241 108.253488 l
79.190851 107.475772 l
79.488462 107.788335 l
79.786073 109.125766 l
80.083683 107.471021 l
80.381294 107.349722 l
80.678905 108.11714 l
80.976515 108.007427 l
81.274126 108.1205 l
81.571736 107.834061 l
81.869347 109.663416 l
82.166958 107.561678 l
82.464568 107.07022 l
82.762179 106.334499 l
83.05979 106.452706 l
83.3574 108.058924 l
83.655011 106.888226 l
83.952622 106.816066 l
84.250232 107.420308 l
84.547843 109.058136 l
85.143064 106.946858 l
85.440675 107.223278 l
85.738286 106.97019 l
86.035896 107.147606 l
86.333507 110.133925 l
86.631118 106.521859 l
86.928728 108.246793 l
87.226339 107.001588 l
87.82156 110.339377 l
88.119171 109.403708 l
88.416782 106.841143 l
88.714392 107.881243 l
89.012003 107.370033 l
89.309614 109.969265 l
89.607224 109.780744 l
89.904835 107.639814 l
90.202446 109.370339 l
90.500056 106.91991 l
90.797667 108.788308 l
91.095278 106.92336 l
91.392888 107.491194 l
91.690499 106.88802 l
91.98811 109.087225 l
92.28572 108.376389 l
92.583331 106.508005 l
92.880942 107.397748 l
93.178552 106.628167 l
93.476163 107.335795 l
93.773774 109.132641 l
94.071384 107.45747 l
94.368995 107.839029 l
94.666606 108.585133 l
94.964216 109.020083 l
95.261827 106.936367 l
95.559438 106.539362 l
96.154659 109.949451 l
96.45227 106.148562 l
96.74988 108.7737 l
97.047491 109.830904 l
97.642712 106.863623 l
97.940323 109.9561 l
98.237934 107.873137 l
98.535544 106.910038 l
98.833155 109.103663 l
99.130766 110.294388 l
99.428376 107.856888 l
99.725987 107.575217 l
100.023598 110.492055 l
100.321208 110.549758 l
100.618819 112.896835 l
100.91643 109.23768 l
101.21404 108.944782 l
101.511651 110.189633 l
101.809262 110.460192 l
102.404483 107.274053 l
102.702094 108.727386 l
102.999704 109.188977 l
103.297315 112.084902 l
103.594926 111.438822 l
103.892536 108.489323 l
104.190147 110.329112 l
104.487758 108.221103 l
104.785368 109.646562 l
105.38059 108.621658 l
105.6782 110.103553 l
105.975811 109.593025 l
106.273421 108.442871 l
106.571032 109.216373 l
106.868643 109.372808 l
107.166253 107.639673 l
107.463864 108.101822 l
108.059085 107.903183 l
108.356696 107.353676 l
108.654307 109.635063 l
109.249528 107.498054 l
109.547139 107.530907 l
109.844749 109.526262 l
110.14236 108.31851 l
110.439971 109.280921 l
110.737581 108.503443 l
111.035192 109.507395 l
111.928024 107.905204 l
112.225635 109.281709 l
112.523245 108.487975 l
112.820856 108.459377 l
113.118467 107.940103 l
113.416077 109.104087 l
113.713688 107.554127 l
114.011299 107.815364 l
114.308909 109.328102 l
114.60652 109.651194 l
114.904131 107.856822 l
115.201741 107.717805 l
115.499352 109.364891 l
115.796963 110.298049 l
116.094573 108.111205 l
116.392184 107.80761 l
116.689795 110.105431 l
116.987405 109.494971 l
117.285016 112.176478 l
117.582627 110.622328 l
117.880237 107.856799 l
118.177848 111.606194 l
118.475459 107.81045 l
118.773069 108.711996 l
119.07068 111.059709 l
119.368291 108.143928 l
119.665901 109.993485 l
119.963512 108.879987 l
120.261123 108.409442 l
120.856344 110.860467 l
121.153955 111.289973 l
121.451565 108.683404 l
121.749176 107.962084 l
122.344397 108.537987 l
122.642008 110.452007 l
122.939619 110.831263 l
123.237229 110.800079 l
123.53484 112.008224 l
123.832451 108.45708 l
124.130061 110.653386 l
124.427672 108.281857 l
124.725283 110.536702 l
125.022893 107.739412 l
125.320504 110.08176 l
125.618115 110.03347 l
125.915725 111.999958 l
126.213336 108.481465 l
126.510947 108.262471 l
127.106168 108.466115 l
127.403779 109.034387 l
127.701389 108.55183 l
127.999 109.253622 l
128.594221 108.163236 l
128.891832 107.922537 l
129.189443 109.034433 l
129.487053 108.325885 l
129.784664 110.392549 l
130.082274 109.515633 l
130.379885 109.553842 l
130.677496 111.875723 l
130.975106 108.395852 l
131.272717 110.500648 l
131.570328 108.747897 l
131.867938 109.565139 l
132.165549 108.169439 l
132.76077 109.193073 l
133.355992 108.723961 l
133.951213 111.236545 l
134.248824 105.409703 l
134.546434 104.769001 l
135.141656 104.585123 l
135.736877 104.568035 l
141.986701 104.555037 l
142.879533 104.568648 l
165.497943 104.590471 l
178.592812 104.593572 l
178.592812 104.593572 l
stroke
grestore
2 setlinecap
[] 0 setdash
gsave
133.6 125.9 44.97 31.73 clipbox
44.965625 151.955057 m
45.263236 148.313056 l
45.858457 144.585999 l
46.751289 141.024249 l
47.644121 138.581744 l
48.239342 137.197691 l
49.727396 134.74651 l
50.620228 133.672939 l
51.51306 132.733512 l
52.703502 130.972512 l
53.596334 129.993559 l
54.489166 129.355347 l
55.97722 128.792639 l
56.572441 128.066922 l
57.167662 126.971256 l
58.060494 125.801617 l
58.953326 125.563204 l
59.548547 125.589998 l
60.143769 125.350025 l
61.929433 124.627043 l
62.524654 124.468287 l
64.310318 123.329754 l
65.798371 121.649565 l
68.179257 118.503449 l
69.964921 115.728334 l
70.857753 114.392334 l
71.452974 113.811493 l
72.048195 113.125809 l
74.13147 110.041662 l
75.321913 108.26481 l
77.107577 105.642845 l
79.786073 103.510923 l
80.381294 102.78495 l
81.274126 101.193185 l
82.166958 99.27694 l
83.05979 97.324968 l
83.655011 95.755027 l
84.547843 94.207992 l
86.928728 90.627965 l
88.714392 86.734184 l
89.607224 85.49669 l
90.500056 84.375333 l
92.583331 80.236702 l
94.666606 75.62536 l
95.857048 72.738785 l
97.345102 69.17595 l
98.833155 66.77848 l
101.511651 61.117981 l
102.702094 57.893186 l
103.892536 54.904421 l
105.082979 52.455123 l
105.975811 51.061766 l
107.463864 48.162763 l
107.761475 47.809477 l
108.059085 47.204957 l
108.356696 46.898865 l
108.654307 46.416373 l
108.951917 46.263726 l
109.249528 46.278474 l
109.547139 45.723657 l
109.844749 46.356197 l
110.14236 46.084787 l
110.439971 46.142108 l
111.035192 46.001196 l
111.332803 45.756249 l
111.630413 45.924444 l
111.928024 45.614629 l
112.225635 46.021527 l
112.523245 45.88545 l
112.820856 46.086733 l
113.118467 45.537317 l
113.416077 46.011193 l
113.713688 46.185448 l
114.308909 46.081504 l
114.60652 46.424114 l
114.904131 46.096281 l
115.201741 46.570758 l
115.499352 46.705654 l
115.796963 46.682749 l
116.094573 46.137184 l
116.392184 46.477107 l
117.285016 46.154821 l
117.582627 46.691189 l
117.880237 46.327659 l
118.177848 46.197137 l
118.475459 46.709203 l
119.07068 46.268702 l
119.368291 46.234562 l
119.665901 45.776945 l
119.963512 46.789165 l
120.261123 46.276375 l
120.558733 46.326676 l
120.856344 46.710331 l
121.153955 45.69143 l
121.749176 46.048939 l
122.046787 46.673263 l
122.344397 45.348864 l
122.642008 46.282433 l
122.939619 46.511318 l
123.237229 46.275351 l
123.53484 46.494846 l
123.832451 46.308426 l
124.130061 46.969831 l
124.427672 46.199475 l
124.725283 46.060138 l
125.022893 46.068337 l
125.320504 45.700313 l
125.618115 45.979678 l
125.915725 46.460861 l
126.213336 45.684062 l
126.510947 46.15098 l
126.808557 46.107901 l
127.106168 46.577572 l
127.701389 45.441649 l
127.999 46.09919 l
129.189443 45.884593 l
129.487053 46.366711 l
129.784664 45.825632 l
130.082274 45.929724 l
130.379885 45.638678 l
130.677496 45.807719 l
130.975106 45.739931 l
131.272717 45.909816 l
131.570328 45.34999 l
131.867938 45.876843 l
132.165549 46.011989 l
132.46316 45.89312 l
132.76077 45.630649 l
133.058381 46.470603 l
133.355992 45.880543 l
133.951213 46.183262 l
134.248824 39.223328 l
134.546434 38.136028 l
136.034488 37.987742 l
138.415373 38.035753 l
139.010594 37.97846 l
140.201037 37.9871 l
160.438562 38.036953 l
178.592812 38.040396 l
178.592812 38.040396 l
stroke
grestore
0 setlinecap
gsave
133.6 125.9 44.97 31.73 clipbox
/o {
gsave
newpath
translate
1.5 setlinewidth
1 setlinejoin
0 setlinecap
0 -3 m
0 3 l

gsave
0.000 setgray
fill
grestore
stroke
grestore
} bind def
70.2625 115.324 o
105.678 81.2107 o
142.284 42.7848 o
176.807 38.3379 o
grestore
0.298 setgray
gsave
133.6 125.9 44.97 31.73 clipbox
/o {
gsave
newpath
translate
1.5 setlinewidth
1 setlinejoin
0 setlinecap
0 -3 m
0 3 l

gsave
0.298 setgray
fill
grestore
stroke
grestore
} bind def
75.9171 110.331 o
107.166 76.1294 o
118.178 62.7553 o
149.427 38.4839 o
166.093 37.8625 o
grestore
0.604 setgray
gsave
133.6 125.9 44.97 31.73 clipbox
/o {
gsave
newpath
translate
1.5 setlinewidth
1 setlinejoin
0 setlinecap
0 -3 m
0 3 l

gsave
0.604 setgray
fill
grestore
stroke
grestore
} bind def
grestore
[1.5 2.475] 0 setdash
0.000 setgray
gsave
133.6 125.9 44.97 31.73 clipbox
44.965625 151.955057 m
45.263236 148.313056 l
45.858457 144.586002 l
46.751289 141.024249 l
47.644121 138.581744 l
48.239342 137.197691 l
49.727396 134.746503 l
50.620228 133.672921 l
51.51306 132.733536 l
52.703502 130.972532 l
53.596334 129.993559 l
54.489166 129.355347 l
55.97722 128.792659 l
56.572441 128.066996 l
57.167662 126.971187 l
58.060494 125.801284 l
58.953326 125.562878 l
59.548547 125.589425 l
60.143769 125.349745 l
61.929433 124.627363 l
62.524654 124.468316 l
64.310318 123.33064 l
65.798371 121.650209 l
68.179257 118.503529 l
69.964921 115.734978 l
70.560142 114.792711 l
71.155363 113.853528 l
71.750585 113.483687 l
72.643417 112.607082 l
75.321913 109.71191 l
75.917134 109.028667 l
76.809966 107.791664 l
79.190851 104.752838 l
80.083683 104.013679 l
82.762179 102.007097 l
83.3574 101.32755 l
84.547843 100.508461 l
86.333507 99.577969 l
87.226339 99.342629 l
88.714392 99.140203 l
89.012003 99.000774 l
89.904835 98.023882 l
90.797667 96.774947 l
92.880942 95.100817 l
93.476163 94.544448 l
94.666606 92.788678 l
96.45227 89.090869 l
96.74988 89.670559 l
97.047491 88.924074 l
97.940323 88.077778 l
99.130766 86.713595 l
100.023598 86.212117 l
100.321208 86.254883 l
100.618819 85.82854 l
101.511651 85.178921 l
103.297315 82.652748 l
103.892536 82.072103 l
104.190147 81.754136 l
104.487758 81.602667 l
104.785368 81.613581 l
105.082979 81.776737 l
105.6782 81.210732 l
105.975811 81.14472 l
106.273421 81.31776 l
106.571032 77.282852 l
106.868643 75.878805 l
107.463864 74.545728 l
107.761475 74.143677 l
108.356696 73.050501 l
108.654307 72.481896 l
109.249528 71.832367 l
109.844749 70.928646 l
110.439971 69.802075 l
112.523245 66.306104 l
114.308909 65.093204 l
115.499352 64.44784 l
116.094573 64.280244 l
116.392184 64.212301 l
117.582627 64.3302 l
118.475459 64.273849 l
118.773069 64.294967 l
119.368291 63.941368 l
122.344397 61.036809 l
123.832451 59.62146 l
124.130061 59.162782 l
124.725283 58.543453 l
125.618115 57.479853 l
127.403779 55.387522 l
128.296611 53.876894 l
130.975106 50.383398 l
132.165549 49.400877 l
132.76077 48.443514 l
134.248824 46.892355 l
136.332098 44.397458 l
136.629709 44.16186 l
136.92732 44.264687 l
137.522541 43.921959 l
137.820152 44.018073 l
138.117762 43.348377 l
138.712984 43.480321 l
139.308205 43.148674 l
139.605816 43.235171 l
139.903426 43.156892 l
140.201037 43.456574 l
140.498648 42.864655 l
140.796258 42.955934 l
141.093869 42.78684 l
141.68909 42.936843 l
141.986701 42.456879 l
142.284312 42.784807 l
142.581922 42.396893 l
142.879533 42.668912 l
143.177144 42.628535 l
143.474754 39.337343 l
143.772365 38.462977 l
144.069976 38.252359 l
144.367586 38.32857 l
144.665197 38.173715 l
144.962808 38.281481 l
146.450861 38.178017 l
147.046082 38.25659 l
148.236525 38.266333 l
150.3198 38.236005 l
151.510242 38.244771 l
153.295906 38.312793 l
154.188738 38.281892 l
155.08157 38.256944 l
164.902722 38.300765 l
166.688386 38.307818 l
167.581218 38.312939 l
169.962103 38.317122 l
176.211927 38.33848 l
177.997591 38.335392 l
178.295202 37.66648 l
178.592812 37.587777 l
178.592812 37.587777 l
stroke
grestore
2 setlinecap
[] 0 setdash
0.298 setgray
gsave
133.6 125.9 44.97 31.73 clipbox
44.965625 151.955057 m
45.263236 148.313056 l
45.858457 144.586002 l
46.751289 141.024249 l
47.644121 138.581744 l
48.239342 137.197691 l
49.727396 134.746503 l
50.620228 133.672921 l
51.51306 132.733536 l
52.703502 130.972532 l
53.596334 129.993559 l
54.489166 129.355347 l
55.97722 128.792659 l
56.572441 128.066996 l
57.167662 126.971187 l
58.060494 125.801284 l
58.953326 125.562878 l
59.548547 125.589425 l
60.143769 125.349745 l
61.929433 124.627363 l
62.524654 124.468316 l
64.310318 123.33064 l
65.798371 121.650209 l
68.179257 118.503529 l
69.964921 115.734978 l
71.452974 113.852915 l
72.048195 113.194896 l
72.941027 111.772857 l
73.238638 111.728413 l
73.536249 111.335244 l
73.833859 111.644172 l
74.13147 111.34659 l
74.429081 111.680143 l
74.726691 110.558573 l
75.024302 110.75251 l
75.619523 110.251678 l
75.917134 110.331483 l
76.214745 109.432734 l
76.512355 106.152149 l
76.809966 106.142409 l
77.702798 105.6061 l
78.298019 105.129493 l
78.59563 105.017382 l
80.381294 103.351257 l
82.166958 100.478584 l
84.547843 96.4654 l
86.333507 94.305742 l
86.928728 93.835729 l
88.714392 91.701739 l
89.012003 91.499898 l
89.904835 90.444648 l
90.202446 90.432992 l
91.095278 89.926533 l
91.392888 90.095275 l
91.690499 89.968929 l
91.98811 89.98718 l
92.28572 90.201735 l
93.773774 89.332346 l
94.368995 89.225664 l
94.666606 89.277143 l
95.261827 88.934532 l
96.74988 87.304056 l
98.237934 85.163415 l
98.833155 84.522149 l
100.321208 82.725764 l
100.91643 81.914523 l
101.21404 81.588956 l
101.511651 81.566002 l
102.106872 81.033595 l
102.999704 80.39339 l
103.892536 79.943048 l
104.190147 79.986379 l
104.487758 79.387387 l
104.785368 79.458446 l
105.082979 78.766839 l
106.273421 77.464191 l
106.571032 77.168481 l
107.166253 76.129361 l
107.463864 75.973984 l
107.761475 75.533579 l
108.059085 74.221466 l
108.951917 73.655476 l
109.547139 73.193969 l
110.439971 71.931395 l
112.820856 68.330422 l
114.011299 67.247491 l
114.60652 66.716875 l
116.392184 64.596336 l
117.285016 63.57051 l
119.07068 61.752215 l
123.53484 56.335927 l
124.130061 55.559163 l
125.022893 54.729537 l
125.915725 54.141635 l
126.510947 53.825081 l
128.594221 51.669309 l
129.784664 50.202822 l
130.082274 50.037995 l
130.379885 50.16651 l
130.677496 49.314967 l
131.272717 48.528166 l
131.867938 47.928352 l
132.165549 47.74941 l
132.46316 47.707848 l
133.653602 48.149819 l
134.546434 48.149446 l
134.844045 47.826812 l
136.332098 47.070577 l
137.22493 46.326676 l
138.117762 45.748777 l
139.903426 43.861973 l
141.093869 41.571585 l
141.68909 40.705628 l
141.986701 40.60336 l
142.879533 39.668711 l
143.474754 39.377613 l
144.665197 38.837513 l
148.236525 38.512091 l
150.61741 38.475622 l
150.915021 37.679212 l
151.510242 37.622861 l
151.807853 37.791238 l
152.403074 37.772567 l
152.700685 37.858267 l
153.295906 37.808537 l
153.891128 37.895355 l
155.974402 37.837446 l
157.164845 37.835701 l
162.521837 37.846414 l
167.581218 37.863376 l
167.878829 37.574372 l
168.176439 37.547108 l
168.47405 37.652976 l
169.069271 37.702563 l
171.152546 37.772547 l
173.831042 37.773587 l
175.319095 37.783118 l
178.592812 37.780962 l
178.592812 37.780962 l
stroke
grestore
0.604 setgray
gsave
133.6 125.9 44.97 31.73 clipbox
44.965625 151.955057 m
45.263236 148.313056 l
45.858457 144.586002 l
46.751289 141.024249 l
47.644121 138.581744 l
48.239342 137.197691 l
49.727396 134.746503 l
50.620228 133.672921 l
51.51306 132.733536 l
52.703502 130.972532 l
53.596334 129.993559 l
54.489166 129.355347 l
55.97722 128.792659 l
56.572441 128.066996 l
57.167662 126.971187 l
58.060494 125.801284 l
58.953326 125.562878 l
59.548547 125.589425 l
60.143769 125.349745 l
61.929433 124.627363 l
62.524654 124.468316 l
64.310318 123.33064 l
65.798371 121.650209 l
68.179257 118.503529 l
69.964921 115.734978 l
71.452974 113.852915 l
72.048195 113.194896 l
72.941027 111.772857 l
73.238638 111.728413 l
73.536249 111.335244 l
73.833859 111.644172 l
74.13147 111.34659 l
74.429081 111.680143 l
74.726691 110.558573 l
75.024302 110.75251 l
75.619523 110.251678 l
75.917134 110.331483 l
76.214745 109.432734 l
76.512355 109.891197 l
76.809966 108.320964 l
77.107577 111.094014 l
77.405187 109.43331 l
77.702798 108.992603 l
78.000409 109.360204 l
78.298019 110.518369 l
78.893241 110.356053 l
79.190851 110.270226 l
79.488462 111.353123 l
79.786073 111.248543 l
80.083683 110.697336 l
80.381294 109.209831 l
80.678905 111.439584 l
80.976515 111.09111 l
81.274126 110.453305 l
81.571736 111.966785 l
81.869347 110.199122 l
82.464568 108.972582 l
82.762179 110.221897 l
83.05979 110.009046 l
83.3574 109.201587 l
83.655011 110.363734 l
83.952622 108.661521 l
84.250232 110.331211 l
84.547843 109.403916 l
84.845454 109.45459 l
85.143064 107.966054 l
85.440675 108.753837 l
85.738286 109.918382 l
86.035896 109.555426 l
86.333507 110.362069 l
86.631118 107.527183 l
86.928728 108.57047 l
87.226339 108.163959 l
87.52395 109.428129 l
87.82156 109.413518 l
88.119171 107.742198 l
88.416782 111.195193 l
88.714392 111.396931 l
89.309614 108.676906 l
89.607224 108.442391 l
89.904835 111.286767 l
90.202446 108.060292 l
90.500056 110.17561 l
90.797667 110.779258 l
91.392888 111.354588 l
91.690499 110.396196 l
91.98811 111.374201 l
92.583331 109.570938 l
92.880942 111.281967 l
93.178552 109.82834 l
93.476163 109.893962 l
93.773774 110.856397 l
94.071384 109.124023 l
94.368995 109.377714 l
94.666606 108.764546 l
94.964216 109.019493 l
95.261827 107.710809 l
95.559438 108.123816 l
95.857048 106.363968 l
96.154659 107.71569 l
96.45227 110.302002 l
96.74988 107.339507 l
97.047491 107.491661 l
97.345102 107.28908 l
97.642712 109.683552 l
97.940323 108.941082 l
98.237934 109.973106 l
98.535544 109.493761 l
98.833155 109.605035 l
99.130766 107.907289 l
99.428376 109.150065 l
100.023598 107.141046 l
100.321208 107.061964 l
100.618819 107.701097 l
100.91643 110.313318 l
101.21404 107.320616 l
101.511651 107.418975 l
101.809262 110.616173 l
102.106872 108.477995 l
102.404483 107.613894 l
103.297315 108.239418 l
103.594926 111.0431 l
103.892536 108.699953 l
104.190147 108.816605 l
104.487758 110.462882 l
104.785368 110.292782 l
105.082979 107.91752 l
105.38059 109.944174 l
105.6782 110.576007 l
105.975811 108.669429 l
106.571032 109.288369 l
106.868643 111.930972 l
107.166253 109.296328 l
107.761475 108.222387 l
108.059085 109.106627 l
108.356696 108.451945 l
108.654307 110.089722 l
108.951917 108.628894 l
109.249528 109.490802 l
109.547139 108.595025 l
109.844749 109.073957 l
110.14236 109.76823 l
110.439971 110.073903 l
110.737581 108.525222 l
111.035192 109.022115 l
111.332803 110.143785 l
111.630413 109.063913 l
111.928024 108.857316 l
112.225635 108.385383 l
112.820856 108.533893 l
113.118467 108.328849 l
113.416077 108.729554 l
113.713688 109.8453 l
114.011299 112.205775 l
114.308909 108.529254 l
114.60652 109.402561 l
114.904131 108.487629 l
115.201741 111.154808 l
115.499352 111.057336 l
115.796963 110.429033 l
116.094573 112.184787 l
116.392184 108.727166 l
116.689795 109.176851 l
116.987405 110.060877 l
117.285016 107.875571 l
117.880237 110.586812 l
118.177848 112.026217 l
118.475459 109.486519 l
118.773069 108.085178 l
119.368291 109.257307 l
119.665901 111.883868 l
119.963512 110.913543 l
120.261123 109.03077 l
120.558733 109.072063 l
120.856344 110.998475 l
121.153955 109.392567 l
121.451565 109.479504 l
121.749176 108.831025 l
122.046787 108.912759 l
122.344397 109.125 l
122.642008 111.389536 l
122.939619 108.436864 l
123.237229 110.450174 l
123.53484 108.877866 l
123.832451 108.394597 l
124.130061 109.811525 l
124.427672 108.568319 l
124.725283 109.700207 l
125.022893 109.025493 l
125.320504 111.467389 l
125.618115 109.499391 l
125.915725 109.256845 l
126.213336 108.607033 l
126.510947 109.329049 l
126.808557 111.806193 l
127.106168 108.738873 l
127.403779 107.99523 l
127.999 108.800415 l
128.296611 108.536964 l
128.594221 110.767518 l
128.891832 109.575952 l
129.189443 108.913705 l
129.487053 109.075086 l
129.784664 108.436364 l
130.082274 108.422178 l
130.379885 108.111021 l
130.677496 108.832043 l
130.975106 108.327453 l
131.272717 108.86971 l
131.570328 110.878829 l
131.867938 108.64118 l
132.165549 109.70176 l
132.46316 109.747011 l
133.058381 107.806804 l
133.355992 110.472912 l
133.653602 108.751667 l
134.248824 109.922602 l
134.546434 111.541347 l
134.844045 110.8549 l
135.141656 108.031352 l
135.439266 108.282865 l
135.736877 109.507823 l
136.034488 108.164542 l
136.332098 108.460627 l
136.629709 109.021215 l
136.92732 110.73589 l
137.22493 111.747198 l
137.522541 111.636169 l
137.820152 108.895069 l
138.117762 112.563186 l
138.415373 112.261458 l
138.712984 109.911076 l
139.010594 109.142942 l
139.308205 112.90949 l
139.605816 109.488419 l
139.903426 111.896513 l
140.201037 112.521014 l
140.498648 110.690467 l
140.796258 111.007971 l
141.093869 113.239868 l
141.39148 112.305314 l
141.68909 112.006342 l
141.986701 111.091184 l
142.284312 110.635889 l
142.581922 109.29834 l
142.879533 111.296393 l
143.177144 109.867475 l
143.474754 109.050951 l
143.772365 109.507729 l
144.069976 109.510727 l
144.367586 112.220769 l
144.665197 112.2195 l
144.962808 112.465261 l
145.260418 108.638848 l
145.558029 110.98736 l
145.85564 108.664096 l
146.15325 108.828791 l
146.450861 111.682609 l
146.748472 109.054945 l
147.046082 109.946661 l
147.343693 108.731163 l
147.641304 112.750214 l
147.938914 109.731103 l
148.236525 108.575708 l
148.534136 111.924434 l
148.831746 111.28065 l
149.129357 109.402395 l
149.426968 109.396059 l
149.724578 108.932619 l
150.022189 108.736525 l
150.3198 109.59044 l
150.61741 108.713681 l
150.915021 110.636289 l
151.212632 108.579538 l
151.510242 109.62669 l
151.807853 109.946086 l
152.105464 111.93544 l
152.403074 109.405532 l
152.700685 113.649084 l
152.998296 110.868493 l
153.295906 110.541233 l
153.593517 111.744923 l
153.891128 111.663872 l
154.486349 109.126502 l
155.08157 110.992854 l
155.379181 109.499686 l
155.676791 114.244655 l
155.974402 110.410622 l
156.272013 111.480921 l
156.569623 108.902262 l
156.867234 112.730094 l
157.164845 109.933935 l
157.462455 110.813899 l
157.760066 109.005982 l
158.057677 110.257353 l
158.355287 108.709781 l
159.248119 112.7831 l
159.54573 109.092344 l
159.843341 109.76589 l
160.140951 110.973662 l
160.438562 109.536008 l
160.736173 111.554284 l
161.033783 108.912327 l
161.331394 109.560557 l
161.629005 111.017499 l
161.926615 109.121676 l
162.224226 112.251159 l
162.521837 109.274606 l
162.819447 110.289421 l
163.117058 112.450311 l
163.414669 108.943433 l
163.712279 112.028607 l
164.00989 111.518641 l
164.307501 109.919932 l
164.605111 110.248886 l
164.902722 109.005701 l
165.200333 112.3977 l
165.497943 111.681713 l
165.795554 109.400805 l
166.093165 109.434035 l
166.390775 109.027568 l
166.688386 109.333004 l
166.985997 112.324279 l
167.283607 110.779778 l
167.581218 111.84804 l
167.878829 111.737741 l
168.176439 108.923782 l
168.47405 109.152928 l
168.771661 111.019739 l
169.069271 109.736706 l
169.366882 110.696701 l
169.664493 111.134814 l
169.962103 109.639762 l
170.259714 109.175889 l
170.854935 114.767725 l
171.152546 112.248427 l
171.450157 112.061583 l
171.747767 112.902104 l
172.045378 110.684569 l
172.640599 109.723396 l
172.93821 111.148761 l
173.235821 110.548555 l
173.533431 110.247365 l
173.831042 108.977661 l
174.128653 110.015715 l
174.426263 109.328272 l
175.021485 113.265581 l
175.319095 111.8226 l
175.616706 111.757511 l
175.914317 112.79224 l
176.211927 112.840061 l
176.509538 109.334344 l
176.807149 113.959699 l
177.104759 114.042416 l
177.40237 112.670831 l
177.699981 109.03746 l
177.997591 109.67651 l
178.295202 111.771721 l
178.592812 109.077206 l
178.592812 109.077206 l
stroke
grestore
0.800 setlinewidth
0 setlinecap
0.000 setgray
gsave
/o {
gsave
newpath
translate
0.8 setlinewidth
1 setlinejoin
0 setlinecap
0 0 m
0 -3.5 l

gsave
0.000 setgray
fill
grestore
stroke
grestore
} bind def
44.9656 31.7312 o
grestore
/DejaVuSans findfont
7.000 scalefont
setfont
gsave
42.739063 19.418750 translate
0.000000 rotate
0.000000 0 m /zero glyphshow
grestore
gsave
/o {
gsave
newpath
translate
0.8 setlinewidth
1 setlinejoin
0 setlinecap
0 0 m
0 -3.5 l

gsave
0.000 setgray
fill
grestore
stroke
grestore
} bind def
74.7267 31.7312 o
grestore
gsave
68.047004 19.418750 translate
0.000000 rotate
0.000000 0 m /one glyphshow
4.453613 0 m /zero glyphshow
8.907227 0 m /zero glyphshow
grestore
gsave
/o {
gsave
newpath
translate
0.8 setlinewidth
1 setlinejoin
0 setlinecap
0 0 m
0 -3.5 l

gsave
0.000 setgray
fill
grestore
stroke
grestore
} bind def
104.488 31.7312 o
grestore
gsave
97.808070 19.418750 translate
0.000000 rotate
0.000000 0 m /two glyphshow
4.453613 0 m /zero glyphshow
8.907227 0 m /zero glyphshow
grestore
gsave
/o {
gsave
newpath
translate
0.8 setlinewidth
1 setlinejoin
0 setlinecap
0 0 m
0 -3.5 l

gsave
0.000 setgray
fill
grestore
stroke
grestore
} bind def
134.249 31.7312 o
grestore
gsave
127.569136 19.418750 translate
0.000000 rotate
0.000000 0 m /three glyphshow
4.453613 0 m /zero glyphshow
8.907227 0 m /zero glyphshow
grestore
gsave
/o {
gsave
newpath
translate
0.8 setlinewidth
1 setlinejoin
0 setlinecap
0 0 m
0 -3.5 l

gsave
0.000 setgray
fill
grestore
stroke
grestore
} bind def
164.01 31.7312 o
grestore
gsave
157.330203 19.418750 translate
0.000000 rotate
0.000000 0 m /four glyphshow
4.453613 0 m /zero glyphshow
8.907227 0 m /zero glyphshow
grestore
gsave
84.927656 8.653125 translate
0.000000 rotate
0.000000 0 m /I glyphshow
2.064453 0 m /n glyphshow
6.500977 0 m /n glyphshow
10.937500 0 m /e glyphshow
15.244141 0 m /r glyphshow
18.122070 0 m /space glyphshow
20.347168 0 m /I glyphshow
22.411621 0 m /t glyphshow
25.156250 0 m /e glyphshow
29.462891 0 m /r glyphshow
32.340820 0 m /a glyphshow
36.630371 0 m /t glyphshow
39.375000 0 m /i glyphshow
41.319824 0 m /o glyphshow
45.602539 0 m /n glyphshow
50.039062 0 m /s glyphshow
grestore
gsave
/o {
gsave
newpath
translate
0.8 setlinewidth
1 setlinejoin
0 setlinecap
0 0 m
-3.5 0 l

gsave
0.000 setgray
fill
grestore
stroke
grestore
} bind def
44.9656 53.1319 o
grestore
gsave
17.965625 49.858508 translate
0.000000 rotate
/DejaVuSans findfont
7.0 scalefont
setfont
0.000000 0.678125 moveto
/one glyphshow
4.453613 0.678125 moveto
/zero glyphshow
/DejaVuSans findfont
4.8999999999999995 scalefont
setfont
8.974219 3.357812 moveto
/minus glyphshow
13.079883 3.357812 moveto
/one glyphshow
16.197412 3.357812 moveto
/six glyphshow

grestore
gsave
/o {
gsave
newpath
translate
0.8 setlinewidth
1 setlinejoin
0 setlinecap
0 0 m
-3.5 0 l

gsave
0.000 setgray
fill
grestore
stroke
grestore
} bind def
44.9656 76.0078 o
grestore
gsave
17.965625 72.734361 translate
0.000000 rotate
/DejaVuSans findfont
7.0 scalefont
setfont
0.000000 0.678125 moveto
/one glyphshow
4.453613 0.678125 moveto
/zero glyphshow
/DejaVuSans findfont
4.8999999999999995 scalefont
setfont
8.974219 3.357812 moveto
/minus glyphshow
13.079883 3.357812 moveto
/one glyphshow
16.197412 3.357812 moveto
/three glyphshow

grestore
gsave
/o {
gsave
newpath
translate
0.8 setlinewidth
1 setlinejoin
0 setlinecap
0 0 m
-3.5 0 l

gsave
0.000 setgray
fill
grestore
stroke
grestore
} bind def
44.9656 98.8837 o
grestore
gsave
17.965625 95.610214 translate
0.000000 rotate
/DejaVuSans findfont
7.0 scalefont
setfont
0.000000 0.678125 moveto
/one glyphshow
4.453613 0.678125 moveto
/zero glyphshow
/DejaVuSans findfont
4.8999999999999995 scalefont
setfont
8.974219 3.357812 moveto
/minus glyphshow
13.079883 3.357812 moveto
/one glyphshow
16.197412 3.357812 moveto
/zero glyphshow

grestore
gsave
/o {
gsave
newpath
translate
0.8 setlinewidth
1 setlinejoin
0 setlinecap
0 0 m
-3.5 0 l

gsave
0.000 setgray
fill
grestore
stroke
grestore
} bind def
44.9656 121.76 o
grestore
gsave
20.965625 118.486067 translate
0.000000 rotate
/DejaVuSans findfont
7.0 scalefont
setfont
0.000000 0.743750 moveto
/one glyphshow
4.453613 0.743750 moveto
/zero glyphshow
/DejaVuSans findfont
4.8999999999999995 scalefont
setfont
8.974219 3.423438 moveto
/minus glyphshow
13.079883 3.423438 moveto
/seven glyphshow

grestore
gsave
/o {
gsave
newpath
translate
0.8 setlinewidth
1 setlinejoin
0 setlinecap
0 0 m
-3.5 0 l

gsave
0.000 setgray
fill
grestore
stroke
grestore
} bind def
44.9656 144.635 o
grestore
gsave
20.965625 141.361920 translate
0.000000 rotate
/DejaVuSans findfont
7.0 scalefont
setfont
0.000000 0.743750 moveto
/one glyphshow
4.453613 0.743750 moveto
/zero glyphshow
/DejaVuSans findfont
4.8999999999999995 scalefont
setfont
8.974219 3.423438 moveto
/minus glyphshow
13.079883 3.423438 moveto
/four glyphshow

grestore
gsave
12.512500 47.674375 translate
90.000000 rotate
0.000000 0 m /N glyphshow
5.236328 0 m /o glyphshow
9.519043 0 m /r glyphshow
12.271973 0 m /m glyphshow
19.090820 0 m /w glyphshow
24.815918 0 m /i glyphshow
26.760742 0 m /s glyphshow
30.407715 0 m /e glyphshow
34.714355 0 m /space glyphshow
36.939453 0 m /B glyphshow
41.741699 0 m /a glyphshow
46.031250 0 m /c glyphshow
49.879883 0 m /k glyphshow
53.933594 0 m /w glyphshow
59.658691 0 m /a glyphshow
63.948242 0 m /r glyphshow
66.701172 0 m /d glyphshow
71.144531 0 m /s glyphshow
74.791504 0 m /space glyphshow
77.016602 0 m /E glyphshow
81.439453 0 m /r glyphshow
84.192383 0 m /r glyphshow
86.945312 0 m /o glyphshow
91.228027 0 m /r glyphshow
grestore
0 setlinejoin
2 setlinecap
[] 0 setdash
gsave
44.965625 31.73125 m
44.965625 157.68 l
stroke
grestore
gsave
178.592812 31.73125 m
178.592812 157.68 l
stroke
grestore
gsave
44.965625 31.73125 m
178.592812 31.73125 l
stroke
grestore
gsave
44.965625 157.68 m
178.592812 157.68 l
stroke
grestore
gsave
189.652813 31.73125 m
323.28 31.73125 l
323.28 157.68 l
189.652813 157.68 l
cl
1.000 setgray
fill
grestore
1.500 setlinewidth
1 setlinejoin
0 setlinecap
[] 0 setdash
gsave
133.6 125.9 189.7 31.73 clipbox
/o {
gsave
newpath
translate
1.5 setlinewidth
1 setlinejoin
0 setlinecap
0 -3 m
0 3 l

gsave
0.000 setgray
fill
grestore
stroke
grestore
} bind def
278.638 107.594 o
grestore
gsave
133.6 125.9 189.7 31.73 clipbox
/o {
gsave
newpath
translate
1.5 setlinewidth
1 setlinejoin
0 setlinecap
0 -3 m
0 3 l

gsave
0.000 setgray
fill
grestore
stroke
grestore
} bind def
278.638 45.0129 o
grestore
[9.6 2.4 1.5 2.4] 0 setdash
gsave
133.6 125.9 189.7 31.73 clipbox
189.652813 151.955057 m
189.950423 148.313045 l
190.545644 144.585992 l
191.438476 141.024249 l
192.331308 138.581744 l
192.92653 137.197691 l
194.414583 134.746503 l
195.307415 133.672949 l
196.200247 132.7335 l
197.39069 130.972491 l
198.283522 129.993587 l
199.176354 129.35534 l
200.664407 128.792655 l
201.259628 128.066996 l
201.85485 126.971379 l
202.747682 125.801802 l
203.640514 125.563414 l
204.235735 125.589956 l
204.830956 125.349902 l
206.61662 124.627252 l
207.211842 124.468433 l
208.997506 123.329795 l
210.485559 121.649623 l
212.866444 118.50221 l
214.949719 115.244038 l
215.54494 114.41523 l
216.140161 113.865369 l
217.330604 112.461717 l
218.223436 110.959354 l
219.116268 110.221141 l
219.711489 109.167724 l
220.901932 107.663431 l
221.199543 107.801317 l
221.497153 108.373806 l
221.794764 108.524681 l
222.389985 108.255384 l
222.985207 108.366141 l
223.282817 107.996942 l
223.580428 108.66223 l
223.878039 107.361494 l
224.175649 106.913498 l
224.47326 107.02159 l
224.770871 106.888167 l
225.068481 107.156878 l
225.366092 106.612573 l
225.663703 106.484045 l
225.961313 106.668933 l
226.258924 107.643554 l
226.556535 107.572552 l
226.854145 107.686485 l
227.449367 107.469113 l
227.746977 107.814561 l
228.044588 107.904487 l
228.342199 107.504067 l
228.639809 108.058302 l
228.93742 107.542416 l
229.532641 107.571664 l
229.830252 107.847683 l
230.425473 107.550598 l
230.723084 107.573993 l
231.020695 107.715621 l
231.318305 107.542973 l
231.615916 107.5338 l
231.913527 107.74767 l
232.211137 107.550598 l
232.508748 107.662473 l
232.806359 107.560545 l
233.103969 107.748103 l
233.996801 107.747465 l
234.592023 107.827818 l
234.889633 107.615933 l
235.187244 107.596723 l
235.484855 107.826261 l
236.377687 107.567553 l
236.675297 107.75777 l
236.972908 107.63468 l
237.568129 107.764032 l
237.86574 107.744775 l
238.163351 107.567071 l
239.056182 107.745026 l
239.353793 107.568755 l
239.651404 107.834527 l
240.841846 107.764191 l
241.139457 107.596413 l
271.793355 107.594433 l
278.638401 107.594433 l
278.936011 104.798418 l
279.828843 104.565582 l
282.507339 104.525446 l
283.697782 104.523432 l
295.006987 104.504081 l
297.387872 104.57442 l
300.066368 104.546621 l
306.316192 104.536483 l
323.28 104.543223 l
323.28 104.543223 l
stroke
grestore
2 setlinecap
[] 0 setdash
gsave
133.6 125.9 189.7 31.73 clipbox
189.652813 151.955057 m
189.950423 148.313056 l
190.545644 144.585999 l
191.438476 141.024249 l
192.331308 138.581744 l
192.92653 137.197691 l
194.414583 134.74651 l
195.307415 133.672939 l
196.200247 132.733512 l
197.39069 130.972512 l
198.283522 129.993559 l
199.176354 129.355347 l
200.664407 128.792639 l
201.259628 128.066922 l
201.85485 126.971256 l
202.747682 125.801617 l
203.640514 125.563204 l
204.235735 125.589998 l
204.830956 125.350025 l
206.61662 124.627043 l
207.211842 124.468287 l
208.997506 123.329754 l
210.485559 121.649565 l
212.866444 118.503449 l
214.652108 115.728334 l
215.54494 114.392334 l
216.140161 113.811493 l
216.735383 113.125809 l
218.818657 110.041662 l
220.0091 108.26481 l
221.794764 105.642845 l
224.47326 103.510923 l
225.068481 102.78495 l
225.961313 101.193185 l
226.854145 99.27694 l
227.746977 97.324968 l
228.342199 95.755027 l
229.235031 94.207992 l
231.615916 90.627965 l
233.40158 86.734184 l
234.294412 85.49669 l
235.187244 84.375333 l
237.270519 80.236702 l
239.353793 75.62536 l
240.544236 72.738785 l
242.032289 69.175924 l
243.520342 66.778464 l
246.198838 61.117803 l
247.389281 57.892014 l
248.579724 54.900735 l
249.770166 52.441656 l
250.662998 51.047858 l
252.746273 46.801731 l
253.341494 45.798089 l
253.639105 45.682429 l
253.936716 45.405147 l
254.531937 45.290068 l
254.829548 45.483232 l
255.127158 45.201389 l
255.72238 45.130313 l
256.01999 44.844213 l
256.615212 45.087906 l
257.805654 45.041799 l
267.031585 45.036624 l
269.114859 45.039096 l
278.638401 45.012872 l
278.936011 38.740124 l
279.233622 38.181044 l
279.828843 37.975822 l
280.424065 38.036069 l
280.721675 37.992773 l
281.316897 38.093934 l
282.209729 38.078369 l
283.102561 38.120629 l
289.054774 38.217596 l
291.435659 38.203624 l
294.411766 38.265242 l
299.768758 38.240049 l
323.28 38.278986 l
323.28 38.278986 l
stroke
grestore
0 setlinecap
gsave
133.6 125.9 189.7 31.73 clipbox
/o {
gsave
newpath
translate
1.5 setlinewidth
1 setlinejoin
0 setlinecap
0 -3 m
0 3 l

gsave
0.000 setgray
fill
grestore
stroke
grestore
} bind def
214.95 115.252 o
249.473 80.692 o
284.293 41.4652 o
319.113 38.324 o
grestore
0.298 setgray
gsave
133.6 125.9 189.7 31.73 clipbox
/o {
gsave
newpath
translate
1.5 setlinewidth
1 setlinejoin
0 setlinecap
0 -3 m
0 3 l

gsave
0.298 setgray
fill
grestore
stroke
grestore
} bind def
220.307 108.369 o
251.258 75.6363 o
266.436 61.9956 o
297.388 38.5414 o
313.161 37.7786 o
grestore
0.604 setgray
gsave
133.6 125.9 189.7 31.73 clipbox
/o {
gsave
newpath
translate
1.5 setlinewidth
1 setlinejoin
0 setlinecap
0 -3 m
0 3 l

gsave
0.604 setgray
fill
grestore
stroke
grestore
} bind def
226.259 107.74 o
263.163 66.5434 o
276.258 45.8679 o
313.161 38.3716 o
grestore
[1.5 2.475] 0 setdash
0.000 setgray
gsave
133.6 125.9 189.7 31.73 clipbox
189.652813 151.955057 m
189.950423 148.313045 l
190.545644 144.585992 l
191.438476 141.024239 l
192.331308 138.581744 l
192.92653 137.197691 l
194.414583 134.746503 l
195.307415 133.672949 l
196.200247 132.733536 l
197.39069 130.972512 l
198.283522 129.993559 l
199.176354 129.35533 l
200.664407 128.79269 l
201.259628 128.06707 l
201.85485 126.971503 l
202.747682 125.801773 l
203.640514 125.56354 l
204.235735 125.590081 l
204.830956 125.349969 l
206.61662 124.626806 l
207.211842 124.468097 l
208.997506 123.330186 l
210.485559 121.649764 l
212.866444 118.503069 l
214.949719 115.25201 l
215.842551 113.859618 l
216.437772 113.47703 l
217.330604 112.596757 l
219.116268 110.673269 l
220.306711 109.424575 l
223.878039 104.728005 l
225.366092 103.483682 l
227.449367 101.945969 l
228.044588 101.260524 l
228.342199 101.051192 l
228.639809 100.684702 l
231.318305 99.245056 l
232.211137 99.09773 l
233.699191 98.88716 l
234.592023 97.965854 l
235.484855 96.764979 l
236.972908 95.629773 l
238.460961 94.131251 l
239.353793 92.777771 l
241.139457 89.136132 l
241.437068 89.710757 l
241.734678 88.974333 l
242.62751 88.110933 l
243.817953 86.660912 l
244.115564 86.619965 l
244.710785 86.197768 l
245.306006 85.894436 l
246.198838 85.181328 l
246.79406 84.35702 l
247.09167 84.024695 l
247.686892 82.529546 l
248.282113 81.877013 l
248.579724 81.829011 l
249.174945 81.065055 l
249.472556 80.691972 l
249.770166 81.080961 l
250.067777 80.608333 l
250.365388 77.357117 l
250.960609 76.080868 l
251.55583 75.173936 l
253.043884 72.552907 l
254.531937 70.367433 l
256.01999 67.435772 l
256.615212 66.692289 l
257.508044 65.911175 l
258.103265 65.422174 l
259.293708 64.064921 l
259.888929 63.505572 l
261.079372 62.139675 l
261.376982 61.978559 l
264.353089 61.625902 l
264.94831 61.236184 l
265.543531 60.851257 l
266.436363 60.322835 l
267.031585 60.124949 l
267.626806 59.594547 l
267.924417 59.476598 l
268.519638 59.039466 l
268.817249 58.990862 l
269.41247 58.392629 l
270.305302 57.309878 l
271.198134 56.320107 l
273.579019 52.88138 l
274.471851 51.30007 l
275.364683 50.272947 l
275.959905 49.778397 l
276.852737 48.876281 l
277.745569 48.097499 l
278.638401 46.805716 l
279.828843 45.182061 l
280.126454 44.853596 l
280.721675 43.876649 l
281.019286 43.45789 l
281.316897 43.389439 l
281.614507 42.820451 l
281.912118 42.65161 l
282.209729 42.300116 l
282.507339 42.593331 l
282.80495 42.235604 l
283.400171 41.977492 l
283.697782 42.203516 l
283.995393 41.533079 l
284.293003 41.465239 l
284.590614 41.511704 l
284.888225 41.319501 l
285.185835 41.624269 l
285.483446 39.592281 l
286.078667 39.19503 l
287.56672 38.930599 l
288.757163 38.648307 l
289.947606 38.558491 l
290.542827 38.440872 l
291.435659 38.42284 l
292.03088 38.387387 l
293.518934 38.358324 l
293.816544 38.391051 l
294.411766 38.266539 l
295.899819 38.390285 l
296.49504 38.300648 l
300.66159 38.321909 l
303.042475 38.290098 l
303.637696 38.291298 l
304.530528 38.282479 l
307.804246 38.29434 l
315.542123 38.32443 l
320.303893 38.320198 l
320.601504 37.700357 l
321.196725 37.611987 l
323.28 37.759589 l
323.28 37.759589 l
stroke
grestore
2 setlinecap
[] 0 setdash
0.298 setgray
gsave
133.6 125.9 189.7 31.73 clipbox
189.652813 151.955057 m
189.950423 148.313045 l
190.545644 144.585992 l
191.438476 141.024239 l
192.331308 138.581744 l
192.92653 137.197691 l
194.414583 134.746503 l
195.307415 133.672949 l
196.200247 132.733536 l
197.39069 130.972512 l
198.283522 129.993559 l
199.176354 129.35533 l
200.664407 128.79269 l
201.259628 128.06707 l
201.85485 126.971503 l
202.747682 125.801773 l
203.640514 125.56354 l
204.235735 125.590081 l
204.830956 125.349969 l
206.61662 124.626806 l
207.211842 124.468097 l
208.997506 123.330186 l
210.485559 121.649764 l
212.866444 118.503069 l
214.949719 115.25201 l
215.54494 114.407158 l
215.842551 114.195283 l
216.437772 113.607562 l
216.735383 113.320441 l
217.032993 112.790074 l
217.330604 112.491267 l
217.925825 111.329996 l
218.521047 110.67757 l
219.116268 110.341564 l
219.413879 109.579374 l
220.604321 107.840203 l
220.901932 106.802759 l
221.497153 106.227277 l
221.794764 106.12977 l
222.687596 105.321836 l
222.985207 105.210467 l
225.366092 102.989212 l
226.854145 100.300622 l
228.639809 96.970266 l
229.235031 96.134755 l
232.508748 92.354751 l
234.294412 89.766158 l
234.592023 89.404956 l
235.187244 88.395629 l
235.782465 87.546797 l
236.080076 87.038719 l
236.675297 86.743854 l
239.056182 83.538227 l
239.651404 83.006929 l
239.949014 82.623181 l
240.544236 82.126406 l
241.734678 81.032062 l
242.3299 80.417744 l
243.520342 79.562752 l
245.603617 77.248992 l
246.198838 76.598028 l
246.496449 76.527678 l
246.79406 76.253729 l
247.389281 76.733944 l
247.686892 76.599607 l
247.984502 76.936053 l
248.282113 76.695369 l
248.877334 76.797818 l
249.174945 76.502334 l
249.472556 76.599191 l
249.770166 76.983009 l
250.067777 76.857565 l
250.365388 76.931672 l
250.662998 76.412331 l
250.960609 76.227863 l
251.25822 75.636337 l
251.853441 75.092565 l
252.151052 73.634543 l
253.341494 72.704465 l
253.936716 71.84608 l
255.127158 70.112269 l
256.615212 68.070888 l
257.805654 66.91861 l
258.698486 66.731186 l
259.591318 66.683516 l
260.18654 66.496218 l
261.079372 66.087194 l
263.162646 65.496228 l
264.055478 64.62468 l
264.94831 63.418821 l
265.543531 62.57012 l
266.138753 62.159098 l
267.329195 61.445365 l
270.900523 58.513014 l
271.495745 57.568801 l
272.388577 56.031909 l
273.281409 54.92229 l
274.174241 54.437414 l
274.769462 54.078017 l
275.959905 53.097237 l
278.638401 51.765857 l
280.126454 52.224988 l
280.721675 52.089521 l
281.316897 51.700569 l
281.912118 51.084336 l
282.507339 50.467048 l
282.80495 50.549078 l
283.995393 47.51577 l
285.185835 45.844735 l
285.781057 45.298444 l
286.673889 43.962474 l
287.26911 43.35882 l
287.864331 42.867088 l
289.649995 40.647306 l
290.245216 40.055176 l
292.328491 38.928813 l
293.518934 38.819849 l
294.114155 38.700306 l
294.411766 38.71316 l
294.709376 38.594705 l
295.602208 38.641944 l
298.578315 38.487694 l
298.875926 37.66114 l
299.173536 37.617454 l
299.768758 37.744679 l
300.066368 37.648435 l
300.9592 37.755511 l
301.554422 37.731725 l
303.042475 37.78771 l
303.637696 37.761093 l
304.530528 37.826316 l
305.12575 37.798223 l
314.649291 37.8157 l
314.946901 37.464673 l
315.244512 37.456193 l
315.839733 37.678836 l
317.030176 37.684748 l
317.923008 37.775625 l
323.28 37.779374 l
323.28 37.779374 l
stroke
grestore
0.604 setgray
gsave
133.6 125.9 189.7 31.73 clipbox
189.652813 151.955057 m
189.950423 148.313045 l
190.545644 144.585992 l
191.438476 141.024239 l
192.331308 138.581744 l
192.92653 137.197691 l
194.414583 134.746503 l
195.307415 133.672949 l
196.200247 132.733536 l
197.39069 130.972512 l
198.283522 129.993559 l
199.176354 129.35533 l
200.664407 128.79269 l
201.259628 128.06707 l
201.85485 126.971503 l
202.747682 125.801773 l
203.640514 125.56354 l
204.235735 125.590081 l
204.830956 125.349969 l
206.61662 124.626806 l
207.211842 124.468097 l
208.997506 123.330186 l
210.485559 121.649764 l
212.866444 118.503069 l
214.949719 115.25201 l
215.54494 114.407158 l
215.842551 114.195283 l
216.437772 113.607562 l
216.735383 113.320441 l
217.032993 112.790074 l
217.330604 112.491267 l
217.925825 111.329996 l
218.521047 110.67757 l
219.116268 110.341564 l
219.413879 109.579374 l
220.604321 107.840203 l
220.901932 107.630387 l
221.199543 107.610809 l
221.497153 108.437308 l
221.794764 108.422271 l
222.092375 108.246068 l
223.282817 108.207846 l
223.580428 108.270476 l
223.878039 107.174883 l
224.175649 106.875444 l
224.47326 106.930336 l
224.770871 106.652896 l
225.068481 107.098112 l
225.366092 106.407858 l
226.258924 107.739801 l
226.556535 107.893561 l
226.854145 102.332908 l
227.449367 100.524722 l
228.044588 98.549617 l
228.639809 97.859275 l
230.425473 94.459415 l
230.723084 94.078961 l
231.615916 93.622906 l
232.508748 92.878247 l
233.103969 92.304138 l
234.889633 90.729954 l
235.782465 89.879397 l
236.377687 89.197327 l
237.568129 87.62137 l
238.163351 87.276694 l
239.056182 87.166345 l
240.246625 87.265821 l
240.841846 87.169477 l
241.734678 86.507468 l
242.3299 86.271914 l
242.62751 86.236935 l
243.817953 84.727135 l
245.008396 84.09206 l
246.198838 82.226664 l
247.389281 81.096533 l
247.984502 80.703366 l
250.365388 77.66756 l
250.960609 77.270549 l
252.746273 74.625843 l
255.127158 71.865675 l
256.01999 71.342655 l
256.615212 70.726443 l
256.912822 70.614056 l
257.805654 69.555489 l
258.103265 69.180429 l
258.400876 69.33269 l
258.996097 68.030983 l
259.293708 67.944738 l
259.591318 68.131706 l
260.18654 67.661152 l
260.781761 66.26846 l
261.079372 66.545487 l
261.376982 66.020935 l
261.674593 65.769116 l
261.972204 66.647403 l
262.269814 66.98757 l
262.865035 66.847415 l
263.162646 66.543352 l
263.460257 66.710193 l
263.757867 66.575963 l
264.055478 61.784985 l
264.353089 60.234794 l
264.94831 59.352431 l
265.245921 59.228048 l
267.031585 57.03513 l
270.305302 51.515935 l
270.900523 50.611102 l
272.983798 47.928671 l
274.471851 46.581141 l
275.364683 46.452235 l
276.852737 45.325627 l
277.150347 45.039432 l
277.745569 44.164284 l
278.638401 43.470151 l
279.828843 43.071589 l
280.126454 42.983314 l
281.912118 43.279909 l
283.102561 42.865596 l
284.293003 42.000645 l
286.376278 39.914607 l
288.161942 38.869636 l
290.542827 38.478609 l
291.138048 38.470803 l
291.435659 38.415379 l
292.03088 38.459808 l
293.518934 38.441711 l
294.411766 38.421827 l
295.006987 38.374257 l
295.899819 38.457945 l
300.9592 38.408354 l
303.042475 38.410895 l
304.232918 38.382921 l
305.42336 38.407054 l
311.375573 38.372973 l
314.35168 38.369746 l
314.649291 37.676363 l
315.244512 37.68375 l
317.923008 37.850749 l
319.113451 37.825515 l
319.708672 37.938601 l
320.601504 37.858334 l
321.196725 37.901418 l
323.28 37.882536 l
323.28 37.882536 l
stroke
grestore
0.800 setlinewidth
0 setlinecap
0.000 setgray
gsave
/o {
gsave
newpath
translate
0.8 setlinewidth
1 setlinejoin
0 setlinecap
0 0 m
0 -3.5 l

gsave
0.000 setgray
fill
grestore
stroke
grestore
} bind def
189.653 31.7312 o
grestore
gsave
187.426250 19.418750 translate
0.000000 rotate
0.000000 0 m /zero glyphshow
grestore
gsave
/o {
gsave
newpath
translate
0.8 setlinewidth
1 setlinejoin
0 setlinecap
0 0 m
0 -3.5 l

gsave
0.000 setgray
fill
grestore
stroke
grestore
} bind def
219.414 31.7312 o
grestore
gsave
212.734191 19.418750 translate
0.000000 rotate
0.000000 0 m /one glyphshow
4.453613 0 m /zero glyphshow
8.907227 0 m /zero glyphshow
grestore
gsave
/o {
gsave
newpath
translate
0.8 setlinewidth
1 setlinejoin
0 setlinecap
0 0 m
0 -3.5 l

gsave
0.000 setgray
fill
grestore
stroke
grestore
} bind def
249.175 31.7312 o
grestore
gsave
242.495258 19.418750 translate
0.000000 rotate
0.000000 0 m /two glyphshow
4.453613 0 m /zero glyphshow
8.907227 0 m /zero glyphshow
grestore
gsave
/o {
gsave
newpath
translate
0.8 setlinewidth
1 setlinejoin
0 setlinecap
0 0 m
0 -3.5 l

gsave
0.000 setgray
fill
grestore
stroke
grestore
} bind def
278.936 31.7312 o
grestore
gsave
272.256324 19.418750 translate
0.000000 rotate
0.000000 0 m /three glyphshow
4.453613 0 m /zero glyphshow
8.907227 0 m /zero glyphshow
grestore
gsave
/o {
gsave
newpath
translate
0.8 setlinewidth
1 setlinejoin
0 setlinecap
0 0 m
0 -3.5 l

gsave
0.000 setgray
fill
grestore
stroke
grestore
} bind def
308.697 31.7312 o
grestore
gsave
302.017390 19.418750 translate
0.000000 rotate
0.000000 0 m /four glyphshow
4.453613 0 m /zero glyphshow
8.907227 0 m /zero glyphshow
grestore
gsave
229.614844 8.653125 translate
0.000000 rotate
0.000000 0 m /I glyphshow
2.064453 0 m /n glyphshow
6.500977 0 m /n glyphshow
10.937500 0 m /e glyphshow
15.244141 0 m /r glyphshow
18.122070 0 m /space glyphshow
20.347168 0 m /I glyphshow
22.411621 0 m /t glyphshow
25.156250 0 m /e glyphshow
29.462891 0 m /r glyphshow
32.340820 0 m /a glyphshow
36.630371 0 m /t glyphshow
39.375000 0 m /i glyphshow
41.319824 0 m /o glyphshow
45.602539 0 m /n glyphshow
50.039062 0 m /s glyphshow
grestore
gsave
/o {
gsave
newpath
translate
0.8 setlinewidth
1 setlinejoin
0 setlinecap
0 0 m
-3.5 0 l

gsave
0.000 setgray
fill
grestore
stroke
grestore
} bind def
189.653 53.1319 o
grestore
gsave
/o {
gsave
newpath
translate
0.8 setlinewidth
1 setlinejoin
0 setlinecap
0 0 m
-3.5 0 l

gsave
0.000 setgray
fill
grestore
stroke
grestore
} bind def
189.653 76.0078 o
grestore
gsave
/o {
gsave
newpath
translate
0.8 setlinewidth
1 setlinejoin
0 setlinecap
0 0 m
-3.5 0 l

gsave
0.000 setgray
fill
grestore
stroke
grestore
} bind def
189.653 98.8837 o
grestore
gsave
/o {
gsave
newpath
translate
0.8 setlinewidth
1 setlinejoin
0 setlinecap
0 0 m
-3.5 0 l

gsave
0.000 setgray
fill
grestore
stroke
grestore
} bind def
189.653 121.76 o
grestore
gsave
/o {
gsave
newpath
translate
0.8 setlinewidth
1 setlinejoin
0 setlinecap
0 0 m
-3.5 0 l

gsave
0.000 setgray
fill
grestore
stroke
grestore
} bind def
189.653 144.635 o
grestore
0 setlinejoin
2 setlinecap
[] 0 setdash
gsave
189.652813 31.73125 m
189.652813 157.68 l
stroke
grestore
gsave
323.28 31.73125 m
323.28 157.68 l
stroke
grestore
gsave
189.652813 31.73125 m
323.28 31.73125 l
stroke
grestore
gsave
189.652813 157.68 m
323.28 157.68 l
stroke
grestore
1.000 setlinewidth
0 setlinecap
0.800 setgray
gsave
36.14175 140.12 m
321.55425 140.12 l
322.487583 140.12 322.95425 140.586667 322.95425 141.52 c
322.95425 164.07 l
322.95425 165.003333 322.487583 165.47 321.55425 165.47 c
36.14175 165.47 l
35.208417 165.47 34.74175 165.003333 34.74175 164.07 c
34.74175 141.52 l
34.74175 140.586667 35.208417 140.12 36.14175 140.12 c
cl
gsave
1.000 setgray
fill
grestore
stroke
grestore
1.500 setlinewidth
1 setlinejoin
[9.6 2.4 1.5 2.4] 0 setdash
0.000 setgray
gsave
37.54175 158.12 m
51.54175 158.12 l
stroke
grestore
gsave
57.141750 155.670000 translate
0.000000 rotate
0.000000 0 m /S glyphshow
4.443359 0 m /i glyphshow
6.388184 0 m /n glyphshow
10.824707 0 m /g glyphshow
15.268066 0 m /l glyphshow
17.212891 0 m /e glyphshow
grestore
[1.5 2.475] 0 setdash
gsave
37.54175 147.916875 m
51.54175 147.916875 l
stroke
grestore
gsave
57.141750 145.466875 translate
0.000000 rotate
/DejaVuSans findfont
7.0 scalefont
setfont
0.000000 0.743750 moveto
/I glyphshow
1.814453 0.743750 moveto
/m glyphshow
8.633301 0.743750 moveto
/p glyphshow
13.076660 0.743750 moveto
/r glyphshow
15.954590 0.743750 moveto
/o glyphshow
20.237305 0.743750 moveto
/v glyphshow
24.379883 0.743750 moveto
/e glyphshow
28.686523 0.743750 moveto
/space glyphshow
30.911621 0.743750 moveto
/one glyphshow
35.365234 0.743750 moveto
/zero glyphshow
/DejaVuSans findfont
4.8999999999999995 scalefont
setfont
39.885840 3.423438 moveto
/minus glyphshow
43.991504 3.423438 moveto
/five glyphshow

grestore
2 setlinecap
[] 0 setdash
0.298 setgray
gsave
119.14175 158.12 m
133.14175 158.12 l
stroke
grestore
0.000 setgray
gsave
138.741750 155.670000 translate
0.000000 rotate
/DejaVuSans findfont
7.0 scalefont
setfont
0.000000 0.678125 moveto
/I glyphshow
1.814453 0.678125 moveto
/m glyphshow
8.633301 0.678125 moveto
/p glyphshow
13.076660 0.678125 moveto
/r glyphshow
15.954590 0.678125 moveto
/o glyphshow
20.237305 0.678125 moveto
/v glyphshow
24.379883 0.678125 moveto
/e glyphshow
28.686523 0.678125 moveto
/space glyphshow
30.911621 0.678125 moveto
/one glyphshow
35.365234 0.678125 moveto
/zero glyphshow
/DejaVuSans findfont
4.8999999999999995 scalefont
setfont
39.885840 3.357812 moveto
/minus glyphshow
43.991504 3.357812 moveto
/six glyphshow
/DejaVuSans findfont
7.0 scalefont
setfont
47.300439 0.678125 moveto
/space glyphshow
49.525537 0.678125 moveto
/t glyphshow
52.270166 0.678125 moveto
/h glyphshow
56.706689 0.678125 moveto
/e glyphshow
61.013330 0.678125 moveto
/n glyphshow
65.449854 0.678125 moveto
/space glyphshow
67.674951 0.678125 moveto
/s glyphshow
71.321924 0.678125 moveto
/a glyphshow
75.611475 0.678125 moveto
/m glyphshow
82.430322 0.678125 moveto
/e glyphshow
86.736963 0.678125 moveto
/space glyphshow
88.962061 0.678125 moveto
/i glyphshow
90.906885 0.678125 moveto
/t glyphshow
93.651514 0.678125 moveto
/e glyphshow
97.958154 0.678125 moveto
/r glyphshow
100.836084 0.678125 moveto
/a glyphshow
105.125635 0.678125 moveto
/t glyphshow
107.870264 0.678125 moveto
/i glyphshow
109.815088 0.678125 moveto
/o glyphshow
114.097803 0.678125 moveto
/n glyphshow
118.534326 0.678125 moveto
/s glyphshow

grestore
0.604 setgray
gsave
119.14175 147.37 m
133.14175 147.37 l
stroke
grestore
0.000 setgray
gsave
138.741750 144.920000 translate
0.000000 rotate
/DejaVuSans findfont
7.0 scalefont
setfont
0.000000 0.743750 moveto
/I glyphshow
1.814453 0.743750 moveto
/m glyphshow
8.633301 0.743750 moveto
/p glyphshow
13.076660 0.743750 moveto
/r glyphshow
15.954590 0.743750 moveto
/o glyphshow
20.237305 0.743750 moveto
/v glyphshow
24.379883 0.743750 moveto
/e glyphshow
28.686523 0.743750 moveto
/space glyphshow
30.911621 0.743750 moveto
/one glyphshow
35.365234 0.743750 moveto
/zero glyphshow
/DejaVuSans findfont
4.8999999999999995 scalefont
setfont
39.885840 3.423438 moveto
/minus glyphshow
43.991504 3.423438 moveto
/seven glyphshow
/DejaVuSans findfont
7.0 scalefont
setfont
47.300439 0.743750 moveto
/space glyphshow
49.525537 0.743750 moveto
/t glyphshow
52.270166 0.743750 moveto
/h glyphshow
56.706689 0.743750 moveto
/e glyphshow
61.013330 0.743750 moveto
/n glyphshow
65.449854 0.743750 moveto
/space glyphshow
67.674951 0.743750 moveto
/s glyphshow
71.321924 0.743750 moveto
/a glyphshow
75.611475 0.743750 moveto
/m glyphshow
82.430322 0.743750 moveto
/e glyphshow
86.736963 0.743750 moveto
/space glyphshow
88.962061 0.743750 moveto
/i glyphshow
90.906885 0.743750 moveto
/t glyphshow
93.651514 0.743750 moveto
/e glyphshow
97.958154 0.743750 moveto
/r glyphshow
100.836084 0.743750 moveto
/a glyphshow
105.125635 0.743750 moveto
/t glyphshow
107.870264 0.743750 moveto
/i glyphshow
109.815088 0.743750 moveto
/o glyphshow
114.097803 0.743750 moveto
/n glyphshow
118.534326 0.743750 moveto
/s glyphshow

grestore
gsave
275.74175 158.12 m
289.74175 158.12 l
stroke
grestore
gsave
295.341750 155.670000 translate
0.000000 rotate
0.000000 0 m /D glyphshow
5.390137 0 m /o glyphshow
9.672852 0 m /u glyphshow
14.109375 0 m /b glyphshow
18.552734 0 m /l glyphshow
20.497559 0 m /e glyphshow
grestore

end
showpage
