%!PS-Adobe-3.0 EPSF-3.0
%%Title: ../smc20/figures/restarts-fixedthresh-airfoil_2d-300.eps
%%Creator: matplotlib version 3.2.1, http://matplotlib.org/
%%CreationDate: Wed Sep  2 09:57:23 2020
%%Orientation: portrait
%%BoundingBox: 138.73000000000005 310.444375 473.27 481.55562499999996
%%EndComments
%%BeginProlog
/mpldict 8 dict def
mpldict begin
/m { moveto } bind def
/l { lineto } bind def
/r { rlineto } bind def
/c { curveto } bind def
/cl { closepath } bind def
/box {
m
1 index 0 r
0 exch r
neg 0 r
cl
} bind def
/clipbox {
box
clip
newpath
} bind def
%!PS-Adobe-3.0 Resource-Font
%%Title: DejaVu Sans
%%Copyright: Copyright (c) 2003 by Bitstream, Inc. All Rights Reserved. Copyright (c) 2006 by Tavmjong Bah. All Rights Reserved. DejaVu changes are in public domain 
%%Creator: Converted from TrueType to type 3 by PPR
25 dict begin
/_d{bind def}bind def
/_m{moveto}_d
/_l{lineto}_d
/_cl{closepath eofill}_d
/_c{curveto}_d
/_sc{7 -1 roll{setcachedevice}{pop pop pop pop pop pop}ifelse}_d
/_e{exec}_d
/FontName /DejaVuSans def
/PaintType 0 def
/FontMatrix[.001 0 0 .001 0 0]def
/FontBBox[-1021 -463 1793 1232]def
/FontType 3 def
/Encoding [ /space /zero /one /two /three /four /five /six /seven /B /D /E /I /N /S /a /b /c /d /e /g /i /k /l /m /n /o /p /r /s /t /u /v /w /minus ] def
/FontInfo 10 dict dup begin
/FamilyName (DejaVu Sans) def
/FullName (DejaVu Sans) def
/Notice (Copyright (c) 2003 by Bitstream, Inc. All Rights Reserved. Copyright (c) 2006 by Tavmjong Bah. All Rights Reserved. DejaVu changes are in public domain ) def
/Weight (Book) def
/Version (Version 2.35) def
/ItalicAngle 0.0 def
/isFixedPitch false def
/UnderlinePosition -130 def
/UnderlineThickness 90 def
end readonly def
/CharStrings 36 dict dup begin
/.notdef 0 def
/space{318 0 0 0 0 0 _sc
}_d
/zero{636 0 66 -13 570 742 _sc
318 664 _m
267 664 229 639 203 589 _c
177 539 165 464 165 364 _c
165 264 177 189 203 139 _c
229 89 267 64 318 64 _c
369 64 407 89 433 139 _c
458 189 471 264 471 364 _c
471 464 458 539 433 589 _c
407 639 369 664 318 664 _c
318 742 _m
399 742 461 709 505 645 _c
548 580 570 486 570 364 _c
570 241 548 147 505 83 _c
461 19 399 -13 318 -13 _c
236 -13 173 19 130 83 _c
87 147 66 241 66 364 _c
66 486 87 580 130 645 _c
173 709 236 742 318 742 _c
_cl}_d
/one{636 0 110 0 544 729 _sc
124 83 _m
285 83 _l
285 639 _l
110 604 _l
110 694 _l
284 729 _l
383 729 _l
383 83 _l
544 83 _l
544 0 _l
124 0 _l
124 83 _l
_cl}_d
/two{{636 0 73 0 536 742 _sc
192 83 _m
536 83 _l
536 0 _l
73 0 _l
73 83 _l
110 121 161 173 226 239 _c
290 304 331 346 348 365 _c
380 400 402 430 414 455 _c
426 479 433 504 433 528 _c
433 566 419 598 392 622 _c
365 646 330 659 286 659 _c
255 659 222 653 188 643 _c
154 632 117 616 78 594 _c
78 694 _l
118 710 155 722 189 730 _c
223 738 255 742 284 742 _c
}_e{359 742 419 723 464 685 _c
509 647 532 597 532 534 _c
532 504 526 475 515 449 _c
504 422 484 390 454 354 _c
446 344 420 317 376 272 _c
332 227 271 164 192 83 _c
_cl}_e}_d
/three{{636 0 76 -13 556 742 _sc
406 393 _m
453 383 490 362 516 330 _c
542 298 556 258 556 212 _c
556 140 531 84 482 45 _c
432 6 362 -13 271 -13 _c
240 -13 208 -10 176 -4 _c
144 1 110 10 76 22 _c
76 117 _l
103 101 133 89 166 81 _c
198 73 232 69 268 69 _c
330 69 377 81 409 105 _c
441 129 458 165 458 212 _c
458 254 443 288 413 312 _c
383 336 341 349 287 349 _c
}_e{202 349 _l
202 430 _l
291 430 _l
339 430 376 439 402 459 _c
428 478 441 506 441 543 _c
441 580 427 609 401 629 _c
374 649 336 659 287 659 _c
260 659 231 656 200 650 _c
169 644 135 635 98 623 _c
98 711 _l
135 721 170 729 203 734 _c
235 739 266 742 296 742 _c
370 742 429 725 473 691 _c
517 657 539 611 539 553 _c
539 513 527 479 504 451 _c
481 423 448 403 406 393 _c
_cl}_e}_d
/four{636 0 49 0 580 729 _sc
378 643 _m
129 254 _l
378 254 _l
378 643 _l
352 729 _m
476 729 _l
476 254 _l
580 254 _l
580 172 _l
476 172 _l
476 0 _l
378 0 _l
378 172 _l
49 172 _l
49 267 _l
352 729 _l
_cl}_d
/five{{636 0 77 -13 549 729 _sc
108 729 _m
495 729 _l
495 646 _l
198 646 _l
198 467 _l
212 472 227 476 241 478 _c
255 480 270 482 284 482 _c
365 482 429 459 477 415 _c
525 370 549 310 549 234 _c
549 155 524 94 475 51 _c
426 8 357 -13 269 -13 _c
238 -13 207 -10 175 -6 _c
143 -1 111 6 77 17 _c
77 116 _l
106 100 136 88 168 80 _c
199 72 232 69 267 69 _c
}_e{323 69 368 83 401 113 _c
433 143 450 183 450 234 _c
450 284 433 324 401 354 _c
368 384 323 399 267 399 _c
241 399 214 396 188 390 _c
162 384 135 375 108 363 _c
108 729 _l
_cl}_e}_d
/six{{636 0 70 -13 573 742 _sc
330 404 _m
286 404 251 388 225 358 _c
199 328 186 286 186 234 _c
186 181 199 139 225 109 _c
251 79 286 64 330 64 _c
374 64 409 79 435 109 _c
461 139 474 181 474 234 _c
474 286 461 328 435 358 _c
409 388 374 404 330 404 _c
526 713 _m
526 623 _l
501 635 476 644 451 650 _c
425 656 400 659 376 659 _c
310 659 260 637 226 593 _c
}_e{192 549 172 482 168 394 _c
187 422 211 444 240 459 _c
269 474 301 482 336 482 _c
409 482 467 459 509 415 _c
551 371 573 310 573 234 _c
573 159 550 99 506 54 _c
462 9 403 -13 330 -13 _c
246 -13 181 19 137 83 _c
92 147 70 241 70 364 _c
70 479 97 571 152 639 _c
206 707 280 742 372 742 _c
396 742 421 739 447 735 _c
472 730 498 723 526 713 _c
_cl}_e}_d
/seven{636 0 82 0 551 729 _sc
82 729 _m
551 729 _l
551 687 _l
286 0 _l
183 0 _l
432 646 _l
82 646 _l
82 729 _l
_cl}_d
/B{{686 0 98 0 615 729 _sc
197 348 _m
197 81 _l
355 81 _l
408 81 447 92 473 114 _c
498 136 511 169 511 215 _c
511 260 498 293 473 315 _c
447 337 408 348 355 348 _c
197 348 _l
197 648 _m
197 428 _l
343 428 _l
391 428 426 437 450 455 _c
474 473 486 500 486 538 _c
486 574 474 602 450 620 _c
426 638 391 648 343 648 _c
197 648 _l
98 729 _m
350 729 _l
}_e{425 729 483 713 524 682 _c
564 650 585 606 585 549 _c
585 504 574 468 553 442 _c
532 416 502 399 462 393 _c
510 382 548 360 575 327 _c
601 294 615 253 615 204 _c
615 138 592 88 548 53 _c
504 17 441 0 360 0 _c
98 0 _l
98 729 _l
_cl}_e}_d
/D{770 0 98 0 711 729 _sc
197 648 _m
197 81 _l
316 81 _l
416 81 490 103 537 149 _c
583 195 607 267 607 365 _c
607 463 583 534 537 580 _c
490 625 416 648 316 648 _c
197 648 _l
98 729 _m
301 729 _l
442 729 546 699 612 641 _c
678 582 711 490 711 365 _c
711 239 677 147 611 88 _c
545 29 441 0 301 0 _c
98 0 _l
98 729 _l
_cl}_d
/E{632 0 98 0 568 729 _sc
98 729 _m
559 729 _l
559 646 _l
197 646 _l
197 430 _l
544 430 _l
544 347 _l
197 347 _l
197 83 _l
568 83 _l
568 0 _l
98 0 _l
98 729 _l
_cl}_d
/I{295 0 98 0 197 729 _sc
98 729 _m
197 729 _l
197 0 _l
98 0 _l
98 729 _l
_cl}_d
/N{748 0 98 0 650 729 _sc
98 729 _m
231 729 _l
554 119 _l
554 729 _l
650 729 _l
650 0 _l
517 0 _l
194 610 _l
194 0 _l
98 0 _l
98 729 _l
_cl}_d
/S{{635 0 66 -13 579 742 _sc
535 705 _m
535 609 _l
497 627 462 640 429 649 _c
395 657 363 662 333 662 _c
279 662 237 651 208 631 _c
179 610 165 580 165 542 _c
165 510 174 485 194 469 _c
213 452 250 439 304 429 _c
364 417 _l
437 403 491 378 526 343 _c
561 307 579 260 579 201 _c
579 130 555 77 508 41 _c
460 5 391 -13 300 -13 _c
265 -13 228 -9 189 -2 _c
}_e{150 5 110 16 69 32 _c
69 134 _l
109 111 148 94 186 83 _c
224 71 262 66 300 66 _c
356 66 399 77 430 99 _c
460 121 476 152 476 194 _c
476 230 465 258 443 278 _c
421 298 385 313 335 323 _c
275 335 _l
201 349 148 372 115 404 _c
82 435 66 478 66 534 _c
66 598 88 649 134 686 _c
179 723 242 742 322 742 _c
356 742 390 739 426 733 _c
461 727 497 717 535 705 _c
}_e{_cl}_e}_d
/a{{613 0 60 -13 522 560 _sc
343 275 _m
270 275 220 266 192 250 _c
164 233 150 205 150 165 _c
150 133 160 107 181 89 _c
202 70 231 61 267 61 _c
317 61 357 78 387 114 _c
417 149 432 196 432 255 _c
432 275 _l
343 275 _l
522 312 _m
522 0 _l
432 0 _l
432 83 _l
411 49 385 25 355 10 _c
325 -5 287 -13 243 -13 _c
187 -13 142 2 109 33 _c
76 64 60 106 60 159 _c
}_e{60 220 80 266 122 298 _c
163 329 224 345 306 345 _c
432 345 _l
432 354 _l
432 395 418 427 391 450 _c
364 472 326 484 277 484 _c
245 484 215 480 185 472 _c
155 464 127 453 100 439 _c
100 522 _l
132 534 164 544 195 550 _c
226 556 256 560 286 560 _c
365 560 424 539 463 498 _c
502 457 522 395 522 312 _c
_cl}_e}_d
/b{{635 0 91 -13 580 760 _sc
487 273 _m
487 339 473 390 446 428 _c
418 466 381 485 334 485 _c
286 485 249 466 222 428 _c
194 390 181 339 181 273 _c
181 207 194 155 222 117 _c
249 79 286 61 334 61 _c
381 61 418 79 446 117 _c
473 155 487 207 487 273 _c
181 464 _m
199 496 223 520 252 536 _c
281 552 316 560 356 560 _c
422 560 476 533 518 481 _c
559 428 580 359 580 273 _c
}_e{580 187 559 117 518 65 _c
476 13 422 -13 356 -13 _c
316 -13 281 -5 252 10 _c
223 25 199 49 181 82 _c
181 0 _l
91 0 _l
91 760 _l
181 760 _l
181 464 _l
_cl}_e}_d
/c{{550 0 55 -13 488 560 _sc
488 526 _m
488 442 _l
462 456 437 466 411 473 _c
385 480 360 484 334 484 _c
276 484 230 465 198 428 _c
166 391 150 339 150 273 _c
150 206 166 154 198 117 _c
230 80 276 62 334 62 _c
360 62 385 65 411 72 _c
437 79 462 90 488 104 _c
488 21 _l
462 9 436 0 410 -5 _c
383 -10 354 -13 324 -13 _c
242 -13 176 12 128 64 _c
}_e{79 115 55 185 55 273 _c
55 362 79 432 128 483 _c
177 534 244 560 330 560 _c
358 560 385 557 411 551 _c
437 545 463 537 488 526 _c
_cl}_e}_d
/d{{635 0 55 -13 544 760 _sc
454 464 _m
454 760 _l
544 760 _l
544 0 _l
454 0 _l
454 82 _l
435 49 411 25 382 10 _c
353 -5 319 -13 279 -13 _c
213 -13 159 13 117 65 _c
75 117 55 187 55 273 _c
55 359 75 428 117 481 _c
159 533 213 560 279 560 _c
319 560 353 552 382 536 _c
411 520 435 496 454 464 _c
148 273 _m
148 207 161 155 188 117 _c
215 79 253 61 301 61 _c
}_e{348 61 385 79 413 117 _c
440 155 454 207 454 273 _c
454 339 440 390 413 428 _c
385 466 348 485 301 485 _c
253 485 215 466 188 428 _c
161 390 148 339 148 273 _c
_cl}_e}_d
/e{{615 0 55 -13 562 560 _sc
562 296 _m
562 252 _l
149 252 _l
153 190 171 142 205 110 _c
238 78 284 62 344 62 _c
378 62 412 66 444 74 _c
476 82 509 95 541 113 _c
541 28 _l
509 14 476 3 442 -3 _c
408 -9 373 -13 339 -13 _c
251 -13 182 12 131 62 _c
80 112 55 181 55 268 _c
55 357 79 428 127 481 _c
175 533 241 560 323 560 _c
397 560 455 536 498 489 _c
}_e{540 441 562 377 562 296 _c
472 322 _m
471 371 457 410 431 440 _c
404 469 368 484 324 484 _c
274 484 234 469 204 441 _c
174 413 156 373 152 322 _c
472 322 _l
_cl}_e}_d
/g{{635 0 55 -207 544 560 _sc
454 280 _m
454 344 440 395 414 431 _c
387 467 349 485 301 485 _c
253 485 215 467 188 431 _c
161 395 148 344 148 280 _c
148 215 161 165 188 129 _c
215 93 253 75 301 75 _c
349 75 387 93 414 129 _c
440 165 454 215 454 280 _c
544 68 _m
544 -24 523 -93 482 -139 _c
440 -184 377 -207 292 -207 _c
260 -207 231 -204 203 -200 _c
175 -195 147 -188 121 -178 _c
}_e{121 -91 _l
147 -105 173 -115 199 -122 _c
225 -129 251 -133 278 -133 _c
336 -133 380 -117 410 -87 _c
439 -56 454 -10 454 52 _c
454 96 _l
435 64 411 40 382 24 _c
353 8 319 0 279 0 _c
211 0 157 25 116 76 _c
75 127 55 195 55 280 _c
55 364 75 432 116 483 _c
157 534 211 560 279 560 _c
319 560 353 552 382 536 _c
411 520 435 496 454 464 _c
454 547 _l
544 547 _l
}_e{544 68 _l
_cl}_e}_d
/i{278 0 94 0 184 760 _sc
94 547 _m
184 547 _l
184 0 _l
94 0 _l
94 547 _l
94 760 _m
184 760 _l
184 646 _l
94 646 _l
94 760 _l
_cl}_d
/k{579 0 91 0 576 760 _sc
91 760 _m
181 760 _l
181 311 _l
449 547 _l
564 547 _l
274 291 _l
576 0 _l
459 0 _l
181 267 _l
181 0 _l
91 0 _l
91 760 _l
_cl}_d
/l{278 0 94 0 184 760 _sc
94 760 _m
184 760 _l
184 0 _l
94 0 _l
94 760 _l
_cl}_d
/m{{974 0 91 0 889 560 _sc
520 442 _m
542 482 569 511 600 531 _c
631 550 668 560 711 560 _c
767 560 811 540 842 500 _c
873 460 889 403 889 330 _c
889 0 _l
799 0 _l
799 327 _l
799 379 789 418 771 444 _c
752 469 724 482 686 482 _c
639 482 602 466 575 435 _c
548 404 535 362 535 309 _c
535 0 _l
445 0 _l
445 327 _l
445 379 435 418 417 444 _c
398 469 369 482 331 482 _c
}_e{285 482 248 466 221 435 _c
194 404 181 362 181 309 _c
181 0 _l
91 0 _l
91 547 _l
181 547 _l
181 462 _l
201 495 226 520 255 536 _c
283 552 317 560 357 560 _c
397 560 430 550 458 530 _c
486 510 506 480 520 442 _c
_cl}_e}_d
/n{634 0 91 0 549 560 _sc
549 330 _m
549 0 _l
459 0 _l
459 327 _l
459 379 448 417 428 443 _c
408 469 378 482 338 482 _c
289 482 251 466 223 435 _c
195 404 181 362 181 309 _c
181 0 _l
91 0 _l
91 547 _l
181 547 _l
181 462 _l
202 494 227 519 257 535 _c
286 551 320 560 358 560 _c
420 560 468 540 500 501 _c
532 462 549 405 549 330 _c
_cl}_d
/o{612 0 55 -13 557 560 _sc
306 484 _m
258 484 220 465 192 427 _c
164 389 150 338 150 273 _c
150 207 163 156 191 118 _c
219 80 257 62 306 62 _c
354 62 392 80 420 118 _c
448 156 462 207 462 273 _c
462 337 448 389 420 427 _c
392 465 354 484 306 484 _c
306 560 _m
384 560 445 534 490 484 _c
534 433 557 363 557 273 _c
557 183 534 113 490 63 _c
445 12 384 -13 306 -13 _c
227 -13 165 12 121 63 _c
77 113 55 183 55 273 _c
55 363 77 433 121 484 _c
165 534 227 560 306 560 _c
_cl}_d
/p{{635 0 91 -207 580 560 _sc
181 82 _m
181 -207 _l
91 -207 _l
91 547 _l
181 547 _l
181 464 _l
199 496 223 520 252 536 _c
281 552 316 560 356 560 _c
422 560 476 533 518 481 _c
559 428 580 359 580 273 _c
580 187 559 117 518 65 _c
476 13 422 -13 356 -13 _c
316 -13 281 -5 252 10 _c
223 25 199 49 181 82 _c
487 273 _m
487 339 473 390 446 428 _c
418 466 381 485 334 485 _c
}_e{286 485 249 466 222 428 _c
194 390 181 339 181 273 _c
181 207 194 155 222 117 _c
249 79 286 61 334 61 _c
381 61 418 79 446 117 _c
473 155 487 207 487 273 _c
_cl}_e}_d
/r{411 0 91 0 411 560 _sc
411 463 _m
401 469 390 473 378 476 _c
366 478 353 480 339 480 _c
288 480 249 463 222 430 _c
194 397 181 350 181 288 _c
181 0 _l
91 0 _l
91 547 _l
181 547 _l
181 462 _l
199 495 224 520 254 536 _c
284 552 321 560 365 560 _c
371 560 378 559 386 559 _c
393 558 401 557 411 555 _c
411 463 _l
_cl}_d
/s{{521 0 54 -13 472 560 _sc
443 531 _m
443 446 _l
417 458 391 468 364 475 _c
336 481 308 485 279 485 _c
234 485 200 478 178 464 _c
156 450 145 430 145 403 _c
145 382 153 366 169 354 _c
185 342 217 330 265 320 _c
296 313 _l
360 299 405 279 432 255 _c
458 230 472 195 472 151 _c
472 100 452 60 412 31 _c
372 1 316 -13 246 -13 _c
216 -13 186 -10 154 -5 _c
}_e{122 0 89 8 54 20 _c
54 113 _l
87 95 120 82 152 74 _c
184 65 216 61 248 61 _c
290 61 323 68 346 82 _c
368 96 380 117 380 144 _c
380 168 371 187 355 200 _c
339 213 303 226 247 238 _c
216 245 _l
160 257 119 275 95 299 _c
70 323 58 356 58 399 _c
58 450 76 490 112 518 _c
148 546 200 560 268 560 _c
301 560 332 557 362 552 _c
391 547 418 540 443 531 _c
}_e{_cl}_e}_d
/t{392 0 27 0 368 702 _sc
183 702 _m
183 547 _l
368 547 _l
368 477 _l
183 477 _l
183 180 _l
183 135 189 106 201 94 _c
213 81 238 75 276 75 _c
368 75 _l
368 0 _l
276 0 _l
206 0 158 13 132 39 _c
106 65 93 112 93 180 _c
93 477 _l
27 477 _l
27 547 _l
93 547 _l
93 702 _l
183 702 _l
_cl}_d
/u{634 0 85 -13 543 560 _sc
85 216 _m
85 547 _l
175 547 _l
175 219 _l
175 167 185 129 205 103 _c
225 77 255 64 296 64 _c
344 64 383 79 411 110 _c
439 141 453 183 453 237 _c
453 547 _l
543 547 _l
543 0 _l
453 0 _l
453 84 _l
431 50 405 26 377 10 _c
348 -5 315 -13 277 -13 _c
214 -13 166 6 134 45 _c
101 83 85 140 85 216 _c
311 560 _m
311 560 _l
_cl}_d
/v{592 0 30 0 562 547 _sc
30 547 _m
125 547 _l
296 88 _l
467 547 _l
562 547 _l
357 0 _l
235 0 _l
30 547 _l
_cl}_d
/w{818 0 42 0 776 547 _sc
42 547 _m
132 547 _l
244 120 _l
356 547 _l
462 547 _l
574 120 _l
686 547 _l
776 547 _l
633 0 _l
527 0 _l
409 448 _l
291 0 _l
185 0 _l
42 547 _l
_cl}_d
/minus{838 0 106 272 732 355 _sc
106 355 _m
732 355 _l
732 272 _l
106 272 _l
106 355 _l
_cl}_d
end readonly def

/BuildGlyph
 {exch begin
 CharStrings exch
 2 copy known not{pop /.notdef}if
 true 3 1 roll get exec
 end}_d

/BuildChar {
 1 index /Encoding get exch get
 1 index /BuildGlyph get exec
}_d

FontName currentdict end definefont pop
end
%%EndProlog
mpldict begin
138.73 310.444 translate
334.54 171.111 0 0 clipbox
gsave
0 -0 m
334.54 -0 l
334.54 171.11125 l
0 171.11125 l
cl
1.000 setgray
fill
grestore
gsave
44.965625 31.73125 m
178.592812 31.73125 l
178.592812 157.68 l
44.965625 157.68 l
cl
1.000 setgray
fill
grestore
1.500 setlinewidth
1 setlinejoin
0 setlinecap
[] 0 setdash
0.000 setgray
gsave
133.6 125.9 44.97 31.73 clipbox
/o {
gsave
newpath
translate
1.5 setlinewidth
1 setlinejoin
0 setlinecap
0 -3 m
0 3 l

gsave
0.000 setgray
fill
grestore
stroke
grestore
} bind def
133.951 111.19 o
grestore
gsave
133.6 125.9 44.97 31.73 clipbox
/o {
gsave
newpath
translate
1.5 setlinewidth
1 setlinejoin
0 setlinecap
0 -3 m
0 3 l

gsave
0.000 setgray
fill
grestore
stroke
grestore
} bind def
133.951 46.0616 o
grestore
[9.6 2.4 1.5 2.4] 0 setdash
gsave
133.6 125.9 44.97 31.73 clipbox
44.965625 151.955057 m
45.263236 148.308866 l
45.858457 144.577524 l
46.751289 141.011673 l
47.644121 138.566358 l
48.239342 137.180712 l
49.727396 134.726724 l
50.620228 133.651914 l
51.51306 132.711385 l
52.703502 130.948391 l
53.596334 129.968347 l
54.489166 129.329318 l
55.97722 128.765922 l
56.572441 128.039477 l
57.167662 126.942463 l
58.060494 125.771096 l
58.953326 125.532681 l
59.548547 125.559486 l
60.143769 125.319179 l
61.929433 124.595907 l
62.524654 124.437247 l
64.310318 123.297397 l
65.798371 121.614663 l
68.179257 118.465538 l
70.560142 114.734237 l
72.643417 112.239024 l
72.941027 111.714007 l
73.238638 111.442197 l
73.536249 110.943653 l
73.833859 111.027924 l
74.13147 110.500436 l
74.429081 110.48305 l
74.726691 109.733307 l
75.024302 109.63775 l
75.321913 108.843235 l
75.619523 108.459925 l
75.917134 108.443123 l
76.214745 107.770184 l
76.512355 107.498371 l
76.809966 108.256497 l
77.107577 108.583238 l
77.405187 108.495374 l
77.702798 107.384994 l
78.000409 107.303799 l
78.59563 108.353958 l
78.893241 108.203207 l
79.190851 107.424597 l
79.488462 107.73752 l
79.786073 109.076489 l
80.083683 107.41984 l
80.381294 107.298402 l
80.678905 108.066702 l
80.976515 107.956863 l
81.274126 108.070067 l
81.571736 107.783298 l
81.869347 109.614758 l
82.166958 107.510602 l
82.464568 107.018579 l
82.762179 106.28201 l
83.05979 106.400354 l
83.3574 108.00842 l
83.655011 106.836375 l
83.952622 106.764132 l
84.250232 107.369069 l
84.547843 109.008782 l
85.143064 106.895074 l
85.440675 107.171813 l
85.738286 106.918433 l
86.035896 107.096053 l
86.333507 110.085808 l
86.631118 106.469586 l
86.928728 108.196505 l
87.226339 106.949867 l
87.82156 110.291497 l
88.119171 109.354751 l
88.416782 106.789238 l
88.714392 107.830535 l
89.012003 107.318736 l
89.309614 109.920958 l
89.607224 109.732221 l
89.904835 107.588828 l
90.202446 109.321343 l
90.500056 106.868095 l
90.797667 108.738643 l
91.095278 106.871549 l
91.392888 107.440036 l
91.690499 106.836168 l
91.98811 109.037904 l
92.28572 108.32625 l
92.583331 106.455716 l
92.880942 107.346483 l
93.178552 106.576017 l
93.476163 107.284458 l
93.773774 109.083372 l
94.071384 107.406274 l
94.368995 107.788272 l
94.666606 108.535234 l
94.964216 108.970685 l
95.261827 106.884571 l
95.559438 106.487109 l
96.154659 109.901122 l
96.45227 106.09586 l
96.74988 108.724018 l
97.047491 109.782438 l
97.642712 106.811744 l
97.940323 109.907778 l
98.237934 107.822419 l
98.535544 106.858212 l
98.833155 109.054361 l
99.130766 110.246455 l
99.428376 107.806151 l
99.725987 107.524157 l
100.023598 110.44435 l
100.321208 110.50212 l
100.618819 112.851897 l
100.91643 109.188532 l
101.21404 108.895297 l
101.511651 110.14158 l
101.809262 110.41245 l
102.404483 107.222646 l
102.702094 108.677651 l
102.999704 109.139773 l
103.297315 112.03903 l
103.594926 111.392207 l
103.892536 108.439314 l
104.190147 110.281219 l
104.487758 108.170786 l
104.785368 109.597884 l
105.38059 108.571801 l
105.6782 110.055401 l
105.975811 109.544286 l
106.273421 108.392809 l
106.571032 109.167201 l
106.868643 109.323816 l
107.166253 107.588687 l
107.463864 108.051367 l
108.059085 107.8525 l
108.356696 107.302361 l
108.654307 109.586372 l
109.249528 107.446905 l
109.547139 107.479795 l
109.844749 109.477446 l
110.14236 108.268305 l
110.439971 109.231823 l
110.737581 108.45345 l
111.035192 109.458557 l
111.928024 107.854523 l
112.225635 109.232612 l
112.523245 108.437965 l
112.820856 108.409334 l
113.118467 107.889462 l
113.416077 109.054785 l
113.713688 107.503042 l
114.011299 107.76458 l
114.308909 109.279058 l
114.60652 109.602521 l
114.904131 107.806085 l
115.201741 107.666909 l
115.499352 109.315889 l
115.796963 110.250121 l
116.094573 108.060761 l
116.392184 107.756817 l
116.689795 110.057282 l
116.987405 109.446119 l
117.285016 112.130711 l
117.582627 110.574773 l
117.880237 107.806063 l
118.177848 111.559771 l
118.475459 107.75966 l
118.773069 108.662243 l
119.07068 111.012657 l
119.368291 108.093522 l
119.665901 109.945206 l
119.963512 108.830427 l
120.261123 108.359341 l
120.856344 110.813186 l
121.153955 111.243187 l
121.451565 108.633619 l
121.749176 107.911469 l
122.344397 108.488034 l
122.642008 110.404256 l
122.939619 110.783949 l
123.237229 110.752728 l
123.53484 111.962264 l
123.832451 108.407034 l
124.130061 110.605867 l
124.427672 108.23161 l
124.725283 110.489049 l
125.022893 107.688541 l
125.320504 110.033583 l
125.618115 109.985237 l
125.915725 111.953988 l
126.213336 108.431447 l
126.510947 108.212201 l
127.106168 108.416079 l
127.403779 108.985005 l
127.701389 108.501893 l
127.999 109.204492 l
128.594221 108.112851 l
128.891832 107.871876 l
129.189443 108.985052 l
129.487053 108.275687 l
129.784664 110.34473 l
130.082274 109.466805 l
130.379885 109.505058 l
130.677496 111.829611 l
130.975106 108.345736 l
131.272717 110.452953 l
131.570328 108.698185 l
131.867938 109.516368 l
132.165549 108.119062 l
132.76077 109.143874 l
133.355992 108.674222 l
133.951213 111.189697 l
134.248824 105.356151 l
134.546434 104.714712 l
135.141656 104.530622 l
135.736877 104.513515 l
141.986701 104.500501 l
142.879533 104.514128 l
165.497943 104.535976 l
178.592812 104.539081 l
178.592812 104.539081 l
stroke
grestore
[5.55 2.4] 0 setdash
gsave
133.6 125.9 44.97 31.73 clipbox
44.965625 151.955057 m
45.263236 148.308866 l
45.858457 144.577521 l
46.751289 141.011673 l
47.644121 138.566358 l
48.239342 137.180712 l
49.727396 134.72671 l
50.620228 133.651905 l
51.51306 132.711397 l
52.703502 130.948371 l
53.596334 129.968292 l
54.489166 129.329345 l
55.97722 128.76599 l
56.572441 128.039438 l
57.167662 126.942511 l
58.060494 125.771526 l
58.953326 125.532839 l
59.548547 125.559664 l
60.143769 125.319415 l
61.929433 124.595601 l
62.524654 124.436662 l
64.310318 123.296819 l
65.798371 121.614697 l
68.179257 118.464962 l
69.964921 115.686654 l
70.857753 114.349117 l
71.452974 113.767607 l
72.048195 113.081135 l
74.13147 109.993439 l
75.321913 108.214543 l
77.107577 105.589561 l
79.786073 103.455186 l
80.381294 102.728378 l
81.274126 101.134781 l
82.166958 99.216332 l
83.05979 97.262114 l
83.655011 95.690367 l
84.547843 94.141552 l
86.928728 90.557406 l
88.714392 86.659145 l
89.607224 85.420227 l
90.500056 84.297579 l
92.583331 80.154188 l
94.666606 75.53754 l
95.857048 72.647644 l
97.345102 69.080709 l
98.833155 66.680481 l
101.511651 61.01347 l
102.702094 57.784964 l
103.892536 54.792761 l
105.082979 52.340644 l
105.975811 50.945685 l
107.463864 48.043346 l
107.761475 47.689654 l
108.059085 47.084438 l
108.356696 46.777994 l
108.654307 46.294947 l
108.951917 46.142124 l
109.249528 46.156889 l
109.547139 45.601433 l
109.844749 46.234702 l
110.14236 45.962979 l
110.439971 46.020366 l
111.035192 45.879292 l
111.332803 45.634063 l
111.630413 45.802452 l
111.928024 45.49228 l
112.225635 45.899647 l
112.523245 45.763413 l
112.820856 45.964928 l
113.118467 45.414879 l
113.416077 45.8893 l
113.713688 46.063756 l
114.308909 45.959692 l
114.60652 46.302697 l
114.904131 45.974486 l
115.201741 46.44951 l
115.499352 46.584561 l
115.796963 46.561629 l
116.094573 46.015437 l
116.392184 46.35575 l
117.285016 46.033094 l
117.582627 46.570079 l
117.880237 46.20613 l
118.177848 46.075458 l
118.475459 46.588114 l
119.07068 46.147106 l
119.368291 46.112926 l
119.665901 45.654783 l
119.963512 46.668168 l
120.261123 46.154788 l
120.558733 46.205147 l
120.856344 46.589243 l
121.153955 45.56917 l
121.749176 45.92709 l
122.046787 46.552132 l
122.344397 45.22621 l
122.642008 46.160852 l
122.939619 46.390001 l
123.237229 46.153763 l
123.53484 46.37351 l
123.832451 46.186875 l
124.130061 46.849041 l
124.427672 46.077799 l
124.725283 45.938302 l
125.022893 45.946511 l
125.320504 45.578063 l
125.618115 45.857749 l
125.915725 46.339486 l
126.213336 45.561793 l
126.510947 46.029248 l
126.808557 45.98612 l
127.106168 46.456331 l
127.701389 45.319102 l
127.999 45.977398 l
129.189443 45.762555 l
129.487053 46.245228 l
129.784664 45.703526 l
130.082274 45.807737 l
130.379885 45.516357 l
130.677496 45.685593 l
130.975106 45.617726 l
131.272717 45.787807 l
131.570328 45.227336 l
131.867938 45.754796 l
132.165549 45.890097 l
132.46316 45.771092 l
132.76077 45.508319 l
133.058381 46.349239 l
133.355992 45.7585 l
133.951213 46.061568 l
134.248824 39.093626 l
134.546434 38.005075 l
136.034488 37.856618 l
138.415373 37.904684 l
139.010594 37.847326 l
140.201037 37.855976 l
160.438562 37.905886 l
178.592812 37.909332 l
178.592812 37.909332 l
stroke
grestore
[] 0 setdash
gsave
133.6 125.9 44.97 31.73 clipbox
/o {
gsave
newpath
translate
1.5 setlinewidth
1 setlinejoin
0 setlinecap
0 -3 m
0 3 l

gsave
0.000 setgray
fill
grestore
stroke
grestore
} bind def
64.3103 123.298 o
92.8809 94.2654 o
122.344 63.039 o
150.022 38.5 o
grestore
0.298 setgray
gsave
133.6 125.9 44.97 31.73 clipbox
/o {
gsave
newpath
translate
1.5 setlinewidth
1 setlinejoin
0 setlinecap
0 -3 m
0 3 l

gsave
0.298 setgray
fill
grestore
stroke
grestore
} bind def
70.2625 115.282 o
105.678 81.1293 o
142.284 42.6592 o
176.807 38.2072 o
grestore
0.604 setgray
gsave
133.6 125.9 44.97 31.73 clipbox
/o {
gsave
newpath
translate
1.5 setlinewidth
1 setlinejoin
0 setlinecap
0 -3 m
0 3 l

gsave
0.604 setgray
fill
grestore
stroke
grestore
} bind def
75.9171 110.284 o
grestore
2 setlinecap
0.000 setgray
gsave
133.6 125.9 44.97 31.73 clipbox
44.965625 151.955057 m
45.263236 148.308866 l
45.858457 144.577524 l
46.751289 141.011673 l
47.644121 138.566358 l
48.239342 137.180712 l
49.727396 134.726704 l
50.620228 133.651887 l
51.51306 132.711421 l
52.703502 130.948391 l
53.596334 129.968292 l
54.489166 129.329345 l
55.97722 128.766009 l
56.572441 128.039512 l
57.167662 126.942442 l
58.060494 125.771194 l
58.953326 125.532513 l
59.548547 125.55909 l
60.143769 125.319135 l
61.929433 124.595921 l
62.524654 124.436691 l
64.310318 123.297706 l
66.691203 120.763906 l
68.476867 118.177394 l
69.072089 117.56532 l
70.262531 116.91061 l
71.155363 116.404183 l
72.048195 116.263977 l
72.941027 115.829778 l
74.429081 114.758992 l
75.321913 114.234482 l
75.917134 114.054892 l
77.702798 113.326802 l
79.786073 111.33204 l
81.869347 110.04688 l
82.762179 109.11649 l
83.3574 108.059882 l
84.547843 105.63941 l
84.845454 105.766092 l
85.143064 104.747634 l
87.226339 100.77546 l
88.714392 99.1517 l
91.392888 95.64408 l
91.690499 95.54451 l
91.98811 95.069228 l
92.28572 94.850056 l
92.583331 93.993476 l
92.880942 94.265441 l
93.178552 94.08972 l
93.476163 93.721557 l
93.773774 91.049746 l
94.666606 89.828611 l
94.964216 89.505332 l
95.261827 89.014852 l
96.154659 88.474878 l
96.74988 88.586192 l
97.047491 88.511862 l
97.642712 87.999282 l
98.535544 86.947474 l
100.023598 84.833206 l
101.511651 82.197041 l
102.404483 80.503016 l
103.297315 79.347059 l
105.6782 76.044645 l
106.273421 75.674085 l
107.166253 74.457568 l
107.761475 73.279632 l
108.356696 72.876814 l
109.249528 72.332869 l
109.547139 72.489487 l
109.844749 72.339125 l
110.439971 72.644297 l
110.737581 72.411229 l
111.928024 72.114737 l
114.60652 70.711843 l
116.392184 69.475148 l
117.285016 68.178608 l
117.880237 66.948868 l
119.368291 65.3084 l
121.749176 63.689431 l
122.344397 63.039036 l
122.642008 62.967826 l
123.832451 61.003196 l
124.725283 60.30863 l
126.213336 58.287303 l
127.999 55.302971 l
128.594221 54.566839 l
129.784664 53.787321 l
130.975106 53.043052 l
133.355992 50.315352 l
134.844045 49.193967 l
135.439266 48.58401 l
136.92732 46.267858 l
137.22493 45.551217 l
137.522541 45.265736 l
137.820152 45.134932 l
138.117762 45.143421 l
138.415373 45.019391 l
139.010594 45.117451 l
140.201037 45.344112 l
141.68909 44.635179 l
142.879533 43.883529 l
143.177144 43.534413 l
143.474754 43.41359 l
144.069976 42.893167 l
144.367586 42.728242 l
147.343693 39.433882 l
148.831746 38.714215 l
149.129357 38.67188 l
149.426968 38.514918 l
151.212632 38.432372 l
151.510242 37.642552 l
151.807853 37.505989 l
152.403074 37.705152 l
153.295906 37.708678 l
155.379181 37.792528 l
155.676791 37.816662 l
155.974402 37.715517 l
156.272013 37.795113 l
156.569623 37.751689 l
156.867234 37.861815 l
157.164845 37.768085 l
157.462455 37.826105 l
158.355287 37.739714 l
158.652898 37.818904 l
159.54573 37.768085 l
161.629005 37.821663 l
162.819447 37.780592 l
164.605111 37.861013 l
170.259714 37.782497 l
176.211927 37.812598 l
178.592812 37.794099 l
178.592812 37.794099 l
stroke
grestore
0.298 setgray
gsave
133.6 125.9 44.97 31.73 clipbox
44.965625 151.955057 m
45.263236 148.308866 l
45.858457 144.577524 l
46.751289 141.011673 l
47.644121 138.566358 l
48.239342 137.180712 l
49.727396 134.726704 l
50.620228 133.651887 l
51.51306 132.711421 l
52.703502 130.948391 l
53.596334 129.968292 l
54.489166 129.329345 l
55.97722 128.766009 l
56.572441 128.039512 l
57.167662 126.942442 l
58.060494 125.771194 l
58.953326 125.532513 l
59.548547 125.55909 l
60.143769 125.319135 l
61.929433 124.595921 l
62.524654 124.436691 l
64.310318 123.297706 l
65.798371 121.615342 l
68.179257 118.465042 l
69.964921 115.693305 l
70.560142 114.749954 l
71.155363 113.809691 l
71.750585 113.439424 l
72.643417 112.561811 l
75.321913 109.663308 l
75.917134 108.979278 l
76.809966 107.740853 l
79.190851 104.69853 l
80.083683 103.95852 l
82.762179 101.94963 l
83.3574 101.269301 l
84.547843 100.44927 l
86.333507 99.517707 l
87.226339 99.282096 l
88.714392 99.079437 l
89.012003 98.939848 l
89.904835 97.961832 l
90.797667 96.71146 l
92.880942 95.035404 l
93.476163 94.478395 l
94.666606 92.720605 l
96.45227 89.018541 l
96.74988 89.598898 l
97.047491 88.851554 l
97.940323 88.004285 l
99.130766 86.638532 l
100.023598 86.136477 l
100.321208 86.179293 l
100.618819 85.752459 l
101.511651 85.102092 l
103.297315 82.573013 l
103.892536 81.9917 l
104.190147 81.673367 l
104.487758 81.521724 l
104.785368 81.53265 l
105.082979 81.695995 l
105.6782 81.129338 l
105.975811 81.06325 l
106.273421 81.23649 l
106.571032 77.196939 l
106.868643 75.791276 l
107.463864 74.456666 l
107.761475 74.054152 l
108.356696 72.959719 l
108.654307 72.390459 l
109.249528 71.740183 l
109.844749 70.835422 l
110.439971 69.707555 l
112.523245 66.207562 l
114.308909 64.993266 l
115.499352 64.34716 l
116.094573 64.179371 l
116.392184 64.11135 l
117.582627 64.229385 l
118.475459 64.172968 l
118.773069 64.19411 l
119.368291 63.840105 l
122.344397 60.932204 l
123.832451 59.515227 l
124.130061 59.056021 l
124.725283 58.435979 l
125.618115 57.371155 l
127.403779 55.276418 l
128.296611 53.764051 l
130.975106 50.266536 l
132.165549 49.282884 l
132.76077 48.32442 l
134.248824 46.771476 l
136.332098 44.273709 l
136.629709 44.03784 l
136.92732 44.140785 l
137.522541 43.797663 l
137.820152 43.893887 l
138.117762 43.223421 l
138.712984 43.355517 l
139.308205 43.023489 l
139.605816 43.110084 l
139.903426 43.031715 l
140.201037 43.331743 l
140.498648 42.739142 l
140.796258 42.830527 l
141.093869 42.661238 l
141.68909 42.811413 l
141.986701 42.330897 l
142.284312 42.659202 l
142.581922 42.270842 l
142.879533 42.543174 l
143.177144 42.502751 l
143.474754 39.207772 l
143.772365 38.3324 l
144.069976 38.121539 l
144.367586 38.197839 l
144.665197 38.042805 l
144.962808 38.150696 l
146.450861 38.047112 l
147.046082 38.125775 l
148.236525 38.13553 l
150.3198 38.105167 l
151.510242 38.113942 l
153.295906 38.182044 l
154.188738 38.151107 l
155.08157 38.12613 l
164.902722 38.170001 l
166.688386 38.177063 l
167.581218 38.182189 l
169.962103 38.186377 l
176.211927 38.207759 l
177.997591 38.204668 l
178.295202 37.534987 l
178.592812 37.456193 l
178.592812 37.456193 l
stroke
grestore
0.604 setgray
gsave
133.6 125.9 44.97 31.73 clipbox
44.965625 151.955057 m
45.263236 148.308866 l
45.858457 144.577524 l
46.751289 141.011673 l
47.644121 138.566358 l
48.239342 137.180712 l
49.727396 134.726704 l
50.620228 133.651887 l
51.51306 132.711421 l
52.703502 130.948391 l
53.596334 129.968292 l
54.489166 129.329345 l
55.97722 128.766009 l
56.572441 128.039512 l
57.167662 126.942442 l
58.060494 125.771194 l
58.953326 125.532513 l
59.548547 125.55909 l
60.143769 125.319135 l
61.929433 124.595921 l
62.524654 124.436691 l
64.310318 123.297706 l
65.798371 121.615342 l
68.179257 118.465042 l
69.964921 115.693305 l
71.452974 113.809077 l
72.048195 113.150301 l
72.941027 111.726626 l
73.238638 111.682131 l
73.536249 111.288509 l
73.833859 111.597793 l
74.13147 111.299869 l
74.429081 111.633805 l
74.726691 110.510945 l
75.024302 110.705105 l
75.619523 110.203697 l
75.917134 110.283593 l
76.214745 109.383811 l
76.512355 106.099451 l
76.809966 106.089699 l
77.702798 105.552774 l
78.298019 105.075618 l
78.59563 104.963378 l
80.381294 103.295337 l
82.166958 100.419358 l
84.547843 96.401557 l
86.333507 94.239414 l
86.928728 93.76886 l
88.714392 91.632415 l
89.012003 91.430342 l
89.904835 90.373878 l
90.202446 90.362209 l
91.095278 89.855167 l
91.392888 90.024103 l
91.690499 89.897612 l
91.98811 89.915883 l
92.28572 90.130685 l
93.773774 89.260296 l
94.368995 89.153492 l
94.666606 89.20503 l
95.261827 88.862024 l
96.74988 87.229672 l
98.237934 85.086569 l
98.833155 84.444564 l
100.321208 82.646113 l
100.91643 81.833939 l
101.21404 81.507997 l
101.511651 81.485017 l
102.106872 80.951997 l
102.999704 80.311056 l
103.892536 79.860195 l
104.190147 79.903576 l
104.487758 79.303895 l
104.785368 79.375035 l
105.082979 78.682633 l
106.273421 77.378487 l
106.571032 77.082436 l
107.166253 76.042121 l
107.463864 75.886564 l
107.761475 75.445654 l
108.356696 75.538429 l
108.654307 75.205535 l
108.951917 75.641831 l
109.249528 74.913822 l
109.547139 76.651364 l
109.844749 74.750845 l
110.14236 75.661189 l
110.439971 75.113173 l
110.737581 74.818331 l
111.035192 75.388752 l
111.630413 74.454423 l
111.928024 74.228453 l
112.225635 74.785397 l
112.523245 75.800831 l
112.820856 74.30378 l
113.118467 74.354225 l
113.416077 75.100668 l
113.713688 76.939301 l
114.011299 74.628185 l
114.308909 74.409629 l
114.60652 74.758375 l
114.904131 74.289106 l
115.201741 74.703504 l
115.796963 74.371012 l
116.094573 75.528925 l
116.689795 75.67592 l
116.987405 74.669723 l
117.285016 75.079215 l
117.880237 74.684864 l
118.177848 76.248687 l
118.773069 74.201919 l
119.07068 74.820452 l
119.368291 74.413121 l
119.665901 74.418403 l
119.963512 75.013002 l
120.261123 74.731374 l
120.558733 75.736885 l
120.856344 74.51687 l
121.153955 74.862178 l
121.451565 74.364753 l
121.749176 74.423739 l
122.046787 74.240807 l
122.344397 76.682572 l
122.642008 74.481766 l
122.939619 75.134509 l
123.237229 74.484303 l
123.53484 76.59531 l
123.832451 74.665204 l
124.130061 75.00397 l
124.427672 74.783996 l
124.725283 74.951507 l
125.022893 74.815107 l
125.320504 74.274649 l
125.915725 75.44472 l
126.213336 74.441733 l
126.510947 76.326649 l
126.808557 74.797235 l
127.106168 74.61071 l
127.701389 77.767856 l
127.999 76.815674 l
128.296611 77.315269 l
128.594221 76.560452 l
128.891832 77.541572 l
129.487053 75.155943 l
129.784664 77.028286 l
130.082274 77.065462 l
130.379885 74.852108 l
130.677496 74.919535 l
130.975106 75.123852 l
131.272717 76.184468 l
131.570328 74.9814 l
131.867938 77.338998 l
132.165549 75.971772 l
132.46316 78.663888 l
132.76077 75.397583 l
133.058381 77.471151 l
133.355992 77.262321 l
133.653602 78.930054 l
133.951213 79.613795 l
134.248824 78.356556 l
134.546434 80.708326 l
135.141656 79.350054 l
135.439266 76.283339 l
135.736877 79.464252 l
136.034488 79.274116 l
136.332098 80.26173 l
136.629709 79.56081 l
136.92732 79.606027 l
137.22493 80.083702 l
137.522541 79.859174 l
137.820152 79.186361 l
138.117762 80.48232 l
138.712984 79.774855 l
139.010594 80.324556 l
139.308205 78.85614 l
139.605816 78.240391 l
139.903426 76.669849 l
140.201037 78.630927 l
140.498648 79.051651 l
140.796258 78.894662 l
141.093869 77.937022 l
141.68909 79.502455 l
141.986701 78.838244 l
142.284312 78.705769 l
142.581922 78.892904 l
142.879533 77.713325 l
143.177144 78.486954 l
143.474754 78.738636 l
143.772365 77.268928 l
144.069976 78.222193 l
144.367586 77.671243 l
144.665197 77.917529 l
144.962808 78.755047 l
145.260418 78.064541 l
145.558029 79.409335 l
145.85564 75.119709 l
146.15325 74.358152 l
146.450861 75.491298 l
146.748472 74.643756 l
147.046082 75.129862 l
147.343693 77.572374 l
147.641304 75.112855 l
147.938914 74.725641 l
148.236525 75.849755 l
148.831746 75.115164 l
149.129357 77.124113 l
149.426968 75.225363 l
149.724578 77.338393 l
150.022189 76.985475 l
150.3198 80.147987 l
150.61741 79.253969 l
150.915021 77.317292 l
151.212632 79.072627 l
151.510242 76.400956 l
151.807853 77.809656 l
152.105464 77.263073 l
152.403074 78.87719 l
152.700685 78.089711 l
152.998296 77.99507 l
153.295906 74.737921 l
153.593517 76.103737 l
153.891128 75.271702 l
154.188738 75.685101 l
154.486349 76.438033 l
154.783959 75.403548 l
155.08157 76.165185 l
155.379181 76.604548 l
155.676791 74.959017 l
155.974402 77.976647 l
156.272013 78.099211 l
156.867234 76.750294 l
157.164845 79.192125 l
157.462455 75.168757 l
157.760066 76.528427 l
158.057677 74.698988 l
158.355287 74.675847 l
158.950509 76.539146 l
159.248119 75.532799 l
159.54573 75.395548 l
159.843341 74.801768 l
160.140951 76.804342 l
160.438562 74.8587 l
160.736173 77.387359 l
161.033783 74.75814 l
161.331394 77.04623 l
161.629005 74.517209 l
162.224226 78.438708 l
162.521837 75.418451 l
162.819447 76.567715 l
163.117058 75.314267 l
163.414669 76.233005 l
163.712279 78.598492 l
164.00989 75.218171 l
164.307501 78.101753 l
164.605111 74.920055 l
164.902722 74.603473 l
165.200333 75.886072 l
165.497943 78.847293 l
165.795554 79.023306 l
166.390775 75.005762 l
166.688386 78.588943 l
166.985997 77.225332 l
167.283607 77.377889 l
167.581218 79.755996 l
167.878829 76.856147 l
168.176439 79.456159 l
168.47405 79.346422 l
168.771661 79.475981 l
169.069271 79.339975 l
169.366882 75.034813 l
169.664493 76.392369 l
169.962103 78.500106 l
170.259714 76.241743 l
170.557325 74.974876 l
170.854935 77.372266 l
171.152546 75.225862 l
171.450157 74.921005 l
171.747767 77.988609 l
172.045378 74.99356 l
172.342989 77.237098 l
172.640599 77.103131 l
172.93821 74.933933 l
173.235821 78.54223 l
173.533431 76.526688 l
173.831042 77.313723 l
174.128653 76.912961 l
174.426263 76.051312 l
174.723874 77.335603 l
175.021485 79.752533 l
175.319095 75.946211 l
175.616706 75.397936 l
175.914317 78.539342 l
176.211927 77.677864 l
176.509538 78.309297 l
176.807149 77.888284 l
177.104759 76.459039 l
177.40237 78.79442 l
177.699981 75.346606 l
177.997591 77.279419 l
178.592812 74.616375 l
178.592812 74.616375 l
stroke
grestore
0.800 setlinewidth
0 setlinecap
0.000 setgray
gsave
/o {
gsave
newpath
translate
0.8 setlinewidth
1 setlinejoin
0 setlinecap
0 0 m
0 -3.5 l

gsave
0.000 setgray
fill
grestore
stroke
grestore
} bind def
44.9656 31.7312 o
grestore
/DejaVuSans findfont
7.000 scalefont
setfont
gsave
42.739063 19.418750 translate
0.000000 rotate
0.000000 0 m /zero glyphshow
grestore
gsave
/o {
gsave
newpath
translate
0.8 setlinewidth
1 setlinejoin
0 setlinecap
0 0 m
0 -3.5 l

gsave
0.000 setgray
fill
grestore
stroke
grestore
} bind def
74.7267 31.7312 o
grestore
gsave
68.047004 19.418750 translate
0.000000 rotate
0.000000 0 m /one glyphshow
4.453613 0 m /zero glyphshow
8.907227 0 m /zero glyphshow
grestore
gsave
/o {
gsave
newpath
translate
0.8 setlinewidth
1 setlinejoin
0 setlinecap
0 0 m
0 -3.5 l

gsave
0.000 setgray
fill
grestore
stroke
grestore
} bind def
104.488 31.7312 o
grestore
gsave
97.808070 19.418750 translate
0.000000 rotate
0.000000 0 m /two glyphshow
4.453613 0 m /zero glyphshow
8.907227 0 m /zero glyphshow
grestore
gsave
/o {
gsave
newpath
translate
0.8 setlinewidth
1 setlinejoin
0 setlinecap
0 0 m
0 -3.5 l

gsave
0.000 setgray
fill
grestore
stroke
grestore
} bind def
134.249 31.7312 o
grestore
gsave
127.569136 19.418750 translate
0.000000 rotate
0.000000 0 m /three glyphshow
4.453613 0 m /zero glyphshow
8.907227 0 m /zero glyphshow
grestore
gsave
/o {
gsave
newpath
translate
0.8 setlinewidth
1 setlinejoin
0 setlinecap
0 0 m
0 -3.5 l

gsave
0.000 setgray
fill
grestore
stroke
grestore
} bind def
164.01 31.7312 o
grestore
gsave
157.330203 19.418750 translate
0.000000 rotate
0.000000 0 m /four glyphshow
4.453613 0 m /zero glyphshow
8.907227 0 m /zero glyphshow
grestore
gsave
84.927656 8.653125 translate
0.000000 rotate
0.000000 0 m /I glyphshow
2.064453 0 m /n glyphshow
6.500977 0 m /n glyphshow
10.937500 0 m /e glyphshow
15.244141 0 m /r glyphshow
18.122070 0 m /space glyphshow
20.347168 0 m /I glyphshow
22.411621 0 m /t glyphshow
25.156250 0 m /e glyphshow
29.462891 0 m /r glyphshow
32.340820 0 m /a glyphshow
36.630371 0 m /t glyphshow
39.375000 0 m /i glyphshow
41.319824 0 m /o glyphshow
45.602539 0 m /n glyphshow
50.039062 0 m /s glyphshow
grestore
gsave
/o {
gsave
newpath
translate
0.8 setlinewidth
1 setlinejoin
0 setlinecap
0 0 m
-3.5 0 l

gsave
0.000 setgray
fill
grestore
stroke
grestore
} bind def
44.9656 53.0182 o
grestore
gsave
17.965625 49.744808 translate
0.000000 rotate
/DejaVuSans findfont
7.0 scalefont
setfont
0.000000 0.678125 moveto
/one glyphshow
4.453613 0.678125 moveto
/zero glyphshow
/DejaVuSans findfont
4.8999999999999995 scalefont
setfont
8.974219 3.357812 moveto
/minus glyphshow
13.079883 3.357812 moveto
/one glyphshow
16.197412 3.357812 moveto
/six glyphshow

grestore
gsave
/o {
gsave
newpath
translate
0.8 setlinewidth
1 setlinejoin
0 setlinecap
0 0 m
-3.5 0 l

gsave
0.000 setgray
fill
grestore
stroke
grestore
} bind def
44.9656 75.9204 o
grestore
gsave
17.965625 72.646981 translate
0.000000 rotate
/DejaVuSans findfont
7.0 scalefont
setfont
0.000000 0.678125 moveto
/one glyphshow
4.453613 0.678125 moveto
/zero glyphshow
/DejaVuSans findfont
4.8999999999999995 scalefont
setfont
8.974219 3.357812 moveto
/minus glyphshow
13.079883 3.357812 moveto
/one glyphshow
16.197412 3.357812 moveto
/three glyphshow

grestore
gsave
/o {
gsave
newpath
translate
0.8 setlinewidth
1 setlinejoin
0 setlinecap
0 0 m
-3.5 0 l

gsave
0.000 setgray
fill
grestore
stroke
grestore
} bind def
44.9656 98.8226 o
grestore
gsave
17.965625 95.549153 translate
0.000000 rotate
/DejaVuSans findfont
7.0 scalefont
setfont
0.000000 0.678125 moveto
/one glyphshow
4.453613 0.678125 moveto
/zero glyphshow
/DejaVuSans findfont
4.8999999999999995 scalefont
setfont
8.974219 3.357812 moveto
/minus glyphshow
13.079883 3.357812 moveto
/one glyphshow
16.197412 3.357812 moveto
/zero glyphshow

grestore
gsave
/o {
gsave
newpath
translate
0.8 setlinewidth
1 setlinejoin
0 setlinecap
0 0 m
-3.5 0 l

gsave
0.000 setgray
fill
grestore
stroke
grestore
} bind def
44.9656 121.725 o
grestore
gsave
20.965625 118.451326 translate
0.000000 rotate
/DejaVuSans findfont
7.0 scalefont
setfont
0.000000 0.743750 moveto
/one glyphshow
4.453613 0.743750 moveto
/zero glyphshow
/DejaVuSans findfont
4.8999999999999995 scalefont
setfont
8.974219 3.423438 moveto
/minus glyphshow
13.079883 3.423438 moveto
/seven glyphshow

grestore
gsave
/o {
gsave
newpath
translate
0.8 setlinewidth
1 setlinejoin
0 setlinecap
0 0 m
-3.5 0 l

gsave
0.000 setgray
fill
grestore
stroke
grestore
} bind def
44.9656 144.627 o
grestore
gsave
20.965625 141.353498 translate
0.000000 rotate
/DejaVuSans findfont
7.0 scalefont
setfont
0.000000 0.743750 moveto
/one glyphshow
4.453613 0.743750 moveto
/zero glyphshow
/DejaVuSans findfont
4.8999999999999995 scalefont
setfont
8.974219 3.423438 moveto
/minus glyphshow
13.079883 3.423438 moveto
/four glyphshow

grestore
gsave
12.512500 47.674375 translate
90.000000 rotate
0.000000 0 m /N glyphshow
5.236328 0 m /o glyphshow
9.519043 0 m /r glyphshow
12.271973 0 m /m glyphshow
19.090820 0 m /w glyphshow
24.815918 0 m /i glyphshow
26.760742 0 m /s glyphshow
30.407715 0 m /e glyphshow
34.714355 0 m /space glyphshow
36.939453 0 m /B glyphshow
41.741699 0 m /a glyphshow
46.031250 0 m /c glyphshow
49.879883 0 m /k glyphshow
53.933594 0 m /w glyphshow
59.658691 0 m /a glyphshow
63.948242 0 m /r glyphshow
66.701172 0 m /d glyphshow
71.144531 0 m /s glyphshow
74.791504 0 m /space glyphshow
77.016602 0 m /E glyphshow
81.439453 0 m /r glyphshow
84.192383 0 m /r glyphshow
86.945312 0 m /o glyphshow
91.228027 0 m /r glyphshow
grestore
0 setlinejoin
2 setlinecap
[] 0 setdash
gsave
44.965625 31.73125 m
44.965625 157.68 l
stroke
grestore
gsave
178.592812 31.73125 m
178.592812 157.68 l
stroke
grestore
gsave
44.965625 31.73125 m
178.592812 31.73125 l
stroke
grestore
gsave
44.965625 157.68 m
178.592812 157.68 l
stroke
grestore
gsave
189.652813 31.73125 m
323.28 31.73125 l
323.28 157.68 l
189.652813 157.68 l
cl
1.000 setgray
fill
grestore
1.500 setlinewidth
1 setlinejoin
0 setlinecap
[] 0 setdash
gsave
133.6 125.9 189.7 31.73 clipbox
/o {
gsave
newpath
translate
1.5 setlinewidth
1 setlinejoin
0 setlinecap
0 -3 m
0 3 l

gsave
0.000 setgray
fill
grestore
stroke
grestore
} bind def
278.638 107.543 o
grestore
gsave
133.6 125.9 189.7 31.73 clipbox
/o {
gsave
newpath
translate
1.5 setlinewidth
1 setlinejoin
0 setlinecap
0 -3 m
0 3 l

gsave
0.000 setgray
fill
grestore
stroke
grestore
} bind def
278.638 44.8898 o
grestore
[9.6 2.4 1.5 2.4] 0 setdash
gsave
133.6 125.9 189.7 31.73 clipbox
189.652813 151.955057 m
189.950423 148.308855 l
190.545644 144.577514 l
191.438476 141.011673 l
192.331308 138.566358 l
192.92653 137.180712 l
194.414583 134.726704 l
195.307415 133.651914 l
196.200247 132.711385 l
197.39069 130.94835 l
198.283522 129.968319 l
199.176354 129.329338 l
200.664407 128.766005 l
201.259628 128.039512 l
201.85485 126.942635 l
202.747682 125.771712 l
203.640514 125.533049 l
204.235735 125.559622 l
204.830956 125.319292 l
206.61662 124.59581 l
207.211842 124.436808 l
208.997506 123.29686 l
210.485559 121.614756 l
212.866444 118.463721 l
214.949719 115.2018 l
215.54494 114.372039 l
216.140161 113.821546 l
217.330604 112.416279 l
218.223436 110.912187 l
219.116268 110.173124 l
219.711489 109.118496 l
220.901932 107.612472 l
221.199543 107.750516 l
221.497153 108.323664 l
221.794764 108.474713 l
222.389985 108.205106 l
222.985207 108.315991 l
223.282817 107.946366 l
223.580428 108.61242 l
223.878039 107.310187 l
224.175649 106.861676 l
224.47326 106.969892 l
224.770871 106.836316 l
225.068481 107.105336 l
225.366092 106.560405 l
225.663703 106.431729 l
225.961313 106.616829 l
226.258924 107.592572 l
226.556535 107.521489 l
226.854145 107.635553 l
227.449367 107.41793 l
227.746977 107.763775 l
228.044588 107.853805 l
228.342199 107.452925 l
228.639809 108.007797 l
228.93742 107.491317 l
229.532641 107.520599 l
229.830252 107.796936 l
230.425473 107.499509 l
230.723084 107.522931 l
231.020695 107.664721 l
231.318305 107.491876 l
231.615916 107.482692 l
231.913527 107.696807 l
232.211137 107.499509 l
232.508748 107.611512 l
232.806359 107.509468 l
233.103969 107.697241 l
233.996801 107.696602 l
234.592023 107.777048 l
234.889633 107.56492 l
235.187244 107.545687 l
235.484855 107.775489 l
236.377687 107.516483 l
236.675297 107.706919 l
236.972908 107.583687 l
237.568129 107.713189 l
237.86574 107.69391 l
238.163351 107.516001 l
239.056182 107.694161 l
239.353793 107.517687 l
239.651404 107.783765 l
240.841846 107.713348 l
241.139457 107.545377 l
271.495745 107.543395 l
278.638401 107.543395 l
278.936011 104.744162 l
279.828843 104.511059 l
282.507339 104.470877 l
283.697782 104.46886 l
295.006987 104.449487 l
297.387872 104.519907 l
300.066368 104.492075 l
306.316192 104.481926 l
323.28 104.488674 l
323.28 104.488674 l
stroke
grestore
[5.55 2.4] 0 setdash
gsave
133.6 125.9 189.7 31.73 clipbox
189.652813 151.955057 m
189.950423 148.308866 l
190.545644 144.577521 l
191.438476 141.011673 l
192.331308 138.566358 l
192.92653 137.180712 l
194.414583 134.72671 l
195.307415 133.651905 l
196.200247 132.711397 l
197.39069 130.948371 l
198.283522 129.968292 l
199.176354 129.329345 l
200.664407 128.76599 l
201.259628 128.039438 l
201.85485 126.942511 l
202.747682 125.771526 l
203.640514 125.532839 l
204.235735 125.559664 l
204.830956 125.319415 l
206.61662 124.595601 l
207.211842 124.436662 l
208.997506 123.296819 l
210.485559 121.614697 l
212.866444 118.464962 l
214.652108 115.686654 l
215.54494 114.349117 l
216.140161 113.767607 l
216.735383 113.081135 l
218.818657 109.993439 l
220.0091 108.214543 l
221.794764 105.589561 l
224.47326 103.455186 l
225.068481 102.728378 l
225.961313 101.134781 l
226.854145 99.216332 l
227.746977 97.262114 l
228.342199 95.690367 l
229.235031 94.141552 l
231.615916 90.557406 l
233.40158 86.659145 l
234.294412 85.420227 l
235.187244 84.297579 l
237.270519 80.154188 l
239.353793 75.53754 l
240.544236 72.647644 l
242.032289 69.080683 l
243.520342 66.680465 l
246.198838 61.013291 l
247.389281 57.783791 l
248.579724 54.78907 l
249.770166 52.327162 l
250.662998 50.931761 l
252.746273 46.680749 l
253.341494 45.675952 l
253.639105 45.560159 l
253.936716 45.282557 l
254.531937 45.167346 l
254.829548 45.360732 l
255.127158 45.078565 l
255.72238 45.007407 l
256.01999 44.720978 l
256.615212 44.964951 l
257.805654 44.918791 l
267.031585 44.91361 l
269.114859 44.916085 l
278.638401 44.889831 l
278.936011 38.609866 l
279.233622 38.050142 l
279.828843 37.844685 l
280.424065 37.905 l
280.721675 37.861655 l
281.316897 37.962933 l
282.209729 37.947349 l
283.102561 37.989658 l
289.054774 38.086737 l
291.435659 38.072749 l
294.411766 38.134437 l
299.768758 38.109215 l
323.28 38.148197 l
323.28 38.148197 l
stroke
grestore
[] 0 setdash
gsave
133.6 125.9 189.7 31.73 clipbox
/o {
gsave
newpath
translate
1.5 setlinewidth
1 setlinejoin
0 setlinecap
0 -3 m
0 3 l

gsave
0.000 setgray
fill
grestore
stroke
grestore
} bind def
208.998 123.297 o
237.271 93.5106 o
266.734 63.5816 o
295.9 38.4143 o
322.982 37.7677 o
grestore
0.298 setgray
gsave
133.6 125.9 189.7 31.73 clipbox
/o {
gsave
newpath
translate
1.5 setlinewidth
1 setlinejoin
0 setlinecap
0 -3 m
0 3 l

gsave
0.298 setgray
fill
grestore
stroke
grestore
} bind def
214.95 115.21 o
249.473 80.61 o
284.293 41.3381 o
319.113 38.1932 o
grestore
0.604 setgray
gsave
133.6 125.9 189.7 31.73 clipbox
/o {
gsave
newpath
translate
1.5 setlinewidth
1 setlinejoin
0 setlinecap
0 -3 m
0 3 l

gsave
0.604 setgray
fill
grestore
stroke
grestore
} bind def
220.307 108.319 o
258.996 75.3367 o
297.983 38.4081 o
grestore
2 setlinecap
0.000 setgray
gsave
133.6 125.9 189.7 31.73 clipbox
189.652813 151.955057 m
189.950423 148.308855 l
190.545644 144.577514 l
191.438476 141.011663 l
192.331308 138.566358 l
192.92653 137.180712 l
194.414583 134.726704 l
195.307415 133.651914 l
196.200247 132.711421 l
197.39069 130.948371 l
198.283522 129.968292 l
199.176354 129.329328 l
200.664407 128.766041 l
201.259628 128.039586 l
201.85485 126.942758 l
202.747682 125.771683 l
203.640514 125.533175 l
204.235735 125.559747 l
204.830956 125.319359 l
206.61662 124.595364 l
207.211842 124.436472 l
208.997506 123.297252 l
211.378391 120.762165 l
213.164055 118.175596 l
213.759276 117.564913 l
214.949719 116.910341 l
215.842551 116.403441 l
216.735383 116.260809 l
217.628215 115.824378 l
218.818657 114.99155 l
219.711489 114.346632 l
220.901932 113.935268 l
221.794764 113.669772 l
222.389985 113.332829 l
224.47326 111.332573 l
226.854145 109.781648 l
227.449367 109.118154 l
228.044588 108.069659 l
229.235031 105.644806 l
229.532641 105.792413 l
229.830252 104.755624 l
231.615916 101.184456 l
232.508748 100.072566 l
233.103969 99.540399 l
233.699191 98.686336 l
234.889633 96.905059 l
237.86574 92.737501 l
238.163351 91.464013 l
240.246625 88.779198 l
241.437068 88.686727 l
242.032289 88.08675 l
242.62751 87.495697 l
244.710785 84.813512 l
245.603617 83.113705 l
246.79406 80.900406 l
247.389281 80.162028 l
248.282113 78.677369 l
248.877334 77.577969 l
249.770166 76.480417 l
250.365388 76.03175 l
250.662998 75.943315 l
251.25822 75.382756 l
251.55583 74.984686 l
251.853441 74.785271 l
252.151052 74.403657 l
253.936716 73.689695 l
255.127158 73.770556 l
256.01999 73.128627 l
256.317601 72.900789 l
256.615212 72.846235 l
257.210433 72.496851 l
257.508044 72.318968 l
257.805654 72.004847 l
258.698486 71.562859 l
260.18654 70.506956 l
261.079372 69.640407 l
261.674593 68.763943 l
262.567425 67.415878 l
264.055478 65.926715 l
264.94831 65.195535 l
265.841142 64.271785 l
266.138753 63.886775 l
266.733974 63.581632 l
267.329195 62.631704 l
267.924417 61.444146 l
269.41247 60.237856 l
270.602913 58.566583 l
271.495745 56.821209 l
272.090966 55.74457 l
273.281409 54.191197 l
276.555126 51.369971 l
277.150347 50.716297 l
279.828843 48.44616 l
280.424065 47.505362 l
281.614507 45.08775 l
282.209729 44.621399 l
282.80495 43.959409 l
285.185835 43.028182 l
286.673889 42.960518 l
287.56672 42.850998 l
287.864331 42.772633 l
289.054774 41.796121 l
289.649995 41.139123 l
290.245216 40.666815 l
291.138048 39.619166 l
292.328491 38.965887 l
292.626102 38.813672 l
293.221323 38.680856 l
295.602208 38.398 l
297.090262 38.404756 l
297.387872 37.581014 l
298.578315 37.625969 l
298.875926 37.785975 l
299.471147 37.749192 l
299.768758 37.708786 l
300.066368 37.810515 l
300.66159 37.798153 l
301.852032 37.803736 l
302.447254 37.763696 l
304.530528 37.813574 l
305.12575 37.826526 l
308.101856 37.774838 l
309.88752 37.790662 l
312.566016 37.786139 l
323.28 37.7697 l
323.28 37.7697 l
stroke
grestore
0.298 setgray
gsave
133.6 125.9 189.7 31.73 clipbox
189.652813 151.955057 m
189.950423 148.308855 l
190.545644 144.577514 l
191.438476 141.011663 l
192.331308 138.566358 l
192.92653 137.180712 l
194.414583 134.726704 l
195.307415 133.651914 l
196.200247 132.711421 l
197.39069 130.948371 l
198.283522 129.968292 l
199.176354 129.329328 l
200.664407 128.766041 l
201.259628 128.039586 l
201.85485 126.942758 l
202.747682 125.771683 l
203.640514 125.533175 l
204.235735 125.559747 l
204.830956 125.319359 l
206.61662 124.595364 l
207.211842 124.436472 l
208.997506 123.297252 l
210.485559 121.614896 l
212.866444 118.464581 l
214.949719 115.209782 l
215.842551 113.815787 l
216.437772 113.43276 l
217.330604 112.551473 l
219.116268 110.625773 l
220.306711 109.375642 l
223.878039 104.673669 l
225.366092 103.427914 l
227.449367 101.888431 l
228.044588 101.202198 l
228.342199 100.992625 l
228.639809 100.625713 l
231.318305 99.184411 l
232.211137 99.036916 l
233.699191 98.826103 l
234.592023 97.903738 l
235.484855 96.70148 l
236.972908 95.564969 l
238.460961 94.064722 l
239.353793 92.709685 l
241.139457 89.063857 l
241.437068 89.639143 l
241.734678 88.901871 l
242.62751 88.037478 l
243.817953 86.585788 l
244.115564 86.544795 l
244.710785 86.122112 l
245.306006 85.818431 l
246.198838 85.104503 l
246.79406 84.279246 l
247.09167 83.946538 l
247.686892 82.449669 l
248.282113 81.796386 l
248.579724 81.748328 l
249.174945 80.983494 l
249.472556 80.609981 l
249.770166 80.999417 l
250.067777 80.526246 l
250.365388 77.271289 l
250.960609 75.993572 l
251.55583 75.085596 l
253.043884 72.461551 l
254.531937 70.273564 l
256.01999 67.338529 l
256.615212 66.594191 l
257.508044 65.812178 l
258.103265 65.322615 l
259.293708 63.9638 l
259.888929 63.403807 l
261.079372 62.036339 l
261.376982 61.875037 l
264.353089 61.521975 l
264.94831 61.131808 l
265.543531 60.746438 l
266.436363 60.217408 l
267.031585 60.019295 l
267.626806 59.488283 l
267.924417 59.370198 l
268.519638 58.932563 l
268.817249 58.883904 l
269.41247 58.284982 l
270.305302 57.200985 l
271.198134 56.210076 l
273.579019 52.767392 l
274.471851 51.184263 l
275.364683 50.155958 l
275.959905 49.660839 l
276.852737 48.757685 l
277.745569 47.978007 l
278.638401 46.684737 l
279.828843 45.059214 l
280.126454 44.730372 l
280.721675 43.752301 l
281.019286 43.33306 l
281.316897 43.26453 l
281.614507 42.694887 l
281.912118 42.525852 l
282.209729 42.173954 l
282.507339 42.467506 l
282.80495 42.109367 l
283.400171 41.850958 l
283.697782 42.077243 l
283.995393 41.406034 l
284.293003 41.338116 l
284.590614 41.384635 l
284.888225 41.19221 l
285.185835 41.49733 l
285.483446 39.463003 l
286.078667 39.065295 l
287.56672 38.80056 l
288.757163 38.517944 l
289.947606 38.428024 l
290.542827 38.31027 l
291.435659 38.292216 l
292.03088 38.256723 l
293.518934 38.227627 l
293.816544 38.260392 l
294.411766 38.135736 l
295.899819 38.259624 l
296.49504 38.169885 l
300.66159 38.19117 l
303.042475 38.159322 l
303.637696 38.160524 l
304.530528 38.151694 l
307.804246 38.163569 l
315.542123 38.193694 l
320.303893 38.189457 l
320.601504 37.568902 l
321.196725 37.480431 l
323.28 37.628202 l
323.28 37.628202 l
stroke
grestore
0.604 setgray
gsave
133.6 125.9 189.7 31.73 clipbox
189.652813 151.955057 m
189.950423 148.308855 l
190.545644 144.577514 l
191.438476 141.011663 l
192.331308 138.566358 l
192.92653 137.180712 l
194.414583 134.726704 l
195.307415 133.651914 l
196.200247 132.711421 l
197.39069 130.948371 l
198.283522 129.968292 l
199.176354 129.329328 l
200.664407 128.766041 l
201.259628 128.039586 l
201.85485 126.942758 l
202.747682 125.771683 l
203.640514 125.533175 l
204.235735 125.559747 l
204.830956 125.319359 l
206.61662 124.595364 l
207.211842 124.436472 l
208.997506 123.297252 l
210.485559 121.614896 l
212.866444 118.464581 l
214.949719 115.209782 l
215.54494 114.363958 l
215.842551 114.151839 l
216.437772 113.563442 l
216.735383 113.275991 l
217.032993 112.745014 l
217.330604 112.445863 l
217.925825 111.283256 l
218.521047 110.630079 l
219.116268 110.293686 l
219.413879 109.530619 l
220.604321 107.789448 l
220.901932 106.750809 l
221.497153 106.174666 l
221.794764 106.077047 l
222.687596 105.268182 l
222.985207 105.156685 l
225.366092 102.932875 l
226.854145 100.241192 l
228.639809 96.907004 l
229.235031 96.070531 l
232.508748 92.286179 l
234.294412 89.694608 l
234.592023 89.332989 l
235.187244 88.322501 l
235.782465 87.472693 l
236.080076 86.96403 l
236.675297 86.668826 l
239.056182 83.459511 l
239.651404 82.927601 l
239.949014 82.543412 l
240.544236 82.046065 l
241.734678 80.950463 l
242.3299 80.335438 l
243.520342 79.479462 l
245.603617 77.16304 l
246.198838 76.511327 l
246.496449 76.440896 l
246.79406 76.166632 l
247.389281 76.647399 l
247.686892 76.512907 l
247.984502 76.849741 l
248.282113 76.60878 l
248.877334 76.711347 l
249.174945 76.415522 l
249.472556 76.512492 l
249.770166 76.89675 l
250.067777 76.771162 l
250.365388 76.845354 l
250.662998 76.325417 l
250.960609 76.140736 l
251.25822 75.548529 l
251.853441 75.004132 l
252.151052 74.949179 l
252.448662 74.62482 l
252.746273 75.094851 l
253.043884 74.875391 l
253.341494 75.661308 l
253.639105 74.725793 l
253.936716 74.377993 l
254.234326 74.808891 l
254.531937 74.602782 l
255.127158 75.187019 l
255.424769 75.088274 l
255.72238 75.448579 l
256.01999 75.387393 l
256.317601 75.51405 l
256.615212 75.483462 l
257.210433 75.081419 l
258.103265 75.891652 l
258.400876 75.501388 l
258.698486 75.694371 l
258.996097 75.336729 l
259.293708 75.829262 l
259.591318 75.692663 l
259.888929 70.514448 l
260.48415 66.403808 l
261.079372 64.080359 l
261.674593 62.683276 l
262.269814 61.382238 l
263.162646 60.303702 l
263.757867 59.798492 l
264.650699 58.284846 l
265.841142 56.267582 l
267.031585 54.789401 l
267.924417 53.692813 l
268.817249 52.795104 l
269.41247 52.308689 l
269.710081 52.100359 l
270.900523 50.855531 l
271.495745 50.560107 l
272.388577 50.958681 l
273.281409 50.765233 l
274.174241 50.360549 l
274.769462 49.908281 l
275.067073 49.774773 l
275.662294 49.264904 l
275.959905 49.175137 l
276.257515 48.892529 l
277.150347 48.440389 l
278.043179 47.738304 l
278.638401 46.992733 l
279.828843 45.637167 l
280.721675 44.942872 l
283.697782 41.639669 l
284.590614 40.719775 l
286.376278 39.286941 l
286.971499 38.994325 l
289.054774 38.42751 l
289.352384 38.536015 l
289.649995 38.41904 l
291.73327 38.45917 l
292.03088 38.353113 l
292.923712 38.451264 l
295.304598 38.426537 l
296.19743 38.453356 l
298.875926 38.457189 l
299.173536 37.619951 l
300.066368 37.62866 l
300.66159 37.721853 l
301.256811 37.701335 l
303.340086 37.70012 l
304.530528 37.744579 l
305.42336 37.69299 l
306.018582 37.72103 l
306.911414 37.722006 l
321.494336 37.666657 l
323.28 37.672181 l
323.28 37.672181 l
stroke
grestore
0.800 setlinewidth
0 setlinecap
0.000 setgray
gsave
/o {
gsave
newpath
translate
0.8 setlinewidth
1 setlinejoin
0 setlinecap
0 0 m
0 -3.5 l

gsave
0.000 setgray
fill
grestore
stroke
grestore
} bind def
189.653 31.7312 o
grestore
gsave
187.426250 19.418750 translate
0.000000 rotate
0.000000 0 m /zero glyphshow
grestore
gsave
/o {
gsave
newpath
translate
0.8 setlinewidth
1 setlinejoin
0 setlinecap
0 0 m
0 -3.5 l

gsave
0.000 setgray
fill
grestore
stroke
grestore
} bind def
219.414 31.7312 o
grestore
gsave
212.734191 19.418750 translate
0.000000 rotate
0.000000 0 m /one glyphshow
4.453613 0 m /zero glyphshow
8.907227 0 m /zero glyphshow
grestore
gsave
/o {
gsave
newpath
translate
0.8 setlinewidth
1 setlinejoin
0 setlinecap
0 0 m
0 -3.5 l

gsave
0.000 setgray
fill
grestore
stroke
grestore
} bind def
249.175 31.7312 o
grestore
gsave
242.495258 19.418750 translate
0.000000 rotate
0.000000 0 m /two glyphshow
4.453613 0 m /zero glyphshow
8.907227 0 m /zero glyphshow
grestore
gsave
/o {
gsave
newpath
translate
0.8 setlinewidth
1 setlinejoin
0 setlinecap
0 0 m
0 -3.5 l

gsave
0.000 setgray
fill
grestore
stroke
grestore
} bind def
278.936 31.7312 o
grestore
gsave
272.256324 19.418750 translate
0.000000 rotate
0.000000 0 m /three glyphshow
4.453613 0 m /zero glyphshow
8.907227 0 m /zero glyphshow
grestore
gsave
/o {
gsave
newpath
translate
0.8 setlinewidth
1 setlinejoin
0 setlinecap
0 0 m
0 -3.5 l

gsave
0.000 setgray
fill
grestore
stroke
grestore
} bind def
308.697 31.7312 o
grestore
gsave
302.017390 19.418750 translate
0.000000 rotate
0.000000 0 m /four glyphshow
4.453613 0 m /zero glyphshow
8.907227 0 m /zero glyphshow
grestore
gsave
229.614844 8.653125 translate
0.000000 rotate
0.000000 0 m /I glyphshow
2.064453 0 m /n glyphshow
6.500977 0 m /n glyphshow
10.937500 0 m /e glyphshow
15.244141 0 m /r glyphshow
18.122070 0 m /space glyphshow
20.347168 0 m /I glyphshow
22.411621 0 m /t glyphshow
25.156250 0 m /e glyphshow
29.462891 0 m /r glyphshow
32.340820 0 m /a glyphshow
36.630371 0 m /t glyphshow
39.375000 0 m /i glyphshow
41.319824 0 m /o glyphshow
45.602539 0 m /n glyphshow
50.039062 0 m /s glyphshow
grestore
gsave
/o {
gsave
newpath
translate
0.8 setlinewidth
1 setlinejoin
0 setlinecap
0 0 m
-3.5 0 l

gsave
0.000 setgray
fill
grestore
stroke
grestore
} bind def
189.653 53.0182 o
grestore
gsave
/o {
gsave
newpath
translate
0.8 setlinewidth
1 setlinejoin
0 setlinecap
0 0 m
-3.5 0 l

gsave
0.000 setgray
fill
grestore
stroke
grestore
} bind def
189.653 75.9204 o
grestore
gsave
/o {
gsave
newpath
translate
0.8 setlinewidth
1 setlinejoin
0 setlinecap
0 0 m
-3.5 0 l

gsave
0.000 setgray
fill
grestore
stroke
grestore
} bind def
189.653 98.8226 o
grestore
gsave
/o {
gsave
newpath
translate
0.8 setlinewidth
1 setlinejoin
0 setlinecap
0 0 m
-3.5 0 l

gsave
0.000 setgray
fill
grestore
stroke
grestore
} bind def
189.653 121.725 o
grestore
gsave
/o {
gsave
newpath
translate
0.8 setlinewidth
1 setlinejoin
0 setlinecap
0 0 m
-3.5 0 l

gsave
0.000 setgray
fill
grestore
stroke
grestore
} bind def
189.653 144.627 o
grestore
0 setlinejoin
2 setlinecap
[] 0 setdash
gsave
189.652813 31.73125 m
189.652813 157.68 l
stroke
grestore
gsave
323.28 31.73125 m
323.28 157.68 l
stroke
grestore
gsave
189.652813 31.73125 m
323.28 31.73125 l
stroke
grestore
gsave
189.652813 157.68 m
323.28 157.68 l
stroke
grestore
1.000 setlinewidth
0 setlinecap
0.800 setgray
gsave
255.9 111.14 m
326.3 111.14 l
327.233333 111.14 327.7 111.606667 327.7 112.54 c
327.7 162.87125 l
327.7 163.804583 327.233333 164.27125 326.3 164.27125 c
255.9 164.27125 l
254.966667 164.27125 254.5 163.804583 254.5 162.87125 c
254.5 112.54 l
254.5 111.606667 254.966667 111.14 255.9 111.14 c
cl
gsave
1.000 setgray
fill
grestore
stroke
grestore
1.500 setlinewidth
1 setlinejoin
[9.6 2.4 1.5 2.4] 0 setdash
0.000 setgray
gsave
257.3 158.60875 m
271.3 158.60875 l
stroke
grestore
gsave
276.900000 156.158750 translate
0.000000 rotate
0.000000 0 m /S glyphshow
4.443359 0 m /i glyphshow
6.388184 0 m /n glyphshow
10.824707 0 m /g glyphshow
15.268066 0 m /l glyphshow
17.212891 0 m /e glyphshow
grestore
2 setlinecap
[] 0 setdash
gsave
257.3 148.405625 m
271.3 148.405625 l
stroke
grestore
gsave
276.900000 145.955625 translate
0.000000 rotate
/DejaVuSans findfont
7.0 scalefont
setfont
0.000000 0.743750 moveto
/I glyphshow
1.814453 0.743750 moveto
/m glyphshow
8.633301 0.743750 moveto
/p glyphshow
13.076660 0.743750 moveto
/r glyphshow
15.954590 0.743750 moveto
/o glyphshow
20.237305 0.743750 moveto
/v glyphshow
24.379883 0.743750 moveto
/e glyphshow
28.686523 0.743750 moveto
/space glyphshow
30.911621 0.743750 moveto
/one glyphshow
35.365234 0.743750 moveto
/zero glyphshow
/DejaVuSans findfont
4.8999999999999995 scalefont
setfont
39.885840 3.423438 moveto
/minus glyphshow
43.991504 3.423438 moveto
/four glyphshow

grestore
0.298 setgray
gsave
257.3 137.655625 m
271.3 137.655625 l
stroke
grestore
0.000 setgray
gsave
276.900000 135.205625 translate
0.000000 rotate
/DejaVuSans findfont
7.0 scalefont
setfont
0.000000 0.743750 moveto
/I glyphshow
1.814453 0.743750 moveto
/m glyphshow
8.633301 0.743750 moveto
/p glyphshow
13.076660 0.743750 moveto
/r glyphshow
15.954590 0.743750 moveto
/o glyphshow
20.237305 0.743750 moveto
/v glyphshow
24.379883 0.743750 moveto
/e glyphshow
28.686523 0.743750 moveto
/space glyphshow
30.911621 0.743750 moveto
/one glyphshow
35.365234 0.743750 moveto
/zero glyphshow
/DejaVuSans findfont
4.8999999999999995 scalefont
setfont
39.885840 3.423438 moveto
/minus glyphshow
43.991504 3.423438 moveto
/five glyphshow

grestore
0.604 setgray
gsave
257.3 126.905625 m
271.3 126.905625 l
stroke
grestore
0.000 setgray
gsave
276.900000 124.455625 translate
0.000000 rotate
/DejaVuSans findfont
7.0 scalefont
setfont
0.000000 0.678125 moveto
/I glyphshow
1.814453 0.678125 moveto
/m glyphshow
8.633301 0.678125 moveto
/p glyphshow
13.076660 0.678125 moveto
/r glyphshow
15.954590 0.678125 moveto
/o glyphshow
20.237305 0.678125 moveto
/v glyphshow
24.379883 0.678125 moveto
/e glyphshow
28.686523 0.678125 moveto
/space glyphshow
30.911621 0.678125 moveto
/one glyphshow
35.365234 0.678125 moveto
/zero glyphshow
/DejaVuSans findfont
4.8999999999999995 scalefont
setfont
39.885840 3.357812 moveto
/minus glyphshow
43.991504 3.357812 moveto
/six glyphshow

grestore
0 setlinecap
[5.55 2.4] 0 setdash
gsave
257.3 117.843125 m
271.3 117.843125 l
stroke
grestore
gsave
276.900000 115.393125 translate
0.000000 rotate
0.000000 0 m /D glyphshow
5.390137 0 m /o glyphshow
9.672852 0 m /u glyphshow
14.109375 0 m /b glyphshow
18.552734 0 m /l glyphshow
20.497559 0 m /e glyphshow
grestore

end
showpage
