%!PS-Adobe-3.0 EPSF-3.0
%%Title: ../smc20/figures/speedup_restart50.eps
%%Creator: matplotlib version 3.2.1, http://matplotlib.org/
%%CreationDate: Wed Sep  2 09:57:28 2020
%%Orientation: portrait
%%BoundingBox: 140.76000000000008 265.0855625 471.2399999999999 526.9144375
%%EndComments
%%BeginProlog
/mpldict 8 dict def
mpldict begin
/m { moveto } bind def
/l { lineto } bind def
/r { rlineto } bind def
/c { curveto } bind def
/cl { closepath } bind def
/box {
m
1 index 0 r
0 exch r
neg 0 r
cl
} bind def
/clipbox {
box
clip
newpath
} bind def
%!PS-Adobe-3.0 Resource-Font
%%Title: DejaVu Sans
%%Copyright: Copyright (c) 2003 by Bitstream, Inc. All Rights Reserved. Copyright (c) 2006 by Tavmjong Bah. All Rights Reserved. DejaVu changes are in public domain 
%%Creator: Converted from TrueType to type 3 by PPR
25 dict begin
/_d{bind def}bind def
/_m{moveto}_d
/_l{lineto}_d
/_cl{closepath eofill}_d
/_c{curveto}_d
/_sc{7 -1 roll{setcachedevice}{pop pop pop pop pop pop}ifelse}_d
/_e{exec}_d
/FontName /DejaVuSans def
/PaintType 0 def
/FontMatrix[.001 0 0 .001 0 0]def
/FontBBox[-1021 -463 1793 1232]def
/FontType 3 def
/Encoding [ /space /period /zero /one /two /three /five /seven /D /E /F /I /L /M /S /U /Z /underscore /a /b /c /d /e /f /g /h /i /j /k /l /m /n /o /p /r /s /t /u /v /w /x /y ] def
/FontInfo 10 dict dup begin
/FamilyName (DejaVu Sans) def
/FullName (DejaVu Sans) def
/Notice (Copyright (c) 2003 by Bitstream, Inc. All Rights Reserved. Copyright (c) 2006 by Tavmjong Bah. All Rights Reserved. DejaVu changes are in public domain ) def
/Weight (Book) def
/Version (Version 2.35) def
/ItalicAngle 0.0 def
/isFixedPitch false def
/UnderlinePosition -130 def
/UnderlineThickness 90 def
end readonly def
/CharStrings 43 dict dup begin
/.notdef 0 def
/space{318 0 0 0 0 0 _sc
}_d
/period{318 0 107 0 210 124 _sc
107 124 _m
210 124 _l
210 0 _l
107 0 _l
107 124 _l
_cl}_d
/zero{636 0 66 -13 570 742 _sc
318 664 _m
267 664 229 639 203 589 _c
177 539 165 464 165 364 _c
165 264 177 189 203 139 _c
229 89 267 64 318 64 _c
369 64 407 89 433 139 _c
458 189 471 264 471 364 _c
471 464 458 539 433 589 _c
407 639 369 664 318 664 _c
318 742 _m
399 742 461 709 505 645 _c
548 580 570 486 570 364 _c
570 241 548 147 505 83 _c
461 19 399 -13 318 -13 _c
236 -13 173 19 130 83 _c
87 147 66 241 66 364 _c
66 486 87 580 130 645 _c
173 709 236 742 318 742 _c
_cl}_d
/one{636 0 110 0 544 729 _sc
124 83 _m
285 83 _l
285 639 _l
110 604 _l
110 694 _l
284 729 _l
383 729 _l
383 83 _l
544 83 _l
544 0 _l
124 0 _l
124 83 _l
_cl}_d
/two{{636 0 73 0 536 742 _sc
192 83 _m
536 83 _l
536 0 _l
73 0 _l
73 83 _l
110 121 161 173 226 239 _c
290 304 331 346 348 365 _c
380 400 402 430 414 455 _c
426 479 433 504 433 528 _c
433 566 419 598 392 622 _c
365 646 330 659 286 659 _c
255 659 222 653 188 643 _c
154 632 117 616 78 594 _c
78 694 _l
118 710 155 722 189 730 _c
223 738 255 742 284 742 _c
}_e{359 742 419 723 464 685 _c
509 647 532 597 532 534 _c
532 504 526 475 515 449 _c
504 422 484 390 454 354 _c
446 344 420 317 376 272 _c
332 227 271 164 192 83 _c
_cl}_e}_d
/three{{636 0 76 -13 556 742 _sc
406 393 _m
453 383 490 362 516 330 _c
542 298 556 258 556 212 _c
556 140 531 84 482 45 _c
432 6 362 -13 271 -13 _c
240 -13 208 -10 176 -4 _c
144 1 110 10 76 22 _c
76 117 _l
103 101 133 89 166 81 _c
198 73 232 69 268 69 _c
330 69 377 81 409 105 _c
441 129 458 165 458 212 _c
458 254 443 288 413 312 _c
383 336 341 349 287 349 _c
}_e{202 349 _l
202 430 _l
291 430 _l
339 430 376 439 402 459 _c
428 478 441 506 441 543 _c
441 580 427 609 401 629 _c
374 649 336 659 287 659 _c
260 659 231 656 200 650 _c
169 644 135 635 98 623 _c
98 711 _l
135 721 170 729 203 734 _c
235 739 266 742 296 742 _c
370 742 429 725 473 691 _c
517 657 539 611 539 553 _c
539 513 527 479 504 451 _c
481 423 448 403 406 393 _c
_cl}_e}_d
/five{{636 0 77 -13 549 729 _sc
108 729 _m
495 729 _l
495 646 _l
198 646 _l
198 467 _l
212 472 227 476 241 478 _c
255 480 270 482 284 482 _c
365 482 429 459 477 415 _c
525 370 549 310 549 234 _c
549 155 524 94 475 51 _c
426 8 357 -13 269 -13 _c
238 -13 207 -10 175 -6 _c
143 -1 111 6 77 17 _c
77 116 _l
106 100 136 88 168 80 _c
199 72 232 69 267 69 _c
}_e{323 69 368 83 401 113 _c
433 143 450 183 450 234 _c
450 284 433 324 401 354 _c
368 384 323 399 267 399 _c
241 399 214 396 188 390 _c
162 384 135 375 108 363 _c
108 729 _l
_cl}_e}_d
/seven{636 0 82 0 551 729 _sc
82 729 _m
551 729 _l
551 687 _l
286 0 _l
183 0 _l
432 646 _l
82 646 _l
82 729 _l
_cl}_d
/D{770 0 98 0 711 729 _sc
197 648 _m
197 81 _l
316 81 _l
416 81 490 103 537 149 _c
583 195 607 267 607 365 _c
607 463 583 534 537 580 _c
490 625 416 648 316 648 _c
197 648 _l
98 729 _m
301 729 _l
442 729 546 699 612 641 _c
678 582 711 490 711 365 _c
711 239 677 147 611 88 _c
545 29 441 0 301 0 _c
98 0 _l
98 729 _l
_cl}_d
/E{632 0 98 0 568 729 _sc
98 729 _m
559 729 _l
559 646 _l
197 646 _l
197 430 _l
544 430 _l
544 347 _l
197 347 _l
197 83 _l
568 83 _l
568 0 _l
98 0 _l
98 729 _l
_cl}_d
/F{575 0 98 0 517 729 _sc
98 729 _m
517 729 _l
517 646 _l
197 646 _l
197 431 _l
486 431 _l
486 348 _l
197 348 _l
197 0 _l
98 0 _l
98 729 _l
_cl}_d
/I{295 0 98 0 197 729 _sc
98 729 _m
197 729 _l
197 0 _l
98 0 _l
98 729 _l
_cl}_d
/L{557 0 98 0 552 729 _sc
98 729 _m
197 729 _l
197 83 _l
552 83 _l
552 0 _l
98 0 _l
98 729 _l
_cl}_d
/M{863 0 98 0 765 729 _sc
98 729 _m
245 729 _l
431 233 _l
618 729 _l
765 729 _l
765 0 _l
669 0 _l
669 640 _l
481 140 _l
382 140 _l
194 640 _l
194 0 _l
98 0 _l
98 729 _l
_cl}_d
/S{{635 0 66 -13 579 742 _sc
535 705 _m
535 609 _l
497 627 462 640 429 649 _c
395 657 363 662 333 662 _c
279 662 237 651 208 631 _c
179 610 165 580 165 542 _c
165 510 174 485 194 469 _c
213 452 250 439 304 429 _c
364 417 _l
437 403 491 378 526 343 _c
561 307 579 260 579 201 _c
579 130 555 77 508 41 _c
460 5 391 -13 300 -13 _c
265 -13 228 -9 189 -2 _c
}_e{150 5 110 16 69 32 _c
69 134 _l
109 111 148 94 186 83 _c
224 71 262 66 300 66 _c
356 66 399 77 430 99 _c
460 121 476 152 476 194 _c
476 230 465 258 443 278 _c
421 298 385 313 335 323 _c
275 335 _l
201 349 148 372 115 404 _c
82 435 66 478 66 534 _c
66 598 88 649 134 686 _c
179 723 242 742 322 742 _c
356 742 390 739 426 733 _c
461 727 497 717 535 705 _c
}_e{_cl}_e}_d
/U{732 0 87 -13 645 729 _sc
87 729 _m
186 729 _l
186 286 _l
186 208 200 151 228 117 _c
256 83 302 66 366 66 _c
429 66 475 83 503 117 _c
531 151 546 208 546 286 _c
546 729 _l
645 729 _l
645 274 _l
645 178 621 107 574 59 _c
527 11 458 -13 366 -13 _c
274 -13 204 11 157 59 _c
110 107 87 178 87 274 _c
87 729 _l
_cl}_d
/Z{685 0 45 0 640 729 _sc
56 729 _m
629 729 _l
629 654 _l
168 83 _l
640 83 _l
640 0 _l
45 0 _l
45 75 _l
506 646 _l
56 646 _l
56 729 _l
_cl}_d
/underscore{500 0 -9 -235 510 -165 _sc
510 -165 _m
510 -235 _l
-9 -235 _l
-9 -165 _l
510 -165 _l
_cl}_d
/a{{613 0 60 -13 522 560 _sc
343 275 _m
270 275 220 266 192 250 _c
164 233 150 205 150 165 _c
150 133 160 107 181 89 _c
202 70 231 61 267 61 _c
317 61 357 78 387 114 _c
417 149 432 196 432 255 _c
432 275 _l
343 275 _l
522 312 _m
522 0 _l
432 0 _l
432 83 _l
411 49 385 25 355 10 _c
325 -5 287 -13 243 -13 _c
187 -13 142 2 109 33 _c
76 64 60 106 60 159 _c
}_e{60 220 80 266 122 298 _c
163 329 224 345 306 345 _c
432 345 _l
432 354 _l
432 395 418 427 391 450 _c
364 472 326 484 277 484 _c
245 484 215 480 185 472 _c
155 464 127 453 100 439 _c
100 522 _l
132 534 164 544 195 550 _c
226 556 256 560 286 560 _c
365 560 424 539 463 498 _c
502 457 522 395 522 312 _c
_cl}_e}_d
/b{{635 0 91 -13 580 760 _sc
487 273 _m
487 339 473 390 446 428 _c
418 466 381 485 334 485 _c
286 485 249 466 222 428 _c
194 390 181 339 181 273 _c
181 207 194 155 222 117 _c
249 79 286 61 334 61 _c
381 61 418 79 446 117 _c
473 155 487 207 487 273 _c
181 464 _m
199 496 223 520 252 536 _c
281 552 316 560 356 560 _c
422 560 476 533 518 481 _c
559 428 580 359 580 273 _c
}_e{580 187 559 117 518 65 _c
476 13 422 -13 356 -13 _c
316 -13 281 -5 252 10 _c
223 25 199 49 181 82 _c
181 0 _l
91 0 _l
91 760 _l
181 760 _l
181 464 _l
_cl}_e}_d
/c{{550 0 55 -13 488 560 _sc
488 526 _m
488 442 _l
462 456 437 466 411 473 _c
385 480 360 484 334 484 _c
276 484 230 465 198 428 _c
166 391 150 339 150 273 _c
150 206 166 154 198 117 _c
230 80 276 62 334 62 _c
360 62 385 65 411 72 _c
437 79 462 90 488 104 _c
488 21 _l
462 9 436 0 410 -5 _c
383 -10 354 -13 324 -13 _c
242 -13 176 12 128 64 _c
}_e{79 115 55 185 55 273 _c
55 362 79 432 128 483 _c
177 534 244 560 330 560 _c
358 560 385 557 411 551 _c
437 545 463 537 488 526 _c
_cl}_e}_d
/d{{635 0 55 -13 544 760 _sc
454 464 _m
454 760 _l
544 760 _l
544 0 _l
454 0 _l
454 82 _l
435 49 411 25 382 10 _c
353 -5 319 -13 279 -13 _c
213 -13 159 13 117 65 _c
75 117 55 187 55 273 _c
55 359 75 428 117 481 _c
159 533 213 560 279 560 _c
319 560 353 552 382 536 _c
411 520 435 496 454 464 _c
148 273 _m
148 207 161 155 188 117 _c
215 79 253 61 301 61 _c
}_e{348 61 385 79 413 117 _c
440 155 454 207 454 273 _c
454 339 440 390 413 428 _c
385 466 348 485 301 485 _c
253 485 215 466 188 428 _c
161 390 148 339 148 273 _c
_cl}_e}_d
/e{{615 0 55 -13 562 560 _sc
562 296 _m
562 252 _l
149 252 _l
153 190 171 142 205 110 _c
238 78 284 62 344 62 _c
378 62 412 66 444 74 _c
476 82 509 95 541 113 _c
541 28 _l
509 14 476 3 442 -3 _c
408 -9 373 -13 339 -13 _c
251 -13 182 12 131 62 _c
80 112 55 181 55 268 _c
55 357 79 428 127 481 _c
175 533 241 560 323 560 _c
397 560 455 536 498 489 _c
}_e{540 441 562 377 562 296 _c
472 322 _m
471 371 457 410 431 440 _c
404 469 368 484 324 484 _c
274 484 234 469 204 441 _c
174 413 156 373 152 322 _c
472 322 _l
_cl}_e}_d
/f{352 0 23 0 371 760 _sc
371 760 _m
371 685 _l
285 685 _l
253 685 230 678 218 665 _c
205 652 199 629 199 595 _c
199 547 _l
347 547 _l
347 477 _l
199 477 _l
199 0 _l
109 0 _l
109 477 _l
23 477 _l
23 547 _l
109 547 _l
109 585 _l
109 645 123 690 151 718 _c
179 746 224 760 286 760 _c
371 760 _l
_cl}_d
/g{{635 0 55 -207 544 560 _sc
454 280 _m
454 344 440 395 414 431 _c
387 467 349 485 301 485 _c
253 485 215 467 188 431 _c
161 395 148 344 148 280 _c
148 215 161 165 188 129 _c
215 93 253 75 301 75 _c
349 75 387 93 414 129 _c
440 165 454 215 454 280 _c
544 68 _m
544 -24 523 -93 482 -139 _c
440 -184 377 -207 292 -207 _c
260 -207 231 -204 203 -200 _c
175 -195 147 -188 121 -178 _c
}_e{121 -91 _l
147 -105 173 -115 199 -122 _c
225 -129 251 -133 278 -133 _c
336 -133 380 -117 410 -87 _c
439 -56 454 -10 454 52 _c
454 96 _l
435 64 411 40 382 24 _c
353 8 319 0 279 0 _c
211 0 157 25 116 76 _c
75 127 55 195 55 280 _c
55 364 75 432 116 483 _c
157 534 211 560 279 560 _c
319 560 353 552 382 536 _c
411 520 435 496 454 464 _c
454 547 _l
544 547 _l
}_e{544 68 _l
_cl}_e}_d
/h{634 0 91 0 549 760 _sc
549 330 _m
549 0 _l
459 0 _l
459 327 _l
459 379 448 417 428 443 _c
408 469 378 482 338 482 _c
289 482 251 466 223 435 _c
195 404 181 362 181 309 _c
181 0 _l
91 0 _l
91 760 _l
181 760 _l
181 462 _l
202 494 227 519 257 535 _c
286 551 320 560 358 560 _c
420 560 468 540 500 501 _c
532 462 549 405 549 330 _c
_cl}_d
/i{278 0 94 0 184 760 _sc
94 547 _m
184 547 _l
184 0 _l
94 0 _l
94 547 _l
94 760 _m
184 760 _l
184 646 _l
94 646 _l
94 760 _l
_cl}_d
/j{278 0 -17 -207 184 760 _sc
94 547 _m
184 547 _l
184 -9 _l
184 -78 170 -128 144 -160 _c
117 -191 74 -207 16 -207 _c
-17 -207 _l
-17 -131 _l
6 -131 _l
40 -131 63 -123 75 -107 _c
87 -91 94 -58 94 -9 _c
94 547 _l
94 760 _m
184 760 _l
184 646 _l
94 646 _l
94 760 _l
_cl}_d
/k{579 0 91 0 576 760 _sc
91 760 _m
181 760 _l
181 311 _l
449 547 _l
564 547 _l
274 291 _l
576 0 _l
459 0 _l
181 267 _l
181 0 _l
91 0 _l
91 760 _l
_cl}_d
/l{278 0 94 0 184 760 _sc
94 760 _m
184 760 _l
184 0 _l
94 0 _l
94 760 _l
_cl}_d
/m{{974 0 91 0 889 560 _sc
520 442 _m
542 482 569 511 600 531 _c
631 550 668 560 711 560 _c
767 560 811 540 842 500 _c
873 460 889 403 889 330 _c
889 0 _l
799 0 _l
799 327 _l
799 379 789 418 771 444 _c
752 469 724 482 686 482 _c
639 482 602 466 575 435 _c
548 404 535 362 535 309 _c
535 0 _l
445 0 _l
445 327 _l
445 379 435 418 417 444 _c
398 469 369 482 331 482 _c
}_e{285 482 248 466 221 435 _c
194 404 181 362 181 309 _c
181 0 _l
91 0 _l
91 547 _l
181 547 _l
181 462 _l
201 495 226 520 255 536 _c
283 552 317 560 357 560 _c
397 560 430 550 458 530 _c
486 510 506 480 520 442 _c
_cl}_e}_d
/n{634 0 91 0 549 560 _sc
549 330 _m
549 0 _l
459 0 _l
459 327 _l
459 379 448 417 428 443 _c
408 469 378 482 338 482 _c
289 482 251 466 223 435 _c
195 404 181 362 181 309 _c
181 0 _l
91 0 _l
91 547 _l
181 547 _l
181 462 _l
202 494 227 519 257 535 _c
286 551 320 560 358 560 _c
420 560 468 540 500 501 _c
532 462 549 405 549 330 _c
_cl}_d
/o{612 0 55 -13 557 560 _sc
306 484 _m
258 484 220 465 192 427 _c
164 389 150 338 150 273 _c
150 207 163 156 191 118 _c
219 80 257 62 306 62 _c
354 62 392 80 420 118 _c
448 156 462 207 462 273 _c
462 337 448 389 420 427 _c
392 465 354 484 306 484 _c
306 560 _m
384 560 445 534 490 484 _c
534 433 557 363 557 273 _c
557 183 534 113 490 63 _c
445 12 384 -13 306 -13 _c
227 -13 165 12 121 63 _c
77 113 55 183 55 273 _c
55 363 77 433 121 484 _c
165 534 227 560 306 560 _c
_cl}_d
/p{{635 0 91 -207 580 560 _sc
181 82 _m
181 -207 _l
91 -207 _l
91 547 _l
181 547 _l
181 464 _l
199 496 223 520 252 536 _c
281 552 316 560 356 560 _c
422 560 476 533 518 481 _c
559 428 580 359 580 273 _c
580 187 559 117 518 65 _c
476 13 422 -13 356 -13 _c
316 -13 281 -5 252 10 _c
223 25 199 49 181 82 _c
487 273 _m
487 339 473 390 446 428 _c
418 466 381 485 334 485 _c
}_e{286 485 249 466 222 428 _c
194 390 181 339 181 273 _c
181 207 194 155 222 117 _c
249 79 286 61 334 61 _c
381 61 418 79 446 117 _c
473 155 487 207 487 273 _c
_cl}_e}_d
/r{411 0 91 0 411 560 _sc
411 463 _m
401 469 390 473 378 476 _c
366 478 353 480 339 480 _c
288 480 249 463 222 430 _c
194 397 181 350 181 288 _c
181 0 _l
91 0 _l
91 547 _l
181 547 _l
181 462 _l
199 495 224 520 254 536 _c
284 552 321 560 365 560 _c
371 560 378 559 386 559 _c
393 558 401 557 411 555 _c
411 463 _l
_cl}_d
/s{{521 0 54 -13 472 560 _sc
443 531 _m
443 446 _l
417 458 391 468 364 475 _c
336 481 308 485 279 485 _c
234 485 200 478 178 464 _c
156 450 145 430 145 403 _c
145 382 153 366 169 354 _c
185 342 217 330 265 320 _c
296 313 _l
360 299 405 279 432 255 _c
458 230 472 195 472 151 _c
472 100 452 60 412 31 _c
372 1 316 -13 246 -13 _c
216 -13 186 -10 154 -5 _c
}_e{122 0 89 8 54 20 _c
54 113 _l
87 95 120 82 152 74 _c
184 65 216 61 248 61 _c
290 61 323 68 346 82 _c
368 96 380 117 380 144 _c
380 168 371 187 355 200 _c
339 213 303 226 247 238 _c
216 245 _l
160 257 119 275 95 299 _c
70 323 58 356 58 399 _c
58 450 76 490 112 518 _c
148 546 200 560 268 560 _c
301 560 332 557 362 552 _c
391 547 418 540 443 531 _c
}_e{_cl}_e}_d
/t{392 0 27 0 368 702 _sc
183 702 _m
183 547 _l
368 547 _l
368 477 _l
183 477 _l
183 180 _l
183 135 189 106 201 94 _c
213 81 238 75 276 75 _c
368 75 _l
368 0 _l
276 0 _l
206 0 158 13 132 39 _c
106 65 93 112 93 180 _c
93 477 _l
27 477 _l
27 547 _l
93 547 _l
93 702 _l
183 702 _l
_cl}_d
/u{634 0 85 -13 543 560 _sc
85 216 _m
85 547 _l
175 547 _l
175 219 _l
175 167 185 129 205 103 _c
225 77 255 64 296 64 _c
344 64 383 79 411 110 _c
439 141 453 183 453 237 _c
453 547 _l
543 547 _l
543 0 _l
453 0 _l
453 84 _l
431 50 405 26 377 10 _c
348 -5 315 -13 277 -13 _c
214 -13 166 6 134 45 _c
101 83 85 140 85 216 _c
311 560 _m
311 560 _l
_cl}_d
/v{592 0 30 0 562 547 _sc
30 547 _m
125 547 _l
296 88 _l
467 547 _l
562 547 _l
357 0 _l
235 0 _l
30 547 _l
_cl}_d
/w{818 0 42 0 776 547 _sc
42 547 _m
132 547 _l
244 120 _l
356 547 _l
462 547 _l
574 120 _l
686 547 _l
776 547 _l
633 0 _l
527 0 _l
409 448 _l
291 0 _l
185 0 _l
42 547 _l
_cl}_d
/x{592 0 29 0 559 547 _sc
549 547 _m
351 281 _l
559 0 _l
453 0 _l
294 215 _l
135 0 _l
29 0 _l
241 286 _l
47 547 _l
153 547 _l
298 352 _l
443 547 _l
549 547 _l
_cl}_d
/y{592 0 30 -207 562 547 _sc
322 -50 _m
296 -114 271 -157 247 -177 _c
223 -197 191 -207 151 -207 _c
79 -207 _l
79 -132 _l
132 -132 _l
156 -132 175 -126 189 -114 _c
203 -102 218 -75 235 -31 _c
251 9 _l
30 547 _l
125 547 _l
296 119 _l
467 547 _l
562 547 _l
322 -50 _l
_cl}_d
end readonly def

/BuildGlyph
 {exch begin
 CharStrings exch
 2 copy known not{pop /.notdef}if
 true 3 1 roll get exec
 end}_d

/BuildChar {
 1 index /Encoding get exch get
 1 index /BuildGlyph get exec
}_d

FontName currentdict end definefont pop
end
%%EndProlog
mpldict begin
140.76 265.086 translate
330.48 261.829 0 0 clipbox
gsave
0 0 m
330.48 0 l
330.48 261.828875 l
0 261.828875 l
cl
1.000 setgray
fill
grestore
gsave
40.54375 159.127812 m
323.28 159.127812 l
323.28 237.82375 l
40.54375 237.82375 l
cl
1.000 setgray
fill
grestore
gsave
282.7 78.7 40.54 159.1 clipbox
44.034321 187.138633 m
51.015463 187.138633 l
51.015463 163.81772 l
44.034321 163.81772 l
cl
0.376 setgray
fill
grestore
gsave
282.7 78.7 40.54 159.1 clipbox
61.487176 187.138633 m
68.468318 187.138633 l
68.468318 196.042582 l
61.487176 196.042582 l
cl
0.376 setgray
fill
grestore
gsave
282.7 78.7 40.54 159.1 clipbox
78.940031 187.138633 m
85.921173 187.138633 l
85.921173 180.570995 l
78.940031 180.570995 l
cl
0.690 setgray
fill
grestore
gsave
282.7 78.7 40.54 159.1 clipbox
96.392886 187.138633 m
103.374028 187.138633 l
103.374028 194.605019 l
96.392886 194.605019 l
cl
0.529 setgray
fill
grestore
gsave
282.7 78.7 40.54 159.1 clipbox
113.845741 187.138633 m
120.826883 187.138633 l
120.826883 167.741436 l
113.845741 167.741436 l
cl
0.690 setgray
fill
grestore
gsave
282.7 78.7 40.54 159.1 clipbox
131.298596 187.138633 m
138.279738 187.138633 l
138.279738 192.749333 l
131.298596 192.749333 l
cl
0.376 setgray
fill
grestore
gsave
282.7 78.7 40.54 159.1 clipbox
148.751451 187.138633 m
155.732593 187.138633 l
155.732593 178.906866 l
148.751451 178.906866 l
cl
0.690 setgray
fill
grestore
gsave
282.7 78.7 40.54 159.1 clipbox
166.204306 187.138633 m
173.185448 187.138633 l
173.185448 193.049833 l
166.204306 193.049833 l
cl
0.529 setgray
fill
grestore
gsave
282.7 78.7 40.54 159.1 clipbox
183.65716 187.138633 m
190.638302 187.138633 l
190.638302 174.374377 l
183.65716 174.374377 l
cl
0.690 setgray
fill
grestore
gsave
282.7 78.7 40.54 159.1 clipbox
201.110015 187.138633 m
208.091157 187.138633 l
208.091157 216.030532 l
201.110015 216.030532 l
cl
0.376 setgray
fill
grestore
gsave
282.7 78.7 40.54 159.1 clipbox
218.56287 187.138633 m
225.544012 187.138633 l
225.544012 177.61376 l
218.56287 177.61376 l
cl
0.690 setgray
fill
grestore
gsave
282.7 78.7 40.54 159.1 clipbox
236.015725 187.138633 m
242.996867 187.138633 l
242.996867 173.081421 l
236.015725 173.081421 l
cl
0.690 setgray
fill
grestore
gsave
282.7 78.7 40.54 159.1 clipbox
253.46858 187.138633 m
260.449722 187.138633 l
260.449722 167.657241 l
253.46858 167.657241 l
cl
0.690 setgray
fill
grestore
gsave
282.7 78.7 40.54 159.1 clipbox
270.921435 187.138633 m
277.902577 187.138633 l
277.902577 199.042125 l
270.921435 199.042125 l
cl
0.529 setgray
fill
grestore
gsave
282.7 78.7 40.54 159.1 clipbox
288.37429 187.138633 m
295.355432 187.138633 l
295.355432 197.226796 l
288.37429 197.226796 l
cl
0.529 setgray
fill
grestore
gsave
282.7 78.7 40.54 159.1 clipbox
305.827145 187.138633 m
312.808287 187.138633 l
312.808287 179.956089 l
305.827145 179.956089 l
cl
0.690 setgray
fill
grestore
gsave
282.7 78.7 40.54 159.1 clipbox
51.015463 187.138633 m
57.996605 187.138633 l
57.996605 185.895761 l
51.015463 185.895761 l
cl
gsave
0.376 setgray
fill
grestore
  << /PatternType 1
     /PaintType 2
     /TilingType 2
     /BBox[0 0 72 72]
     /XStep 72
     /YStep 72

     /PaintProc {
        pop
        1.000000 setlinewidth
-36 36 m
36 108 l
-30 30 m
42 102 l
-24 24 m
48 96 l
-18 18 m
54 90 l
-12 12 m
60 84 l
-6 6 m
66 78 l
0 0 m
72 72 l
6 -6 m
78 66 l
12 -12 m
84 60 l
18 -18 m
90 54 l
24 -24 m
96 48 l
30 -30 m
102 42 l
36 -36 m
108 36 l

        gsave
        fill
        grestore
        stroke
     } bind
   >>
   matrix
   0.0 261.828875 translate
   makepattern
   /H0 exch def
gsave
0.878431 0.878431 0.878431 H0 setpattern fill grestore
grestore
gsave
282.7 78.7 40.54 159.1 clipbox
68.468318 187.138633 m
75.44946 187.138633 l
75.44946 187.403078 l
68.468318 187.403078 l
cl
gsave
0.376 setgray
fill
grestore
gsave
0.878431 0.878431 0.878431 H0 setpattern fill grestore
grestore
gsave
282.7 78.7 40.54 159.1 clipbox
85.921173 187.138633 m
92.902315 187.138633 l
92.902315 189.080291 l
85.921173 189.080291 l
cl
gsave
0.690 setgray
fill
grestore
gsave
0.878431 0.878431 0.878431 H0 setpattern fill grestore
grestore
gsave
282.7 78.7 40.54 159.1 clipbox
103.374028 187.138633 m
110.35517 187.138633 l
110.35517 190.547811 l
103.374028 190.547811 l
cl
gsave
0.529 setgray
fill
grestore
gsave
0.878431 0.878431 0.878431 H0 setpattern fill grestore
grestore
gsave
282.7 78.7 40.54 159.1 clipbox
120.826883 187.138633 m
127.808025 187.138633 l
127.808025 187.296409 l
120.826883 187.296409 l
cl
gsave
0.690 setgray
fill
grestore
gsave
0.878431 0.878431 0.878431 H0 setpattern fill grestore
grestore
gsave
282.7 78.7 40.54 159.1 clipbox
138.279738 187.138633 m
145.26088 187.138633 l
145.26088 187.702296 l
138.279738 187.702296 l
cl
gsave
0.376 setgray
fill
grestore
gsave
0.878431 0.878431 0.878431 H0 setpattern fill grestore
grestore
gsave
282.7 78.7 40.54 159.1 clipbox
155.732593 187.138633 m
162.713735 187.138633 l
162.713735 191.611259 l
155.732593 191.611259 l
cl
gsave
0.690 setgray
fill
grestore
gsave
0.878431 0.878431 0.878431 H0 setpattern fill grestore
grestore
gsave
282.7 78.7 40.54 159.1 clipbox
173.185448 187.138633 m
180.16659 187.138633 l
180.16659 186.015714 l
173.185448 186.015714 l
cl
gsave
0.529 setgray
fill
grestore
gsave
0.878431 0.878431 0.878431 H0 setpattern fill grestore
grestore
gsave
282.7 78.7 40.54 159.1 clipbox
190.638302 187.138633 m
197.619444 187.138633 l
197.619444 188.637704 l
190.638302 188.637704 l
cl
gsave
0.690 setgray
fill
grestore
gsave
0.878431 0.878431 0.878431 H0 setpattern fill grestore
grestore
gsave
282.7 78.7 40.54 159.1 clipbox
208.091157 187.138633 m
215.072299 187.138633 l
215.072299 191.571519 l
208.091157 191.571519 l
cl
gsave
0.376 setgray
fill
grestore
gsave
0.878431 0.878431 0.878431 H0 setpattern fill grestore
grestore
gsave
282.7 78.7 40.54 159.1 clipbox
225.544012 187.138633 m
232.525154 187.138633 l
232.525154 189.690718 l
225.544012 189.690718 l
cl
gsave
0.690 setgray
fill
grestore
gsave
0.878431 0.878431 0.878431 H0 setpattern fill grestore
grestore
gsave
282.7 78.7 40.54 159.1 clipbox
242.996867 187.138633 m
249.978009 187.138633 l
249.978009 189.071647 l
242.996867 189.071647 l
cl
gsave
0.690 setgray
fill
grestore
gsave
0.878431 0.878431 0.878431 H0 setpattern fill grestore
grestore
gsave
282.7 78.7 40.54 159.1 clipbox
260.449722 187.138633 m
267.430864 187.138633 l
267.430864 189.675297 l
260.449722 189.675297 l
cl
gsave
0.690 setgray
fill
grestore
gsave
0.878431 0.878431 0.878431 H0 setpattern fill grestore
grestore
gsave
282.7 78.7 40.54 159.1 clipbox
277.902577 187.138633 m
284.883719 187.138633 l
284.883719 190.075746 l
277.902577 190.075746 l
cl
gsave
0.529 setgray
fill
grestore
gsave
0.878431 0.878431 0.878431 H0 setpattern fill grestore
grestore
gsave
282.7 78.7 40.54 159.1 clipbox
295.355432 187.138633 m
302.336574 187.138633 l
302.336574 186.536105 l
295.355432 186.536105 l
cl
gsave
0.529 setgray
fill
grestore
gsave
0.878431 0.878431 0.878431 H0 setpattern fill grestore
grestore
gsave
282.7 78.7 40.54 159.1 clipbox
312.808287 187.138633 m
319.789429 187.138633 l
319.789429 187.33362 l
312.808287 187.33362 l
cl
gsave
0.690 setgray
fill
grestore
gsave
0.878431 0.878431 0.878431 H0 setpattern fill grestore
grestore
0.800 setlinewidth
1 setlinejoin
0 setlinecap
[] 0 setdash
0.000 setgray
gsave
/o {
gsave
newpath
translate
0.8 setlinewidth
1 setlinejoin
0 setlinecap
0 0 m
0 -3.5 l

gsave
0.000 setgray
fill
grestore
stroke
grestore
} bind def
51.0155 159.128 o
grestore
gsave
/o {
gsave
newpath
translate
0.8 setlinewidth
1 setlinejoin
0 setlinecap
0 0 m
0 -3.5 l

gsave
0.000 setgray
fill
grestore
stroke
grestore
} bind def
68.4683 159.128 o
grestore
gsave
/o {
gsave
newpath
translate
0.8 setlinewidth
1 setlinejoin
0 setlinecap
0 0 m
0 -3.5 l

gsave
0.000 setgray
fill
grestore
stroke
grestore
} bind def
85.9212 159.128 o
grestore
gsave
/o {
gsave
newpath
translate
0.8 setlinewidth
1 setlinejoin
0 setlinecap
0 0 m
0 -3.5 l

gsave
0.000 setgray
fill
grestore
stroke
grestore
} bind def
103.374 159.128 o
grestore
gsave
/o {
gsave
newpath
translate
0.8 setlinewidth
1 setlinejoin
0 setlinecap
0 0 m
0 -3.5 l

gsave
0.000 setgray
fill
grestore
stroke
grestore
} bind def
120.827 159.128 o
grestore
gsave
/o {
gsave
newpath
translate
0.8 setlinewidth
1 setlinejoin
0 setlinecap
0 0 m
0 -3.5 l

gsave
0.000 setgray
fill
grestore
stroke
grestore
} bind def
138.28 159.128 o
grestore
gsave
/o {
gsave
newpath
translate
0.8 setlinewidth
1 setlinejoin
0 setlinecap
0 0 m
0 -3.5 l

gsave
0.000 setgray
fill
grestore
stroke
grestore
} bind def
155.733 159.128 o
grestore
gsave
/o {
gsave
newpath
translate
0.8 setlinewidth
1 setlinejoin
0 setlinecap
0 0 m
0 -3.5 l

gsave
0.000 setgray
fill
grestore
stroke
grestore
} bind def
173.185 159.128 o
grestore
gsave
/o {
gsave
newpath
translate
0.8 setlinewidth
1 setlinejoin
0 setlinecap
0 0 m
0 -3.5 l

gsave
0.000 setgray
fill
grestore
stroke
grestore
} bind def
190.638 159.128 o
grestore
gsave
/o {
gsave
newpath
translate
0.8 setlinewidth
1 setlinejoin
0 setlinecap
0 0 m
0 -3.5 l

gsave
0.000 setgray
fill
grestore
stroke
grestore
} bind def
208.091 159.128 o
grestore
gsave
/o {
gsave
newpath
translate
0.8 setlinewidth
1 setlinejoin
0 setlinecap
0 0 m
0 -3.5 l

gsave
0.000 setgray
fill
grestore
stroke
grestore
} bind def
225.544 159.128 o
grestore
gsave
/o {
gsave
newpath
translate
0.8 setlinewidth
1 setlinejoin
0 setlinecap
0 0 m
0 -3.5 l

gsave
0.000 setgray
fill
grestore
stroke
grestore
} bind def
242.997 159.128 o
grestore
gsave
/o {
gsave
newpath
translate
0.8 setlinewidth
1 setlinejoin
0 setlinecap
0 0 m
0 -3.5 l

gsave
0.000 setgray
fill
grestore
stroke
grestore
} bind def
260.45 159.128 o
grestore
gsave
/o {
gsave
newpath
translate
0.8 setlinewidth
1 setlinejoin
0 setlinecap
0 0 m
0 -3.5 l

gsave
0.000 setgray
fill
grestore
stroke
grestore
} bind def
277.903 159.128 o
grestore
gsave
/o {
gsave
newpath
translate
0.8 setlinewidth
1 setlinejoin
0 setlinecap
0 0 m
0 -3.5 l

gsave
0.000 setgray
fill
grestore
stroke
grestore
} bind def
295.355 159.128 o
grestore
gsave
/o {
gsave
newpath
translate
0.8 setlinewidth
1 setlinejoin
0 setlinecap
0 0 m
0 -3.5 l

gsave
0.000 setgray
fill
grestore
stroke
grestore
} bind def
312.808 159.128 o
grestore
gsave
/o {
gsave
newpath
translate
0.8 setlinewidth
1 setlinejoin
0 setlinecap
0 0 m
-3.5 0 l

gsave
0.000 setgray
fill
grestore
stroke
grestore
} bind def
40.5438 166.102 o
grestore
/DejaVuSans findfont
7.000 scalefont
setfont
gsave
17.965625 163.446159 translate
0.000000 rotate
0.000000 0 m /zero glyphshow
4.453613 0 m /period glyphshow
6.678711 0 m /seven glyphshow
11.132324 0 m /five glyphshow
grestore
gsave
/o {
gsave
newpath
translate
0.8 setlinewidth
1 setlinejoin
0 setlinecap
0 0 m
-3.5 0 l

gsave
0.000 setgray
fill
grestore
stroke
grestore
} bind def
40.5438 187.139 o
grestore
gsave
17.965625 184.482383 translate
0.000000 rotate
0.000000 0 m /one glyphshow
4.453613 0 m /period glyphshow
6.678711 0 m /zero glyphshow
11.132324 0 m /zero glyphshow
grestore
gsave
/o {
gsave
newpath
translate
0.8 setlinewidth
1 setlinejoin
0 setlinecap
0 0 m
-3.5 0 l

gsave
0.000 setgray
fill
grestore
stroke
grestore
} bind def
40.5438 203.456 o
grestore
gsave
17.965625 200.799346 translate
0.000000 rotate
0.000000 0 m /one glyphshow
4.453613 0 m /period glyphshow
6.678711 0 m /two glyphshow
11.132324 0 m /five glyphshow
grestore
gsave
/o {
gsave
newpath
translate
0.8 setlinewidth
1 setlinejoin
0 setlinecap
0 0 m
-3.5 0 l

gsave
0.000 setgray
fill
grestore
stroke
grestore
} bind def
40.5438 216.788 o
grestore
gsave
17.965625 214.131276 translate
0.000000 rotate
0.000000 0 m /one glyphshow
4.453613 0 m /period glyphshow
6.678711 0 m /five glyphshow
11.132324 0 m /zero glyphshow
grestore
gsave
/o {
gsave
newpath
translate
0.8 setlinewidth
1 setlinejoin
0 setlinecap
0 0 m
-3.5 0 l

gsave
0.000 setgray
fill
grestore
stroke
grestore
} bind def
40.5438 228.06 o
grestore
gsave
17.965625 225.403262 translate
0.000000 rotate
0.000000 0 m /one glyphshow
4.453613 0 m /period glyphshow
6.678711 0 m /seven glyphshow
11.132324 0 m /five glyphshow
grestore
gsave
/o {
gsave
newpath
translate
0.8 setlinewidth
1 setlinejoin
0 setlinecap
0 0 m
-3.5 0 l

gsave
0.000 setgray
fill
grestore
stroke
grestore
} bind def
40.5438 237.824 o
grestore
gsave
17.965625 235.167500 translate
0.000000 rotate
0.000000 0 m /two glyphshow
4.453613 0 m /period glyphshow
6.678711 0 m /zero glyphshow
11.132324 0 m /zero glyphshow
grestore
gsave
12.512500 183.069531 translate
90.000000 rotate
0.000000 0 m /S glyphshow
4.443359 0 m /p glyphshow
8.886719 0 m /e glyphshow
13.193359 0 m /e glyphshow
17.500000 0 m /d glyphshow
21.943359 0 m /u glyphshow
26.379883 0 m /p glyphshow
grestore
1.500 setlinewidth
gsave
282.7 78.7 40.54 159.1 clipbox
47.524892 163.216405 m
47.524892 165.265075 l
stroke
grestore
gsave
282.7 78.7 40.54 159.1 clipbox
64.977747 195.881314 m
64.977747 196.320471 l
stroke
grestore
gsave
282.7 78.7 40.54 159.1 clipbox
82.430602 178.832472 m
82.430602 181.722186 l
stroke
grestore
gsave
282.7 78.7 40.54 159.1 clipbox
99.883457 193.575752 m
99.883457 195.263854 l
stroke
grestore
gsave
282.7 78.7 40.54 159.1 clipbox
117.336312 166.672849 m
117.336312 170.641284 l
stroke
grestore
gsave
282.7 78.7 40.54 159.1 clipbox
134.789167 192.50695 m
134.789167 193.748343 l
stroke
grestore
gsave
282.7 78.7 40.54 159.1 clipbox
152.242022 178.636356 m
152.242022 179.814983 l
stroke
grestore
gsave
282.7 78.7 40.54 159.1 clipbox
169.694877 192.185272 m
169.694877 200.102475 l
stroke
grestore
gsave
282.7 78.7 40.54 159.1 clipbox
187.147731 173.546884 m
187.147731 174.693631 l
stroke
grestore
gsave
282.7 78.7 40.54 159.1 clipbox
204.600586 213.581411 m
204.600586 217.035695 l
stroke
grestore
gsave
282.7 78.7 40.54 159.1 clipbox
222.053441 177.144831 m
222.053441 178.298383 l
stroke
grestore
gsave
282.7 78.7 40.54 159.1 clipbox
239.506296 172.051236 m
239.506296 175.092471 l
stroke
grestore
gsave
282.7 78.7 40.54 159.1 clipbox
256.959151 167.464463 m
256.959151 168.155365 l
stroke
grestore
gsave
282.7 78.7 40.54 159.1 clipbox
274.412006 198.521864 m
274.412006 199.523711 l
stroke
grestore
gsave
282.7 78.7 40.54 159.1 clipbox
291.864861 196.419372 m
291.864861 198.706331 l
stroke
grestore
gsave
282.7 78.7 40.54 159.1 clipbox
309.317716 176.847997 m
309.317716 182.323731 l
stroke
grestore
gsave
282.7 78.7 40.54 159.1 clipbox
54.506034 185.09681 m
54.506034 186.714191 l
stroke
grestore
gsave
282.7 78.7 40.54 159.1 clipbox
71.958889 187.250793 m
71.958889 187.583247 l
stroke
grestore
gsave
282.7 78.7 40.54 159.1 clipbox
89.411744 186.429262 m
89.411744 190.590811 l
stroke
grestore
gsave
282.7 78.7 40.54 159.1 clipbox
106.864599 190.238416 m
106.864599 191.06237 l
stroke
grestore
gsave
282.7 78.7 40.54 159.1 clipbox
124.317454 186.40972 m
124.317454 190.207865 l
stroke
grestore
gsave
282.7 78.7 40.54 159.1 clipbox
141.770309 187.354693 m
141.770309 188.555002 l
stroke
grestore
gsave
282.7 78.7 40.54 159.1 clipbox
159.223164 190.962902 m
159.223164 192.07194 l
stroke
grestore
gsave
282.7 78.7 40.54 159.1 clipbox
176.676019 185.252226 m
176.676019 192.754947 l
stroke
grestore
gsave
282.7 78.7 40.54 159.1 clipbox
194.128873 188.042912 m
194.128873 191.412885 l
stroke
grestore
gsave
282.7 78.7 40.54 159.1 clipbox
211.581728 189.703507 m
211.581728 194.620857 l
stroke
grestore
gsave
282.7 78.7 40.54 159.1 clipbox
229.034583 188.851172 m
229.034583 190.069606 l
stroke
grestore
gsave
282.7 78.7 40.54 159.1 clipbox
246.487438 187.12804 m
246.487438 190.35505 l
stroke
grestore
gsave
282.7 78.7 40.54 159.1 clipbox
263.940293 189.495704 m
263.940293 190.139224 l
stroke
grestore
gsave
282.7 78.7 40.54 159.1 clipbox
281.393148 187.478529 m
281.393148 191.101516 l
stroke
grestore
gsave
282.7 78.7 40.54 159.1 clipbox
298.846003 183.871232 m
298.846003 188.423652 l
stroke
grestore
gsave
282.7 78.7 40.54 159.1 clipbox
316.298858 184.328717 m
316.298858 189.445292 l
stroke
grestore
0.800 setlinewidth
0 setlinejoin
2 setlinecap
[] 0 setdash
gsave
40.54375 159.127812 m
40.54375 237.82375 l
stroke
grestore
gsave
323.28 159.127812 m
323.28 237.82375 l
stroke
grestore
gsave
40.54375 159.127812 m
323.28 159.127812 l
stroke
grestore
gsave
40.54375 237.82375 m
323.28 237.82375 l
stroke
grestore
gsave
40.54375 66.715625 m
323.28 66.715625 l
323.28 145.411562 l
40.54375 145.411562 l
cl
1.000 setgray
fill
grestore
gsave
282.7 78.7 40.54 66.72 clipbox
44.034321 93.831298 m
51.015463 93.831298 l
51.015463 72.942518 l
44.034321 72.942518 l
cl
0.376 setgray
fill
grestore
gsave
282.7 78.7 40.54 66.72 clipbox
61.487176 93.831298 m
68.468318 93.831298 l
68.468318 107.360274 l
61.487176 107.360274 l
cl
0.376 setgray
fill
grestore
gsave
282.7 78.7 40.54 66.72 clipbox
78.940031 93.831298 m
85.921173 93.831298 l
85.921173 86.140364 l
78.940031 86.140364 l
cl
0.690 setgray
fill
grestore
gsave
282.7 78.7 40.54 66.72 clipbox
96.392886 93.831298 m
103.374028 93.831298 l
103.374028 101.669652 l
96.392886 101.669652 l
cl
0.529 setgray
fill
grestore
gsave
282.7 78.7 40.54 66.72 clipbox
113.845741 93.831298 m
120.826883 93.831298 l
120.826883 71.670782 l
113.845741 71.670782 l
cl
0.690 setgray
fill
grestore
gsave
282.7 78.7 40.54 66.72 clipbox
131.298596 93.831298 m
138.279738 93.831298 l
138.279738 100.648307 l
131.298596 100.648307 l
cl
0.529 setgray
fill
grestore
gsave
282.7 78.7 40.54 66.72 clipbox
148.751451 93.831298 m
155.732593 93.831298 l
155.732593 86.07315 l
148.751451 86.07315 l
cl
0.690 setgray
fill
grestore
gsave
282.7 78.7 40.54 66.72 clipbox
166.204306 93.831298 m
173.185448 93.831298 l
173.185448 126.880639 l
166.204306 126.880639 l
cl
0.376 setgray
fill
grestore
gsave
282.7 78.7 40.54 66.72 clipbox
183.65716 93.831298 m
190.638302 93.831298 l
190.638302 77.258619 l
183.65716 77.258619 l
cl
0.690 setgray
fill
grestore
gsave
282.7 78.7 40.54 66.72 clipbox
201.110015 93.831298 m
208.091157 93.831298 l
208.091157 123.924113 l
201.110015 123.924113 l
cl
0.529 setgray
fill
grestore
gsave
282.7 78.7 40.54 66.72 clipbox
218.56287 93.831298 m
225.544012 93.831298 l
225.544012 84.508228 l
218.56287 84.508228 l
cl
0.690 setgray
fill
grestore
gsave
282.7 78.7 40.54 66.72 clipbox
236.015725 93.831298 m
242.996867 93.831298 l
242.996867 79.827331 l
236.015725 79.827331 l
cl
0.690 setgray
fill
grestore
gsave
282.7 78.7 40.54 66.72 clipbox
253.46858 93.831298 m
260.449722 93.831298 l
260.449722 77.989001 l
253.46858 77.989001 l
cl
0.690 setgray
fill
grestore
gsave
282.7 78.7 40.54 66.72 clipbox
270.921435 93.831298 m
277.902577 93.831298 l
277.902577 107.980311 l
270.921435 107.980311 l
cl
0.529 setgray
fill
grestore
gsave
282.7 78.7 40.54 66.72 clipbox
288.37429 93.831298 m
295.355432 93.831298 l
295.355432 103.736911 l
288.37429 103.736911 l
cl
0.376 setgray
fill
grestore
gsave
282.7 78.7 40.54 66.72 clipbox
305.827145 93.831298 m
312.808287 93.831298 l
312.808287 92.487656 l
305.827145 92.487656 l
cl
0.690 setgray
fill
grestore
gsave
282.7 78.7 40.54 66.72 clipbox
51.015463 93.831298 m
57.996605 93.831298 l
57.996605 92.285986 l
51.015463 92.285986 l
cl
gsave
0.376 setgray
fill
grestore
gsave
0.878431 0.878431 0.878431 H0 setpattern fill grestore
grestore
gsave
282.7 78.7 40.54 66.72 clipbox
68.468318 93.831298 m
75.44946 93.831298 l
75.44946 94.221033 l
68.468318 94.221033 l
cl
gsave
0.376 setgray
fill
grestore
gsave
0.878431 0.878431 0.878431 H0 setpattern fill grestore
grestore
gsave
282.7 78.7 40.54 66.72 clipbox
85.921173 93.831298 m
92.902315 93.831298 l
92.902315 94.805673 l
85.921173 94.805673 l
cl
gsave
0.690 setgray
fill
grestore
gsave
0.878431 0.878431 0.878431 H0 setpattern fill grestore
grestore
gsave
282.7 78.7 40.54 66.72 clipbox
103.374028 93.831298 m
110.35517 93.831298 l
110.35517 97.346041 l
103.374028 97.346041 l
cl
gsave
0.529 setgray
fill
grestore
gsave
0.878431 0.878431 0.878431 H0 setpattern fill grestore
grestore
gsave
282.7 78.7 40.54 66.72 clipbox
120.826883 93.831298 m
127.808025 93.831298 l
127.808025 93.971218 l
120.826883 93.971218 l
cl
gsave
0.690 setgray
fill
grestore
gsave
0.878431 0.878431 0.878431 H0 setpattern fill grestore
grestore
gsave
282.7 78.7 40.54 66.72 clipbox
138.279738 93.831298 m
145.26088 93.831298 l
145.26088 94.259552 l
138.279738 94.259552 l
cl
gsave
0.376 setgray
fill
grestore
gsave
0.878431 0.878431 0.878431 H0 setpattern fill grestore
grestore
gsave
282.7 78.7 40.54 66.72 clipbox
155.732593 93.831298 m
162.713735 93.831298 l
162.713735 97.666458 l
155.732593 97.666458 l
cl
gsave
0.690 setgray
fill
grestore
gsave
0.878431 0.878431 0.878431 H0 setpattern fill grestore
grestore
gsave
282.7 78.7 40.54 66.72 clipbox
173.185448 93.831298 m
180.16659 93.831298 l
180.16659 92.988934 l
173.185448 92.988934 l
cl
gsave
0.690 setgray
fill
grestore
gsave
0.878431 0.878431 0.878431 H0 setpattern fill grestore
grestore
gsave
282.7 78.7 40.54 66.72 clipbox
190.638302 93.831298 m
197.619444 93.831298 l
197.619444 97.474724 l
190.638302 97.474724 l
cl
gsave
0.690 setgray
fill
grestore
gsave
0.878431 0.878431 0.878431 H0 setpattern fill grestore
grestore
gsave
282.7 78.7 40.54 66.72 clipbox
208.091157 93.831298 m
215.072299 93.831298 l
215.072299 98.923547 l
208.091157 98.923547 l
cl
gsave
0.529 setgray
fill
grestore
gsave
0.878431 0.878431 0.878431 H0 setpattern fill grestore
grestore
gsave
282.7 78.7 40.54 66.72 clipbox
225.544012 93.831298 m
232.525154 93.831298 l
232.525154 96.281392 l
225.544012 96.281392 l
cl
gsave
0.690 setgray
fill
grestore
gsave
0.878431 0.878431 0.878431 H0 setpattern fill grestore
grestore
gsave
282.7 78.7 40.54 66.72 clipbox
242.996867 93.831298 m
249.978009 93.831298 l
249.978009 96.003331 l
242.996867 96.003331 l
cl
gsave
0.690 setgray
fill
grestore
gsave
0.878431 0.878431 0.878431 H0 setpattern fill grestore
grestore
gsave
282.7 78.7 40.54 66.72 clipbox
260.449722 93.831298 m
267.430864 93.831298 l
267.430864 96.47831 l
260.449722 96.47831 l
cl
gsave
0.690 setgray
fill
grestore
gsave
0.878431 0.878431 0.878431 H0 setpattern fill grestore
grestore
gsave
282.7 78.7 40.54 66.72 clipbox
277.902577 93.831298 m
284.883719 93.831298 l
284.883719 97.403538 l
277.902577 97.403538 l
cl
gsave
0.529 setgray
fill
grestore
gsave
0.878431 0.878431 0.878431 H0 setpattern fill grestore
grestore
gsave
282.7 78.7 40.54 66.72 clipbox
295.355432 93.831298 m
302.336574 93.831298 l
302.336574 93.108973 l
295.355432 93.108973 l
cl
gsave
0.529 setgray
fill
grestore
gsave
0.878431 0.878431 0.878431 H0 setpattern fill grestore
grestore
gsave
282.7 78.7 40.54 66.72 clipbox
312.808287 93.831298 m
319.789429 93.831298 l
319.789429 94.646696 l
312.808287 94.646696 l
cl
gsave
0.690 setgray
fill
grestore
gsave
0.878431 0.878431 0.878431 H0 setpattern fill grestore
grestore
1 setlinejoin
0 setlinecap
[] 0 setdash
gsave
/o {
gsave
newpath
translate
0.8 setlinewidth
1 setlinejoin
0 setlinecap
0 0 m
0 -3.5 l

gsave
0.000 setgray
fill
grestore
stroke
grestore
} bind def
51.0155 66.7156 o
grestore
/DejaVuSans findfont
5.831 scalefont
setfont
gsave
52.538900 32.934375 translate
90.000000 rotate
0.000000 0 m /a glyphshow
3.571426 0 m /i glyphshow
5.190659 0 m /r glyphshow
7.586792 0 m /f glyphshow
9.638580 0 m /o glyphshow
13.204315 0 m /i glyphshow
14.823547 0 m /l glyphshow
16.442780 0 m /underscore glyphshow
19.356842 0 m /two glyphshow
23.064865 0 m /d glyphshow
grestore
gsave
/o {
gsave
newpath
translate
0.8 setlinewidth
1 setlinejoin
0 setlinecap
0 0 m
0 -3.5 l

gsave
0.000 setgray
fill
grestore
stroke
grestore
} bind def
68.4683 66.7156 o
grestore
gsave
70.069880 27.028125 translate
90.000000 rotate
0.000000 0 m /a glyphshow
3.571426 0 m /t glyphshow
5.856567 0 m /m glyphshow
11.533859 0 m /o glyphshow
15.099594 0 m /s glyphshow
18.136017 0 m /m glyphshow
23.813309 0 m /o glyphshow
27.379044 0 m /d glyphshow
31.078537 0 m /j glyphshow
grestore
gsave
/o {
gsave
newpath
translate
0.8 setlinewidth
1 setlinejoin
0 setlinecap
0 0 m
0 -3.5 l

gsave
0.000 setgray
fill
grestore
stroke
grestore
} bind def
85.9212 66.7156 o
grestore
gsave
87.522735 38.231250 translate
90.000000 rotate
0.000000 0 m /c glyphshow
3.204330 0 m /a glyphshow
6.775757 0 m /g glyphshow
10.475250 0 m /e glyphshow
14.060913 0 m /one glyphshow
17.768936 0 m /one glyphshow
grestore
gsave
/o {
gsave
newpath
translate
0.8 setlinewidth
1 setlinejoin
0 setlinecap
0 0 m
0 -3.5 l

gsave
0.000 setgray
fill
grestore
stroke
grestore
} bind def
103.374 66.7156 o
grestore
gsave
104.975590 38.231250 translate
90.000000 rotate
0.000000 0 m /c glyphshow
3.204330 0 m /a glyphshow
6.775757 0 m /g glyphshow
10.475250 0 m /e glyphshow
14.060913 0 m /one glyphshow
17.768936 0 m /three glyphshow
grestore
gsave
/o {
gsave
newpath
translate
0.8 setlinewidth
1 setlinejoin
0 setlinecap
0 0 m
0 -3.5 l

gsave
0.000 setgray
fill
grestore
stroke
grestore
} bind def
120.827 66.7156 o
grestore
gsave
122.428445 45.012500 translate
90.000000 rotate
0.000000 0 m /e glyphshow
3.585663 0 m /p glyphshow
7.285156 0 m /b glyphshow
10.984650 0 m /two glyphshow
grestore
gsave
/o {
gsave
newpath
translate
0.8 setlinewidth
1 setlinejoin
0 setlinecap
0 0 m
0 -3.5 l

gsave
0.000 setgray
fill
grestore
stroke
grestore
} bind def
138.28 66.7156 o
grestore
gsave
139.881300 45.012500 translate
90.000000 rotate
0.000000 0 m /e glyphshow
3.585663 0 m /p glyphshow
7.285156 0 m /b glyphshow
10.984650 0 m /three glyphshow
grestore
gsave
/o {
gsave
newpath
translate
0.8 setlinewidth
1 setlinejoin
0 setlinecap
0 0 m
0 -3.5 l

gsave
0.000 setgray
fill
grestore
stroke
grestore
} bind def
155.733 66.7156 o
grestore
gsave
157.256030 7.200000 translate
90.000000 rotate
0.000000 0 m /F glyphshow
3.352310 0 m /E glyphshow
7.034729 0 m /M glyphshow
12.063187 0 m /underscore glyphshow
14.977249 0 m /three glyphshow
18.685272 0 m /D glyphshow
23.173035 0 m /underscore glyphshow
26.087097 0 m /t glyphshow
28.372238 0 m /h glyphshow
32.066040 0 m /e glyphshow
35.651703 0 m /r glyphshow
37.922836 0 m /m glyphshow
43.600128 0 m /a glyphshow
47.171555 0 m /l glyphshow
48.790787 0 m /two glyphshow
grestore
gsave
/o {
gsave
newpath
translate
0.8 setlinewidth
1 setlinejoin
0 setlinecap
0 0 m
0 -3.5 l

gsave
0.000 setgray
fill
grestore
stroke
grestore
} bind def
173.185 66.7156 o
grestore
gsave
174.787010 26.481250 translate
90.000000 rotate
0.000000 0 m /f glyphshow
2.051788 0 m /l glyphshow
3.671021 0 m /o glyphshow
7.236755 0 m /w glyphshow
12.003403 0 m /m glyphshow
17.680695 0 m /e glyphshow
21.266357 0 m /t glyphshow
23.551498 0 m /e glyphshow
27.137161 0 m /r glyphshow
29.533295 0 m /five glyphshow
grestore
gsave
/o {
gsave
newpath
translate
0.8 setlinewidth
1 setlinejoin
0 setlinecap
0 0 m
0 -3.5 l

gsave
0.000 setgray
fill
grestore
stroke
grestore
} bind def
190.638 66.7156 o
grestore
gsave
192.239865 32.559375 translate
90.000000 rotate
0.000000 0 m /l glyphshow
1.619232 0 m /a glyphshow
5.190659 0 m /n glyphshow
8.884460 0 m /g glyphshow
12.583954 0 m /u glyphshow
16.277756 0 m /a glyphshow
19.849182 0 m /g glyphshow
23.548676 0 m /e glyphshow
grestore
gsave
/o {
gsave
newpath
translate
0.8 setlinewidth
1 setlinejoin
0 setlinecap
0 0 m
0 -3.5 l

gsave
0.000 setgray
fill
grestore
stroke
grestore
} bind def
208.091 66.7156 o
grestore
gsave
209.692720 25.621875 translate
90.000000 rotate
0.000000 0 m /p glyphshow
3.699493 0 m /o glyphshow
7.265228 0 m /i glyphshow
8.884460 0 m /s glyphshow
11.920883 0 m /s glyphshow
14.957306 0 m /o glyphshow
18.523041 0 m /n glyphshow
22.216843 0 m /three glyphshow
25.924866 0 m /D glyphshow
30.412628 0 m /b glyphshow
grestore
gsave
/o {
gsave
newpath
translate
0.8 setlinewidth
1 setlinejoin
0 setlinecap
0 0 m
0 -3.5 l

gsave
0.000 setgray
fill
grestore
stroke
grestore
} bind def
225.544 66.7156 o
grestore
gsave
227.145575 34.700000 translate
90.000000 rotate
0.000000 0 m /s glyphshow
3.036423 0 m /t glyphshow
5.321564 0 m /o glyphshow
8.887299 0 m /m glyphshow
14.564590 0 m /a glyphshow
18.136017 0 m /c glyphshow
21.340347 0 m /h glyphshow
grestore
gsave
/o {
gsave
newpath
translate
0.8 setlinewidth
1 setlinejoin
0 setlinecap
0 0 m
0 -3.5 l

gsave
0.000 setgray
fill
grestore
stroke
grestore
} bind def
242.997 66.7156 o
grestore
gsave
244.598430 41.184375 translate
90.000000 rotate
0.000000 0 m /t glyphshow
2.285141 0 m /o glyphshow
5.850876 0 m /r glyphshow
8.247009 0 m /s glyphshow
11.283432 0 m /o glyphshow
14.849167 0 m /two glyphshow
grestore
gsave
/o {
gsave
newpath
translate
0.8 setlinewidth
1 setlinejoin
0 setlinecap
0 0 m
0 -3.5 l

gsave
0.000 setgray
fill
grestore
stroke
grestore
} bind def
260.45 66.7156 o
grestore
gsave
262.051285 41.184375 translate
90.000000 rotate
0.000000 0 m /t glyphshow
2.285141 0 m /o glyphshow
5.850876 0 m /r glyphshow
8.247009 0 m /s glyphshow
11.283432 0 m /o glyphshow
14.849167 0 m /three glyphshow
grestore
gsave
/o {
gsave
newpath
translate
0.8 setlinewidth
1 setlinejoin
0 setlinecap
0 0 m
0 -3.5 l

gsave
0.000 setgray
fill
grestore
stroke
grestore
} bind def
277.903 66.7156 o
grestore
gsave
279.504140 32.465625 translate
90.000000 rotate
0.000000 0 m /v glyphshow
3.449066 0 m /e glyphshow
7.034729 0 m /n glyphshow
10.728531 0 m /k glyphshow
13.978607 0 m /a glyphshow
17.550034 0 m /t glyphshow
19.835175 0 m /zero glyphshow
23.543198 0 m /one glyphshow
grestore
gsave
/o {
gsave
newpath
translate
0.8 setlinewidth
1 setlinejoin
0 setlinecap
0 0 m
0 -3.5 l

gsave
0.000 setgray
fill
grestore
stroke
grestore
} bind def
295.355 66.7156 o
grestore
gsave
296.956995 40.278125 translate
90.000000 rotate
0.000000 0 m /w glyphshow
4.766647 0 m /a glyphshow
8.338074 0 m /n glyphshow
12.031876 0 m /g glyphshow
15.731369 0 m /three glyphshow
grestore
gsave
/o {
gsave
newpath
translate
0.8 setlinewidth
1 setlinejoin
0 setlinecap
0 0 m
0 -3.5 l

gsave
0.000 setgray
fill
grestore
stroke
grestore
} bind def
312.808 66.7156 o
grestore
gsave
314.409850 41.184375 translate
90.000000 rotate
0.000000 0 m /Z glyphshow
3.992599 0 m /h glyphshow
7.686401 0 m /a glyphshow
11.257828 0 m /o glyphshow
14.823563 0 m /one glyphshow
grestore
gsave
/o {
gsave
newpath
translate
0.8 setlinewidth
1 setlinejoin
0 setlinecap
0 0 m
-3.5 0 l

gsave
0.000 setgray
fill
grestore
stroke
grestore
} bind def
40.5438 72.4236 o
grestore
/DejaVuSans findfont
7.000 scalefont
setfont
gsave
17.965625 69.767303 translate
0.000000 rotate
0.000000 0 m /zero glyphshow
4.453613 0 m /period glyphshow
6.678711 0 m /seven glyphshow
11.132324 0 m /five glyphshow
grestore
gsave
/o {
gsave
newpath
translate
0.8 setlinewidth
1 setlinejoin
0 setlinecap
0 0 m
-3.5 0 l

gsave
0.000 setgray
fill
grestore
stroke
grestore
} bind def
40.5438 93.8313 o
grestore
gsave
17.965625 91.175048 translate
0.000000 rotate
0.000000 0 m /one glyphshow
4.453613 0 m /period glyphshow
6.678711 0 m /zero glyphshow
11.132324 0 m /zero glyphshow
grestore
gsave
/o {
gsave
newpath
translate
0.8 setlinewidth
1 setlinejoin
0 setlinecap
0 0 m
-3.5 0 l

gsave
0.000 setgray
fill
grestore
stroke
grestore
} bind def
40.5438 110.436 o
grestore
gsave
17.965625 107.780184 translate
0.000000 rotate
0.000000 0 m /one glyphshow
4.453613 0 m /period glyphshow
6.678711 0 m /two glyphshow
11.132324 0 m /five glyphshow
grestore
gsave
/o {
gsave
newpath
translate
0.8 setlinewidth
1 setlinejoin
0 setlinecap
0 0 m
-3.5 0 l

gsave
0.000 setgray
fill
grestore
stroke
grestore
} bind def
40.5438 124.004 o
grestore
gsave
17.965625 121.347568 translate
0.000000 rotate
0.000000 0 m /one glyphshow
4.453613 0 m /period glyphshow
6.678711 0 m /five glyphshow
11.132324 0 m /zero glyphshow
grestore
gsave
/o {
gsave
newpath
translate
0.8 setlinewidth
1 setlinejoin
0 setlinecap
0 0 m
-3.5 0 l

gsave
0.000 setgray
fill
grestore
stroke
grestore
} bind def
40.5438 135.475 o
grestore
gsave
17.965625 132.818628 translate
0.000000 rotate
0.000000 0 m /one glyphshow
4.453613 0 m /period glyphshow
6.678711 0 m /seven glyphshow
11.132324 0 m /five glyphshow
grestore
gsave
/o {
gsave
newpath
translate
0.8 setlinewidth
1 setlinejoin
0 setlinecap
0 0 m
-3.5 0 l

gsave
0.000 setgray
fill
grestore
stroke
grestore
} bind def
40.5438 145.412 o
grestore
gsave
17.965625 142.755312 translate
0.000000 rotate
0.000000 0 m /two glyphshow
4.453613 0 m /period glyphshow
6.678711 0 m /zero glyphshow
11.132324 0 m /zero glyphshow
grestore
gsave
12.512500 90.657344 translate
90.000000 rotate
0.000000 0 m /S glyphshow
4.443359 0 m /p glyphshow
8.886719 0 m /e glyphshow
13.193359 0 m /e glyphshow
17.500000 0 m /d glyphshow
21.943359 0 m /u glyphshow
26.379883 0 m /p glyphshow
grestore
1.500 setlinewidth
gsave
282.7 78.7 40.54 66.72 clipbox
47.524892 72.57998 m
47.524892 73.518121 l
stroke
grestore
gsave
282.7 78.7 40.54 66.72 clipbox
64.977747 106.805104 m
64.977747 107.607886 l
stroke
grestore
gsave
282.7 78.7 40.54 66.72 clipbox
82.430602 82.200713 m
82.430602 87.243112 l
stroke
grestore
gsave
282.7 78.7 40.54 66.72 clipbox
99.883457 101.060405 m
99.883457 102.143776 l
stroke
grestore
gsave
282.7 78.7 40.54 66.72 clipbox
117.336312 71.218848 m
117.336312 74.450884 l
stroke
grestore
gsave
282.7 78.7 40.54 66.72 clipbox
134.789167 100.456467 m
134.789167 101.047352 l
stroke
grestore
gsave
282.7 78.7 40.54 66.72 clipbox
152.242022 85.415337 m
152.242022 86.563322 l
stroke
grestore
gsave
282.7 78.7 40.54 66.72 clipbox
169.694877 125.27534 m
169.694877 129.021039 l
stroke
grestore
gsave
282.7 78.7 40.54 66.72 clipbox
187.147731 76.833217 m
187.147731 79.070162 l
stroke
grestore
gsave
282.7 78.7 40.54 66.72 clipbox
204.600586 123.043513 m
204.600586 125.090191 l
stroke
grestore
gsave
282.7 78.7 40.54 66.72 clipbox
222.053441 84.263713 m
222.053441 85.161522 l
stroke
grestore
gsave
282.7 78.7 40.54 66.72 clipbox
239.506296 77.508827 m
239.506296 80.33689 l
stroke
grestore
gsave
282.7 78.7 40.54 66.72 clipbox
256.959151 77.363615 m
256.959151 78.111882 l
stroke
grestore
gsave
282.7 78.7 40.54 66.72 clipbox
274.412006 107.256852 m
274.412006 108.650101 l
stroke
grestore
gsave
282.7 78.7 40.54 66.72 clipbox
291.864861 103.438233 m
291.864861 104.175033 l
stroke
grestore
gsave
282.7 78.7 40.54 66.72 clipbox
309.317716 91.573058 m
309.317716 95.678732 l
stroke
grestore
gsave
282.7 78.7 40.54 66.72 clipbox
54.506034 91.772714 m
54.506034 93.285262 l
stroke
grestore
gsave
282.7 78.7 40.54 66.72 clipbox
71.958889 93.703856 m
71.958889 94.4645 l
stroke
grestore
gsave
282.7 78.7 40.54 66.72 clipbox
89.411744 94.008522 m
89.411744 96.047582 l
stroke
grestore
gsave
282.7 78.7 40.54 66.72 clipbox
106.864599 96.47469 m
106.864599 97.849026 l
stroke
grestore
gsave
282.7 78.7 40.54 66.72 clipbox
124.317454 92.834189 m
124.317454 96.770653 l
stroke
grestore
gsave
282.7 78.7 40.54 66.72 clipbox
141.770309 94.203875 m
141.770309 94.596175 l
stroke
grestore
gsave
282.7 78.7 40.54 66.72 clipbox
159.223164 90.149393 m
159.223164 98.469519 l
stroke
grestore
gsave
282.7 78.7 40.54 66.72 clipbox
176.676019 91.983511 m
176.676019 94.623768 l
stroke
grestore
gsave
282.7 78.7 40.54 66.72 clipbox
194.128873 95.02924 m
194.128873 98.026023 l
stroke
grestore
gsave
282.7 78.7 40.54 66.72 clipbox
211.581728 96.281352 m
211.581728 100.603317 l
stroke
grestore
gsave
282.7 78.7 40.54 66.72 clipbox
229.034583 95.487095 m
229.034583 96.943184 l
stroke
grestore
gsave
282.7 78.7 40.54 66.72 clipbox
246.487438 94.392812 m
246.487438 97.294073 l
stroke
grestore
gsave
282.7 78.7 40.54 66.72 clipbox
263.940293 95.675331 m
263.940293 96.852714 l
stroke
grestore
gsave
282.7 78.7 40.54 66.72 clipbox
281.393148 95.5473 m
281.393148 98.288521 l
stroke
grestore
gsave
282.7 78.7 40.54 66.72 clipbox
298.846003 92.756031 m
298.846003 93.286528 l
stroke
grestore
gsave
282.7 78.7 40.54 66.72 clipbox
316.298858 92.716617 m
316.298858 98.038985 l
stroke
grestore
0.800 setlinewidth
0 setlinejoin
2 setlinecap
[] 0 setdash
gsave
40.54375 66.715625 m
40.54375 145.411562 l
stroke
grestore
gsave
323.28 66.715625 m
323.28 145.411562 l
stroke
grestore
gsave
40.54375 66.715625 m
323.28 66.715625 l
stroke
grestore
gsave
40.54375 145.411562 m
323.28 145.411562 l
stroke
grestore
1.000 setlinewidth
0 setlinecap
0.800 setgray
gsave
19.028938 222.092 m
322.107063 222.092 l
323.040396 222.092 323.507063 222.558667 323.507063 223.492 c
323.507063 253.588875 l
323.507063 254.522208 323.040396 254.988875 322.107063 254.988875 c
19.028938 254.988875 l
18.095604 254.988875 17.628938 254.522208 17.628938 253.588875 c
17.628938 223.492 l
17.628938 222.558667 18.095604 222.092 19.028938 222.092 c
cl
gsave
1.000 setgray
fill
grestore
stroke
grestore
0.376 setgray
gsave
20.428938 246.876375 m
34.428938 246.876375 l
34.428938 251.776375 l
20.428938 251.776375 l
cl
gsave
fill
grestore
stroke
grestore
0.000 setgray
gsave
40.028938 246.876375 translate
0.000000 rotate
0.000000 0 m /M glyphshow
6.039551 0 m /i glyphshow
7.984375 0 m /x glyphshow
11.876953 0 m /e glyphshow
16.183594 0 m /d glyphshow
20.626953 0 m /space glyphshow
22.852051 0 m /v glyphshow
26.994629 0 m /e glyphshow
31.301270 0 m /r glyphshow
34.179199 0 m /s glyphshow
37.826172 0 m /u glyphshow
42.262695 0 m /s glyphshow
45.909668 0 m /space glyphshow
48.134766 0 m /d glyphshow
52.578125 0 m /y glyphshow
56.720703 0 m /n glyphshow
61.157227 0 m /a glyphshow
65.446777 0 m /m glyphshow
72.265625 0 m /i glyphshow
74.210449 0 m /c glyphshow
78.059082 0 m /space glyphshow
80.284180 0 m /r glyphshow
83.037109 0 m /e glyphshow
87.343750 0 m /s glyphshow
90.990723 0 m /t glyphshow
93.735352 0 m /a glyphshow
98.024902 0 m /r glyphshow
100.902832 0 m /t glyphshow
grestore
0.529 setgray
gsave
20.428938 236.61075 m
34.428938 236.61075 l
34.428938 241.51075 l
20.428938 241.51075 l
cl
gsave
fill
grestore
stroke
grestore
0.000 setgray
gsave
40.028938 236.610750 translate
0.000000 rotate
0.000000 0 m /M glyphshow
6.039551 0 m /i glyphshow
7.984375 0 m /x glyphshow
11.876953 0 m /e glyphshow
16.183594 0 m /d glyphshow
20.626953 0 m /space glyphshow
22.852051 0 m /v glyphshow
26.994629 0 m /e glyphshow
31.301270 0 m /r glyphshow
34.179199 0 m /s glyphshow
37.826172 0 m /u glyphshow
42.262695 0 m /s glyphshow
45.909668 0 m /space glyphshow
48.134766 0 m /five glyphshow
52.588379 0 m /zero glyphshow
57.041992 0 m /space glyphshow
59.267090 0 m /i glyphshow
61.211914 0 m /t glyphshow
63.956543 0 m /e glyphshow
68.263184 0 m /r glyphshow
71.141113 0 m /a glyphshow
75.430664 0 m /t glyphshow
78.175293 0 m /i glyphshow
80.120117 0 m /o glyphshow
84.402832 0 m /n glyphshow
88.839355 0 m /space glyphshow
91.064453 0 m /r glyphshow
93.817383 0 m /e glyphshow
98.124023 0 m /s glyphshow
101.770996 0 m /t glyphshow
104.515625 0 m /a glyphshow
108.805176 0 m /r glyphshow
111.683105 0 m /t glyphshow
grestore
0.690 setgray
gsave
20.428938 226.345125 m
34.428938 226.345125 l
34.428938 231.245125 l
20.428938 231.245125 l
cl
gsave
fill
grestore
stroke
grestore
0.000 setgray
gsave
40.028938 226.345125 translate
0.000000 rotate
0.000000 0 m /M glyphshow
6.039551 0 m /i glyphshow
7.984375 0 m /x glyphshow
11.876953 0 m /e glyphshow
16.183594 0 m /d glyphshow
20.626953 0 m /space glyphshow
22.852051 0 m /v glyphshow
26.994629 0 m /e glyphshow
31.301270 0 m /r glyphshow
34.179199 0 m /s glyphshow
37.826172 0 m /u glyphshow
42.262695 0 m /s glyphshow
45.909668 0 m /space glyphshow
48.134766 0 m /i glyphshow
50.079590 0 m /m glyphshow
56.898438 0 m /p glyphshow
61.341797 0 m /r glyphshow
64.094727 0 m /o glyphshow
68.377441 0 m /v glyphshow
72.520020 0 m /e glyphshow
76.826660 0 m /m glyphshow
83.645508 0 m /e glyphshow
87.952148 0 m /n glyphshow
92.388672 0 m /t glyphshow
95.133301 0 m /space glyphshow
97.358398 0 m /r glyphshow
100.111328 0 m /e glyphshow
104.417969 0 m /s glyphshow
108.064941 0 m /t glyphshow
110.809570 0 m /a glyphshow
115.099121 0 m /r glyphshow
117.977051 0 m /t glyphshow
grestore
gsave
174.747688 246.876375 m
188.747688 246.876375 l
188.747688 251.776375 l
174.747688 251.776375 l
cl
gsave
0.376 setgray
fill
grestore
gsave
0.878431 0.878431 0.878431 H0 setpattern fill grestore
grestore
gsave
194.347688 246.876375 translate
0.000000 rotate
0.000000 0 m /S glyphshow
4.443359 0 m /i glyphshow
6.388184 0 m /n glyphshow
10.824707 0 m /g glyphshow
15.268066 0 m /l glyphshow
17.212891 0 m /e glyphshow
21.519531 0 m /space glyphshow
23.744629 0 m /I glyphshow
25.809082 0 m /L glyphshow
29.333984 0 m /U glyphshow
34.457520 0 m /space glyphshow
36.682617 0 m /w glyphshow
42.407715 0 m /i glyphshow
44.352539 0 m /t glyphshow
47.097168 0 m /h glyphshow
51.533691 0 m /space glyphshow
53.758789 0 m /d glyphshow
58.202148 0 m /y glyphshow
62.344727 0 m /n glyphshow
66.781250 0 m /a glyphshow
71.070801 0 m /m glyphshow
77.889648 0 m /i glyphshow
79.834473 0 m /c glyphshow
83.683105 0 m /space glyphshow
85.908203 0 m /r glyphshow
88.661133 0 m /e glyphshow
92.967773 0 m /s glyphshow
96.614746 0 m /t glyphshow
99.359375 0 m /a glyphshow
103.648926 0 m /r glyphshow
106.526855 0 m /t glyphshow
grestore
gsave
174.747688 236.61075 m
188.747688 236.61075 l
188.747688 241.51075 l
174.747688 241.51075 l
cl
gsave
0.529 setgray
fill
grestore
gsave
0.878431 0.878431 0.878431 H0 setpattern fill grestore
grestore
gsave
194.347688 236.610750 translate
0.000000 rotate
0.000000 0 m /S glyphshow
4.443359 0 m /i glyphshow
6.388184 0 m /n glyphshow
10.824707 0 m /g glyphshow
15.268066 0 m /l glyphshow
17.212891 0 m /e glyphshow
21.519531 0 m /space glyphshow
23.744629 0 m /I glyphshow
25.809082 0 m /L glyphshow
29.333984 0 m /U glyphshow
34.457520 0 m /space glyphshow
36.682617 0 m /w glyphshow
42.407715 0 m /i glyphshow
44.352539 0 m /t glyphshow
47.097168 0 m /h glyphshow
51.533691 0 m /space glyphshow
53.758789 0 m /five glyphshow
58.212402 0 m /zero glyphshow
62.666016 0 m /space glyphshow
64.891113 0 m /i glyphshow
66.835938 0 m /t glyphshow
69.580566 0 m /e glyphshow
73.887207 0 m /r glyphshow
76.765137 0 m /a glyphshow
81.054688 0 m /t glyphshow
83.799316 0 m /i glyphshow
85.744141 0 m /o glyphshow
90.026855 0 m /n glyphshow
94.463379 0 m /space glyphshow
96.688477 0 m /r glyphshow
99.441406 0 m /e glyphshow
103.748047 0 m /s glyphshow
107.395020 0 m /t glyphshow
110.139648 0 m /a glyphshow
114.429199 0 m /r glyphshow
117.307129 0 m /t glyphshow
grestore
gsave
174.747688 226.345125 m
188.747688 226.345125 l
188.747688 231.245125 l
174.747688 231.245125 l
cl
gsave
0.690 setgray
fill
grestore
gsave
0.878431 0.878431 0.878431 H0 setpattern fill grestore
grestore
gsave
194.347688 226.345125 translate
0.000000 rotate
0.000000 0 m /S glyphshow
4.443359 0 m /i glyphshow
6.388184 0 m /n glyphshow
10.824707 0 m /g glyphshow
15.268066 0 m /l glyphshow
17.212891 0 m /e glyphshow
21.519531 0 m /space glyphshow
23.744629 0 m /I glyphshow
25.809082 0 m /L glyphshow
29.333984 0 m /U glyphshow
34.457520 0 m /space glyphshow
36.682617 0 m /w glyphshow
42.407715 0 m /i glyphshow
44.352539 0 m /t glyphshow
47.097168 0 m /h glyphshow
51.533691 0 m /space glyphshow
53.758789 0 m /i glyphshow
55.703613 0 m /m glyphshow
62.522461 0 m /p glyphshow
66.965820 0 m /r glyphshow
69.718750 0 m /o glyphshow
74.001465 0 m /v glyphshow
78.144043 0 m /e glyphshow
82.450684 0 m /m glyphshow
89.269531 0 m /e glyphshow
93.576172 0 m /n glyphshow
98.012695 0 m /t glyphshow
100.757324 0 m /space glyphshow
102.982422 0 m /r glyphshow
105.735352 0 m /e glyphshow
110.041992 0 m /s glyphshow
113.688965 0 m /t glyphshow
116.433594 0 m /a glyphshow
120.723145 0 m /r glyphshow
123.601074 0 m /t glyphshow
grestore

end
showpage
