%!PS-Adobe-3.0 EPSF-3.0
%%Title: ../smc20/figures/speedup_2r.eps
%%Creator: matplotlib version 3.2.1, http://matplotlib.org/
%%CreationDate: Wed Sep  2 09:57:28 2020
%%Orientation: portrait
%%BoundingBox: 138.73000000000005 263.67875000000004 473.27 528.32125
%%EndComments
%%BeginProlog
/mpldict 8 dict def
mpldict begin
/m { moveto } bind def
/l { lineto } bind def
/r { rlineto } bind def
/c { curveto } bind def
/cl { closepath } bind def
/box {
m
1 index 0 r
0 exch r
neg 0 r
cl
} bind def
/clipbox {
box
clip
newpath
} bind def
%!PS-Adobe-3.0 Resource-Font
%%Title: DejaVu Sans
%%Copyright: Copyright (c) 2003 by Bitstream, Inc. All Rights Reserved. Copyright (c) 2006 by Tavmjong Bah. All Rights Reserved. DejaVu changes are in public domain 
%%Creator: Converted from TrueType to type 3 by PPR
25 dict begin
/_d{bind def}bind def
/_m{moveto}_d
/_l{lineto}_d
/_cl{closepath eofill}_d
/_c{curveto}_d
/_sc{7 -1 roll{setcachedevice}{pop pop pop pop pop pop}ifelse}_d
/_e{exec}_d
/FontName /DejaVuSans def
/PaintType 0 def
/FontMatrix[.001 0 0 .001 0 0]def
/FontBBox[-1021 -463 1793 1232]def
/FontType 3 def
/Encoding [ /space /hyphen /period /zero /one /two /three /four /five /seven /nine /D /E /F /G /I /L /M /S /U /Z /underscore /a /b /c /d /e /f /g /h /i /j /k /l /m /n /o /p /r /s /t /u /v /w ] def
/FontInfo 10 dict dup begin
/FamilyName (DejaVu Sans) def
/FullName (DejaVu Sans) def
/Notice (Copyright (c) 2003 by Bitstream, Inc. All Rights Reserved. Copyright (c) 2006 by Tavmjong Bah. All Rights Reserved. DejaVu changes are in public domain ) def
/Weight (Book) def
/Version (Version 2.35) def
/ItalicAngle 0.0 def
/isFixedPitch false def
/UnderlinePosition -130 def
/UnderlineThickness 90 def
end readonly def
/CharStrings 45 dict dup begin
/.notdef 0 def
/space{318 0 0 0 0 0 _sc
}_d
/hyphen{361 0 49 234 312 314 _sc
49 314 _m
312 314 _l
312 234 _l
49 234 _l
49 314 _l
_cl}_d
/period{318 0 107 0 210 124 _sc
107 124 _m
210 124 _l
210 0 _l
107 0 _l
107 124 _l
_cl}_d
/zero{636 0 66 -13 570 742 _sc
318 664 _m
267 664 229 639 203 589 _c
177 539 165 464 165 364 _c
165 264 177 189 203 139 _c
229 89 267 64 318 64 _c
369 64 407 89 433 139 _c
458 189 471 264 471 364 _c
471 464 458 539 433 589 _c
407 639 369 664 318 664 _c
318 742 _m
399 742 461 709 505 645 _c
548 580 570 486 570 364 _c
570 241 548 147 505 83 _c
461 19 399 -13 318 -13 _c
236 -13 173 19 130 83 _c
87 147 66 241 66 364 _c
66 486 87 580 130 645 _c
173 709 236 742 318 742 _c
_cl}_d
/one{636 0 110 0 544 729 _sc
124 83 _m
285 83 _l
285 639 _l
110 604 _l
110 694 _l
284 729 _l
383 729 _l
383 83 _l
544 83 _l
544 0 _l
124 0 _l
124 83 _l
_cl}_d
/two{{636 0 73 0 536 742 _sc
192 83 _m
536 83 _l
536 0 _l
73 0 _l
73 83 _l
110 121 161 173 226 239 _c
290 304 331 346 348 365 _c
380 400 402 430 414 455 _c
426 479 433 504 433 528 _c
433 566 419 598 392 622 _c
365 646 330 659 286 659 _c
255 659 222 653 188 643 _c
154 632 117 616 78 594 _c
78 694 _l
118 710 155 722 189 730 _c
223 738 255 742 284 742 _c
}_e{359 742 419 723 464 685 _c
509 647 532 597 532 534 _c
532 504 526 475 515 449 _c
504 422 484 390 454 354 _c
446 344 420 317 376 272 _c
332 227 271 164 192 83 _c
_cl}_e}_d
/three{{636 0 76 -13 556 742 _sc
406 393 _m
453 383 490 362 516 330 _c
542 298 556 258 556 212 _c
556 140 531 84 482 45 _c
432 6 362 -13 271 -13 _c
240 -13 208 -10 176 -4 _c
144 1 110 10 76 22 _c
76 117 _l
103 101 133 89 166 81 _c
198 73 232 69 268 69 _c
330 69 377 81 409 105 _c
441 129 458 165 458 212 _c
458 254 443 288 413 312 _c
383 336 341 349 287 349 _c
}_e{202 349 _l
202 430 _l
291 430 _l
339 430 376 439 402 459 _c
428 478 441 506 441 543 _c
441 580 427 609 401 629 _c
374 649 336 659 287 659 _c
260 659 231 656 200 650 _c
169 644 135 635 98 623 _c
98 711 _l
135 721 170 729 203 734 _c
235 739 266 742 296 742 _c
370 742 429 725 473 691 _c
517 657 539 611 539 553 _c
539 513 527 479 504 451 _c
481 423 448 403 406 393 _c
_cl}_e}_d
/four{636 0 49 0 580 729 _sc
378 643 _m
129 254 _l
378 254 _l
378 643 _l
352 729 _m
476 729 _l
476 254 _l
580 254 _l
580 172 _l
476 172 _l
476 0 _l
378 0 _l
378 172 _l
49 172 _l
49 267 _l
352 729 _l
_cl}_d
/five{{636 0 77 -13 549 729 _sc
108 729 _m
495 729 _l
495 646 _l
198 646 _l
198 467 _l
212 472 227 476 241 478 _c
255 480 270 482 284 482 _c
365 482 429 459 477 415 _c
525 370 549 310 549 234 _c
549 155 524 94 475 51 _c
426 8 357 -13 269 -13 _c
238 -13 207 -10 175 -6 _c
143 -1 111 6 77 17 _c
77 116 _l
106 100 136 88 168 80 _c
199 72 232 69 267 69 _c
}_e{323 69 368 83 401 113 _c
433 143 450 183 450 234 _c
450 284 433 324 401 354 _c
368 384 323 399 267 399 _c
241 399 214 396 188 390 _c
162 384 135 375 108 363 _c
108 729 _l
_cl}_e}_d
/seven{636 0 82 0 551 729 _sc
82 729 _m
551 729 _l
551 687 _l
286 0 _l
183 0 _l
432 646 _l
82 646 _l
82 729 _l
_cl}_d
/nine{{636 0 63 -13 566 742 _sc
110 15 _m
110 105 _l
134 93 159 84 185 78 _c
210 72 235 69 260 69 _c
324 69 374 90 408 134 _c
442 178 462 244 468 334 _c
448 306 424 284 396 269 _c
367 254 335 247 300 247 _c
226 247 168 269 126 313 _c
84 357 63 417 63 494 _c
63 568 85 628 129 674 _c
173 719 232 742 306 742 _c
390 742 455 709 499 645 _c
543 580 566 486 566 364 _c
}_e{566 248 538 157 484 89 _c
429 21 356 -13 264 -13 _c
239 -13 214 -10 189 -6 _c
163 -2 137 5 110 15 _c
306 324 _m
350 324 385 339 411 369 _c
437 399 450 441 450 494 _c
450 546 437 588 411 618 _c
385 648 350 664 306 664 _c
262 664 227 648 201 618 _c
175 588 162 546 162 494 _c
162 441 175 399 201 369 _c
227 339 262 324 306 324 _c
_cl}_e}_d
/D{770 0 98 0 711 729 _sc
197 648 _m
197 81 _l
316 81 _l
416 81 490 103 537 149 _c
583 195 607 267 607 365 _c
607 463 583 534 537 580 _c
490 625 416 648 316 648 _c
197 648 _l
98 729 _m
301 729 _l
442 729 546 699 612 641 _c
678 582 711 490 711 365 _c
711 239 677 147 611 88 _c
545 29 441 0 301 0 _c
98 0 _l
98 729 _l
_cl}_d
/E{632 0 98 0 568 729 _sc
98 729 _m
559 729 _l
559 646 _l
197 646 _l
197 430 _l
544 430 _l
544 347 _l
197 347 _l
197 83 _l
568 83 _l
568 0 _l
98 0 _l
98 729 _l
_cl}_d
/F{575 0 98 0 517 729 _sc
98 729 _m
517 729 _l
517 646 _l
197 646 _l
197 431 _l
486 431 _l
486 348 _l
197 348 _l
197 0 _l
98 0 _l
98 729 _l
_cl}_d
/G{{775 0 56 -13 693 742 _sc
595 104 _m
595 300 _l
434 300 _l
434 381 _l
693 381 _l
693 68 _l
655 40 613 20 567 7 _c
521 -6 472 -13 420 -13 _c
306 -13 216 20 152 86 _c
88 152 56 245 56 364 _c
56 482 88 575 152 642 _c
216 708 306 742 420 742 _c
467 742 512 736 555 724 _c
598 712 638 695 674 673 _c
674 568 _l
637 598 598 621 557 637 _c
516 653 473 661 428 661 _c
}_e{338 661 271 636 227 586 _c
182 536 160 462 160 364 _c
160 265 182 191 227 141 _c
271 91 338 67 428 67 _c
462 67 493 70 521 76 _c
549 82 573 91 595 104 _c
_cl}_e}_d
/I{295 0 98 0 197 729 _sc
98 729 _m
197 729 _l
197 0 _l
98 0 _l
98 729 _l
_cl}_d
/L{557 0 98 0 552 729 _sc
98 729 _m
197 729 _l
197 83 _l
552 83 _l
552 0 _l
98 0 _l
98 729 _l
_cl}_d
/M{863 0 98 0 765 729 _sc
98 729 _m
245 729 _l
431 233 _l
618 729 _l
765 729 _l
765 0 _l
669 0 _l
669 640 _l
481 140 _l
382 140 _l
194 640 _l
194 0 _l
98 0 _l
98 729 _l
_cl}_d
/S{{635 0 66 -13 579 742 _sc
535 705 _m
535 609 _l
497 627 462 640 429 649 _c
395 657 363 662 333 662 _c
279 662 237 651 208 631 _c
179 610 165 580 165 542 _c
165 510 174 485 194 469 _c
213 452 250 439 304 429 _c
364 417 _l
437 403 491 378 526 343 _c
561 307 579 260 579 201 _c
579 130 555 77 508 41 _c
460 5 391 -13 300 -13 _c
265 -13 228 -9 189 -2 _c
}_e{150 5 110 16 69 32 _c
69 134 _l
109 111 148 94 186 83 _c
224 71 262 66 300 66 _c
356 66 399 77 430 99 _c
460 121 476 152 476 194 _c
476 230 465 258 443 278 _c
421 298 385 313 335 323 _c
275 335 _l
201 349 148 372 115 404 _c
82 435 66 478 66 534 _c
66 598 88 649 134 686 _c
179 723 242 742 322 742 _c
356 742 390 739 426 733 _c
461 727 497 717 535 705 _c
}_e{_cl}_e}_d
/U{732 0 87 -13 645 729 _sc
87 729 _m
186 729 _l
186 286 _l
186 208 200 151 228 117 _c
256 83 302 66 366 66 _c
429 66 475 83 503 117 _c
531 151 546 208 546 286 _c
546 729 _l
645 729 _l
645 274 _l
645 178 621 107 574 59 _c
527 11 458 -13 366 -13 _c
274 -13 204 11 157 59 _c
110 107 87 178 87 274 _c
87 729 _l
_cl}_d
/Z{685 0 45 0 640 729 _sc
56 729 _m
629 729 _l
629 654 _l
168 83 _l
640 83 _l
640 0 _l
45 0 _l
45 75 _l
506 646 _l
56 646 _l
56 729 _l
_cl}_d
/underscore{500 0 -9 -235 510 -165 _sc
510 -165 _m
510 -235 _l
-9 -235 _l
-9 -165 _l
510 -165 _l
_cl}_d
/a{{613 0 60 -13 522 560 _sc
343 275 _m
270 275 220 266 192 250 _c
164 233 150 205 150 165 _c
150 133 160 107 181 89 _c
202 70 231 61 267 61 _c
317 61 357 78 387 114 _c
417 149 432 196 432 255 _c
432 275 _l
343 275 _l
522 312 _m
522 0 _l
432 0 _l
432 83 _l
411 49 385 25 355 10 _c
325 -5 287 -13 243 -13 _c
187 -13 142 2 109 33 _c
76 64 60 106 60 159 _c
}_e{60 220 80 266 122 298 _c
163 329 224 345 306 345 _c
432 345 _l
432 354 _l
432 395 418 427 391 450 _c
364 472 326 484 277 484 _c
245 484 215 480 185 472 _c
155 464 127 453 100 439 _c
100 522 _l
132 534 164 544 195 550 _c
226 556 256 560 286 560 _c
365 560 424 539 463 498 _c
502 457 522 395 522 312 _c
_cl}_e}_d
/b{{635 0 91 -13 580 760 _sc
487 273 _m
487 339 473 390 446 428 _c
418 466 381 485 334 485 _c
286 485 249 466 222 428 _c
194 390 181 339 181 273 _c
181 207 194 155 222 117 _c
249 79 286 61 334 61 _c
381 61 418 79 446 117 _c
473 155 487 207 487 273 _c
181 464 _m
199 496 223 520 252 536 _c
281 552 316 560 356 560 _c
422 560 476 533 518 481 _c
559 428 580 359 580 273 _c
}_e{580 187 559 117 518 65 _c
476 13 422 -13 356 -13 _c
316 -13 281 -5 252 10 _c
223 25 199 49 181 82 _c
181 0 _l
91 0 _l
91 760 _l
181 760 _l
181 464 _l
_cl}_e}_d
/c{{550 0 55 -13 488 560 _sc
488 526 _m
488 442 _l
462 456 437 466 411 473 _c
385 480 360 484 334 484 _c
276 484 230 465 198 428 _c
166 391 150 339 150 273 _c
150 206 166 154 198 117 _c
230 80 276 62 334 62 _c
360 62 385 65 411 72 _c
437 79 462 90 488 104 _c
488 21 _l
462 9 436 0 410 -5 _c
383 -10 354 -13 324 -13 _c
242 -13 176 12 128 64 _c
}_e{79 115 55 185 55 273 _c
55 362 79 432 128 483 _c
177 534 244 560 330 560 _c
358 560 385 557 411 551 _c
437 545 463 537 488 526 _c
_cl}_e}_d
/d{{635 0 55 -13 544 760 _sc
454 464 _m
454 760 _l
544 760 _l
544 0 _l
454 0 _l
454 82 _l
435 49 411 25 382 10 _c
353 -5 319 -13 279 -13 _c
213 -13 159 13 117 65 _c
75 117 55 187 55 273 _c
55 359 75 428 117 481 _c
159 533 213 560 279 560 _c
319 560 353 552 382 536 _c
411 520 435 496 454 464 _c
148 273 _m
148 207 161 155 188 117 _c
215 79 253 61 301 61 _c
}_e{348 61 385 79 413 117 _c
440 155 454 207 454 273 _c
454 339 440 390 413 428 _c
385 466 348 485 301 485 _c
253 485 215 466 188 428 _c
161 390 148 339 148 273 _c
_cl}_e}_d
/e{{615 0 55 -13 562 560 _sc
562 296 _m
562 252 _l
149 252 _l
153 190 171 142 205 110 _c
238 78 284 62 344 62 _c
378 62 412 66 444 74 _c
476 82 509 95 541 113 _c
541 28 _l
509 14 476 3 442 -3 _c
408 -9 373 -13 339 -13 _c
251 -13 182 12 131 62 _c
80 112 55 181 55 268 _c
55 357 79 428 127 481 _c
175 533 241 560 323 560 _c
397 560 455 536 498 489 _c
}_e{540 441 562 377 562 296 _c
472 322 _m
471 371 457 410 431 440 _c
404 469 368 484 324 484 _c
274 484 234 469 204 441 _c
174 413 156 373 152 322 _c
472 322 _l
_cl}_e}_d
/f{352 0 23 0 371 760 _sc
371 760 _m
371 685 _l
285 685 _l
253 685 230 678 218 665 _c
205 652 199 629 199 595 _c
199 547 _l
347 547 _l
347 477 _l
199 477 _l
199 0 _l
109 0 _l
109 477 _l
23 477 _l
23 547 _l
109 547 _l
109 585 _l
109 645 123 690 151 718 _c
179 746 224 760 286 760 _c
371 760 _l
_cl}_d
/g{{635 0 55 -207 544 560 _sc
454 280 _m
454 344 440 395 414 431 _c
387 467 349 485 301 485 _c
253 485 215 467 188 431 _c
161 395 148 344 148 280 _c
148 215 161 165 188 129 _c
215 93 253 75 301 75 _c
349 75 387 93 414 129 _c
440 165 454 215 454 280 _c
544 68 _m
544 -24 523 -93 482 -139 _c
440 -184 377 -207 292 -207 _c
260 -207 231 -204 203 -200 _c
175 -195 147 -188 121 -178 _c
}_e{121 -91 _l
147 -105 173 -115 199 -122 _c
225 -129 251 -133 278 -133 _c
336 -133 380 -117 410 -87 _c
439 -56 454 -10 454 52 _c
454 96 _l
435 64 411 40 382 24 _c
353 8 319 0 279 0 _c
211 0 157 25 116 76 _c
75 127 55 195 55 280 _c
55 364 75 432 116 483 _c
157 534 211 560 279 560 _c
319 560 353 552 382 536 _c
411 520 435 496 454 464 _c
454 547 _l
544 547 _l
}_e{544 68 _l
_cl}_e}_d
/h{634 0 91 0 549 760 _sc
549 330 _m
549 0 _l
459 0 _l
459 327 _l
459 379 448 417 428 443 _c
408 469 378 482 338 482 _c
289 482 251 466 223 435 _c
195 404 181 362 181 309 _c
181 0 _l
91 0 _l
91 760 _l
181 760 _l
181 462 _l
202 494 227 519 257 535 _c
286 551 320 560 358 560 _c
420 560 468 540 500 501 _c
532 462 549 405 549 330 _c
_cl}_d
/i{278 0 94 0 184 760 _sc
94 547 _m
184 547 _l
184 0 _l
94 0 _l
94 547 _l
94 760 _m
184 760 _l
184 646 _l
94 646 _l
94 760 _l
_cl}_d
/j{278 0 -17 -207 184 760 _sc
94 547 _m
184 547 _l
184 -9 _l
184 -78 170 -128 144 -160 _c
117 -191 74 -207 16 -207 _c
-17 -207 _l
-17 -131 _l
6 -131 _l
40 -131 63 -123 75 -107 _c
87 -91 94 -58 94 -9 _c
94 547 _l
94 760 _m
184 760 _l
184 646 _l
94 646 _l
94 760 _l
_cl}_d
/k{579 0 91 0 576 760 _sc
91 760 _m
181 760 _l
181 311 _l
449 547 _l
564 547 _l
274 291 _l
576 0 _l
459 0 _l
181 267 _l
181 0 _l
91 0 _l
91 760 _l
_cl}_d
/l{278 0 94 0 184 760 _sc
94 760 _m
184 760 _l
184 0 _l
94 0 _l
94 760 _l
_cl}_d
/m{{974 0 91 0 889 560 _sc
520 442 _m
542 482 569 511 600 531 _c
631 550 668 560 711 560 _c
767 560 811 540 842 500 _c
873 460 889 403 889 330 _c
889 0 _l
799 0 _l
799 327 _l
799 379 789 418 771 444 _c
752 469 724 482 686 482 _c
639 482 602 466 575 435 _c
548 404 535 362 535 309 _c
535 0 _l
445 0 _l
445 327 _l
445 379 435 418 417 444 _c
398 469 369 482 331 482 _c
}_e{285 482 248 466 221 435 _c
194 404 181 362 181 309 _c
181 0 _l
91 0 _l
91 547 _l
181 547 _l
181 462 _l
201 495 226 520 255 536 _c
283 552 317 560 357 560 _c
397 560 430 550 458 530 _c
486 510 506 480 520 442 _c
_cl}_e}_d
/n{634 0 91 0 549 560 _sc
549 330 _m
549 0 _l
459 0 _l
459 327 _l
459 379 448 417 428 443 _c
408 469 378 482 338 482 _c
289 482 251 466 223 435 _c
195 404 181 362 181 309 _c
181 0 _l
91 0 _l
91 547 _l
181 547 _l
181 462 _l
202 494 227 519 257 535 _c
286 551 320 560 358 560 _c
420 560 468 540 500 501 _c
532 462 549 405 549 330 _c
_cl}_d
/o{612 0 55 -13 557 560 _sc
306 484 _m
258 484 220 465 192 427 _c
164 389 150 338 150 273 _c
150 207 163 156 191 118 _c
219 80 257 62 306 62 _c
354 62 392 80 420 118 _c
448 156 462 207 462 273 _c
462 337 448 389 420 427 _c
392 465 354 484 306 484 _c
306 560 _m
384 560 445 534 490 484 _c
534 433 557 363 557 273 _c
557 183 534 113 490 63 _c
445 12 384 -13 306 -13 _c
227 -13 165 12 121 63 _c
77 113 55 183 55 273 _c
55 363 77 433 121 484 _c
165 534 227 560 306 560 _c
_cl}_d
/p{{635 0 91 -207 580 560 _sc
181 82 _m
181 -207 _l
91 -207 _l
91 547 _l
181 547 _l
181 464 _l
199 496 223 520 252 536 _c
281 552 316 560 356 560 _c
422 560 476 533 518 481 _c
559 428 580 359 580 273 _c
580 187 559 117 518 65 _c
476 13 422 -13 356 -13 _c
316 -13 281 -5 252 10 _c
223 25 199 49 181 82 _c
487 273 _m
487 339 473 390 446 428 _c
418 466 381 485 334 485 _c
}_e{286 485 249 466 222 428 _c
194 390 181 339 181 273 _c
181 207 194 155 222 117 _c
249 79 286 61 334 61 _c
381 61 418 79 446 117 _c
473 155 487 207 487 273 _c
_cl}_e}_d
/r{411 0 91 0 411 560 _sc
411 463 _m
401 469 390 473 378 476 _c
366 478 353 480 339 480 _c
288 480 249 463 222 430 _c
194 397 181 350 181 288 _c
181 0 _l
91 0 _l
91 547 _l
181 547 _l
181 462 _l
199 495 224 520 254 536 _c
284 552 321 560 365 560 _c
371 560 378 559 386 559 _c
393 558 401 557 411 555 _c
411 463 _l
_cl}_d
/s{{521 0 54 -13 472 560 _sc
443 531 _m
443 446 _l
417 458 391 468 364 475 _c
336 481 308 485 279 485 _c
234 485 200 478 178 464 _c
156 450 145 430 145 403 _c
145 382 153 366 169 354 _c
185 342 217 330 265 320 _c
296 313 _l
360 299 405 279 432 255 _c
458 230 472 195 472 151 _c
472 100 452 60 412 31 _c
372 1 316 -13 246 -13 _c
216 -13 186 -10 154 -5 _c
}_e{122 0 89 8 54 20 _c
54 113 _l
87 95 120 82 152 74 _c
184 65 216 61 248 61 _c
290 61 323 68 346 82 _c
368 96 380 117 380 144 _c
380 168 371 187 355 200 _c
339 213 303 226 247 238 _c
216 245 _l
160 257 119 275 95 299 _c
70 323 58 356 58 399 _c
58 450 76 490 112 518 _c
148 546 200 560 268 560 _c
301 560 332 557 362 552 _c
391 547 418 540 443 531 _c
}_e{_cl}_e}_d
/t{392 0 27 0 368 702 _sc
183 702 _m
183 547 _l
368 547 _l
368 477 _l
183 477 _l
183 180 _l
183 135 189 106 201 94 _c
213 81 238 75 276 75 _c
368 75 _l
368 0 _l
276 0 _l
206 0 158 13 132 39 _c
106 65 93 112 93 180 _c
93 477 _l
27 477 _l
27 547 _l
93 547 _l
93 702 _l
183 702 _l
_cl}_d
/u{634 0 85 -13 543 560 _sc
85 216 _m
85 547 _l
175 547 _l
175 219 _l
175 167 185 129 205 103 _c
225 77 255 64 296 64 _c
344 64 383 79 411 110 _c
439 141 453 183 453 237 _c
453 547 _l
543 547 _l
543 0 _l
453 0 _l
453 84 _l
431 50 405 26 377 10 _c
348 -5 315 -13 277 -13 _c
214 -13 166 6 134 45 _c
101 83 85 140 85 216 _c
311 560 _m
311 560 _l
_cl}_d
/v{592 0 30 0 562 547 _sc
30 547 _m
125 547 _l
296 88 _l
467 547 _l
562 547 _l
357 0 _l
235 0 _l
30 547 _l
_cl}_d
/w{818 0 42 0 776 547 _sc
42 547 _m
132 547 _l
244 120 _l
356 547 _l
462 547 _l
574 120 _l
686 547 _l
776 547 _l
633 0 _l
527 0 _l
409 448 _l
291 0 _l
185 0 _l
42 547 _l
_cl}_d
end readonly def

/BuildGlyph
 {exch begin
 CharStrings exch
 2 copy known not{pop /.notdef}if
 true 3 1 roll get exec
 end}_d

/BuildChar {
 1 index /Encoding get exch get
 1 index /BuildGlyph get exec
}_d

FontName currentdict end definefont pop
end
%%EndProlog
mpldict begin
138.73 263.679 translate
334.54 264.642 0 0 clipbox
gsave
0 0 m
334.54 0 l
334.54 264.6425 l
0 264.6425 l
cl
1.000 setgray
fill
grestore
gsave
40.54375 159.127812 m
323.28 159.127812 l
323.28 237.82375 l
40.54375 237.82375 l
cl
1.000 setgray
fill
grestore
gsave
282.7 78.7 40.54 159.1 clipbox
42.787688 167.208696 m
47.275565 167.208696 l
47.275565 176.521506 l
42.787688 176.521506 l
cl
0.529 setgray
fill
grestore
gsave
282.7 78.7 40.54 159.1 clipbox
54.007381 167.208696 m
58.495258 167.208696 l
58.495258 190.480136 l
54.007381 190.480136 l
cl
0.529 setgray
fill
grestore
gsave
282.7 78.7 40.54 159.1 clipbox
65.227073 167.208696 m
69.71495 167.208696 l
69.71495 185.384759 l
65.227073 185.384759 l
cl
0.529 setgray
fill
grestore
gsave
282.7 78.7 40.54 159.1 clipbox
76.446766 167.208696 m
80.934643 167.208696 l
80.934643 169.025931 l
76.446766 169.025931 l
cl
0.529 setgray
fill
grestore
gsave
282.7 78.7 40.54 159.1 clipbox
87.666458 167.208696 m
92.154335 167.208696 l
92.154335 175.765724 l
87.666458 175.765724 l
cl
0.529 setgray
fill
grestore
gsave
282.7 78.7 40.54 159.1 clipbox
98.886151 167.208696 m
103.374028 167.208696 l
103.374028 164.573278 l
98.886151 164.573278 l
cl
0.376 setgray
fill
grestore
gsave
282.7 78.7 40.54 159.1 clipbox
110.105843 167.208696 m
114.59372 167.208696 l
114.59372 184.339096 l
110.105843 184.339096 l
cl
0.690 setgray
fill
grestore
gsave
282.7 78.7 40.54 159.1 clipbox
121.325536 167.208696 m
125.813413 167.208696 l
125.813413 184.39506 l
121.325536 184.39506 l
cl
0.529 setgray
fill
grestore
gsave
282.7 78.7 40.54 159.1 clipbox
132.545228 167.208696 m
137.033105 167.208696 l
137.033105 179.75748 l
132.545228 179.75748 l
cl
0.529 setgray
fill
grestore
gsave
282.7 78.7 40.54 159.1 clipbox
143.764921 167.208696 m
148.252798 167.208696 l
148.252798 174.691207 l
143.764921 174.691207 l
cl
0.529 setgray
fill
grestore
gsave
282.7 78.7 40.54 159.1 clipbox
154.984613 167.208696 m
159.47249 167.208696 l
159.47249 180.066044 l
154.984613 180.066044 l
cl
0.529 setgray
fill
grestore
gsave
282.7 78.7 40.54 159.1 clipbox
166.204306 167.208696 m
170.692183 167.208696 l
170.692183 177.155506 l
166.204306 177.155506 l
cl
0.529 setgray
fill
grestore
gsave
282.7 78.7 40.54 159.1 clipbox
177.423998 167.208696 m
181.911875 167.208696 l
181.911875 190.732677 l
177.423998 190.732677 l
cl
0.529 setgray
fill
grestore
gsave
282.7 78.7 40.54 159.1 clipbox
188.64369 167.208696 m
193.131567 167.208696 l
193.131567 199.271851 l
188.64369 199.271851 l
cl
0.529 setgray
fill
grestore
gsave
282.7 78.7 40.54 159.1 clipbox
199.863383 167.208696 m
204.35126 167.208696 l
204.35126 183.54843 l
199.863383 183.54843 l
cl
0.529 setgray
fill
grestore
gsave
282.7 78.7 40.54 159.1 clipbox
211.083075 167.208696 m
215.570952 167.208696 l
215.570952 194.020412 l
211.083075 194.020412 l
cl
0.529 setgray
fill
grestore
gsave
282.7 78.7 40.54 159.1 clipbox
222.302768 167.208696 m
226.790645 167.208696 l
226.790645 223.797418 l
222.302768 223.797418 l
cl
0.690 setgray
fill
grestore
gsave
282.7 78.7 40.54 159.1 clipbox
233.52246 167.208696 m
238.010337 167.208696 l
238.010337 188.135663 l
233.52246 188.135663 l
cl
0.529 setgray
fill
grestore
gsave
282.7 78.7 40.54 159.1 clipbox
244.742153 167.208696 m
249.23003 167.208696 l
249.23003 208.245324 l
244.742153 208.245324 l
cl
0.529 setgray
fill
grestore
gsave
282.7 78.7 40.54 159.1 clipbox
255.961845 167.208696 m
260.449722 167.208696 l
260.449722 181.736293 l
255.961845 181.736293 l
cl
0.529 setgray
fill
grestore
gsave
282.7 78.7 40.54 159.1 clipbox
267.181538 167.208696 m
271.669415 167.208696 l
271.669415 171.99453 l
267.181538 171.99453 l
cl
0.529 setgray
fill
grestore
gsave
282.7 78.7 40.54 159.1 clipbox
278.40123 167.208696 m
282.889107 167.208696 l
282.889107 184.545984 l
278.40123 184.545984 l
cl
0.529 setgray
fill
grestore
gsave
282.7 78.7 40.54 159.1 clipbox
289.620923 167.208696 m
294.1088 167.208696 l
294.1088 181.625708 l
289.620923 181.625708 l
cl
0.529 setgray
fill
grestore
gsave
282.7 78.7 40.54 159.1 clipbox
300.840615 167.208696 m
305.328492 167.208696 l
305.328492 179.653839 l
300.840615 179.653839 l
cl
0.529 setgray
fill
grestore
gsave
282.7 78.7 40.54 159.1 clipbox
312.060308 167.208696 m
316.548185 167.208696 l
316.548185 185.271079 l
312.060308 185.271079 l
cl
0.529 setgray
fill
grestore
gsave
282.7 78.7 40.54 159.1 clipbox
47.275565 167.208696 m
51.763442 167.208696 l
51.763442 165.129629 l
47.275565 165.129629 l
cl
gsave
0.529 setgray
fill
grestore
  << /PatternType 1
     /PaintType 2
     /TilingType 2
     /BBox[0 0 72 72]
     /XStep 72
     /YStep 72

     /PaintProc {
        pop
        1.000000 setlinewidth
-36 36 m
36 108 l
-30 30 m
42 102 l
-24 24 m
48 96 l
-18 18 m
54 90 l
-12 12 m
60 84 l
-6 6 m
66 78 l
0 0 m
72 72 l
6 -6 m
78 66 l
12 -12 m
84 60 l
18 -18 m
90 54 l
24 -24 m
96 48 l
30 -30 m
102 42 l
36 -36 m
108 36 l

        gsave
        fill
        grestore
        stroke
     } bind
   >>
   matrix
   0.0 264.642500 translate
   makepattern
   /H0 exch def
gsave
0.878431 0.878431 0.878431 H0 setpattern fill grestore
grestore
gsave
282.7 78.7 40.54 159.1 clipbox
58.495258 167.208696 m
62.983135 167.208696 l
62.983135 167.428325 l
58.495258 167.428325 l
cl
gsave
0.529 setgray
fill
grestore
gsave
0.878431 0.878431 0.878431 H0 setpattern fill grestore
grestore
gsave
282.7 78.7 40.54 159.1 clipbox
69.71495 167.208696 m
74.202827 167.208696 l
74.202827 166.571084 l
69.71495 166.571084 l
cl
gsave
0.529 setgray
fill
grestore
gsave
0.878431 0.878431 0.878431 H0 setpattern fill grestore
grestore
gsave
282.7 78.7 40.54 159.1 clipbox
80.934643 167.208696 m
85.42252 167.208696 l
85.42252 167.734497 l
80.934643 167.734497 l
cl
gsave
0.529 setgray
fill
grestore
gsave
0.878431 0.878431 0.878431 H0 setpattern fill grestore
grestore
gsave
282.7 78.7 40.54 159.1 clipbox
92.154335 167.208696 m
96.642212 167.208696 l
96.642212 171.863953 l
92.154335 171.863953 l
cl
gsave
0.529 setgray
fill
grestore
gsave
0.878431 0.878431 0.878431 H0 setpattern fill grestore
grestore
gsave
282.7 78.7 40.54 159.1 clipbox
103.374028 167.208696 m
107.861905 167.208696 l
107.861905 168.074957 l
103.374028 168.074957 l
cl
gsave
0.529 setgray
fill
grestore
gsave
0.878431 0.878431 0.878431 H0 setpattern fill grestore
grestore
gsave
282.7 78.7 40.54 159.1 clipbox
114.59372 167.208696 m
119.081597 167.208696 l
119.081597 166.559966 l
114.59372 166.559966 l
cl
gsave
0.529 setgray
fill
grestore
gsave
0.878431 0.878431 0.878431 H0 setpattern fill grestore
grestore
gsave
282.7 78.7 40.54 159.1 clipbox
125.813413 167.208696 m
130.30129 167.208696 l
130.30129 167.345364 l
125.813413 167.345364 l
cl
gsave
0.529 setgray
fill
grestore
gsave
0.878431 0.878431 0.878431 H0 setpattern fill grestore
grestore
gsave
282.7 78.7 40.54 159.1 clipbox
137.033105 167.208696 m
141.520982 167.208696 l
141.520982 168.025874 l
137.033105 168.025874 l
cl
gsave
0.529 setgray
fill
grestore
gsave
0.878431 0.878431 0.878431 H0 setpattern fill grestore
grestore
gsave
282.7 78.7 40.54 159.1 clipbox
148.252798 167.208696 m
152.740675 167.208696 l
152.740675 168.089753 l
148.252798 168.089753 l
cl
gsave
0.529 setgray
fill
grestore
gsave
0.878431 0.878431 0.878431 H0 setpattern fill grestore
grestore
gsave
282.7 78.7 40.54 159.1 clipbox
159.47249 167.208696 m
163.960367 167.208696 l
163.960367 173.574652 l
159.47249 173.574652 l
cl
gsave
0.529 setgray
fill
grestore
gsave
0.878431 0.878431 0.878431 H0 setpattern fill grestore
grestore
gsave
282.7 78.7 40.54 159.1 clipbox
170.692183 167.208696 m
175.18006 167.208696 l
175.18006 166.274159 l
170.692183 166.274159 l
cl
gsave
0.529 setgray
fill
grestore
gsave
0.878431 0.878431 0.878431 H0 setpattern fill grestore
grestore
gsave
282.7 78.7 40.54 159.1 clipbox
181.911875 167.208696 m
186.399752 167.208696 l
186.399752 168.988208 l
181.911875 168.988208 l
cl
gsave
0.529 setgray
fill
grestore
gsave
0.878431 0.878431 0.878431 H0 setpattern fill grestore
grestore
gsave
282.7 78.7 40.54 159.1 clipbox
193.131567 167.208696 m
197.619444 167.208696 l
197.619444 171.59779 l
193.131567 171.59779 l
cl
gsave
0.529 setgray
fill
grestore
gsave
0.878431 0.878431 0.878431 H0 setpattern fill grestore
grestore
gsave
282.7 78.7 40.54 159.1 clipbox
204.35126 167.208696 m
208.839137 167.208696 l
208.839137 173.682465 l
204.35126 173.682465 l
cl
gsave
0.529 setgray
fill
grestore
gsave
0.878431 0.878431 0.878431 H0 setpattern fill grestore
grestore
gsave
282.7 78.7 40.54 159.1 clipbox
215.570952 167.208696 m
220.058829 167.208696 l
220.058829 169.09311 l
215.570952 169.09311 l
cl
gsave
0.529 setgray
fill
grestore
gsave
0.878431 0.878431 0.878431 H0 setpattern fill grestore
grestore
gsave
282.7 78.7 40.54 159.1 clipbox
226.790645 167.208696 m
231.278522 167.208696 l
231.278522 167.90531 l
226.790645 167.90531 l
cl
gsave
0.529 setgray
fill
grestore
gsave
0.878431 0.878431 0.878431 H0 setpattern fill grestore
grestore
gsave
282.7 78.7 40.54 159.1 clipbox
238.010337 167.208696 m
242.498214 167.208696 l
242.498214 177.919624 l
238.010337 177.919624 l
cl
gsave
0.529 setgray
fill
grestore
gsave
0.878431 0.878431 0.878431 H0 setpattern fill grestore
grestore
gsave
282.7 78.7 40.54 159.1 clipbox
249.23003 167.208696 m
253.717907 167.208696 l
253.717907 173.407137 l
249.23003 173.407137 l
cl
gsave
0.529 setgray
fill
grestore
gsave
0.878431 0.878431 0.878431 H0 setpattern fill grestore
grestore
gsave
282.7 78.7 40.54 159.1 clipbox
260.449722 167.208696 m
264.937599 167.208696 l
264.937599 171.009199 l
260.449722 171.009199 l
cl
gsave
0.529 setgray
fill
grestore
gsave
0.878431 0.878431 0.878431 H0 setpattern fill grestore
grestore
gsave
282.7 78.7 40.54 159.1 clipbox
271.669415 167.208696 m
276.157292 167.208696 l
276.157292 169.610536 l
271.669415 169.610536 l
cl
gsave
0.529 setgray
fill
grestore
gsave
0.878431 0.878431 0.878431 H0 setpattern fill grestore
grestore
gsave
282.7 78.7 40.54 159.1 clipbox
282.889107 167.208696 m
287.376984 167.208696 l
287.376984 170.837009 l
282.889107 170.837009 l
cl
gsave
0.529 setgray
fill
grestore
gsave
0.878431 0.878431 0.878431 H0 setpattern fill grestore
grestore
gsave
282.7 78.7 40.54 159.1 clipbox
294.1088 167.208696 m
298.596677 167.208696 l
298.596677 169.514234 l
294.1088 169.514234 l
cl
gsave
0.529 setgray
fill
grestore
gsave
0.878431 0.878431 0.878431 H0 setpattern fill grestore
grestore
gsave
282.7 78.7 40.54 159.1 clipbox
305.328492 167.208696 m
309.816369 167.208696 l
309.816369 166.439591 l
305.328492 166.439591 l
cl
gsave
0.529 setgray
fill
grestore
gsave
0.878431 0.878431 0.878431 H0 setpattern fill grestore
grestore
gsave
282.7 78.7 40.54 159.1 clipbox
316.548185 167.208696 m
321.036062 167.208696 l
321.036062 166.399518 l
316.548185 166.399518 l
cl
gsave
0.529 setgray
fill
grestore
gsave
0.878431 0.878431 0.878431 H0 setpattern fill grestore
grestore
0.800 setlinewidth
1 setlinejoin
0 setlinecap
[] 0 setdash
0.000 setgray
gsave
/o {
gsave
newpath
translate
0.8 setlinewidth
1 setlinejoin
0 setlinecap
0 0 m
0 -3.5 l

gsave
0.000 setgray
fill
grestore
stroke
grestore
} bind def
47.2756 159.128 o
grestore
gsave
/o {
gsave
newpath
translate
0.8 setlinewidth
1 setlinejoin
0 setlinecap
0 0 m
0 -3.5 l

gsave
0.000 setgray
fill
grestore
stroke
grestore
} bind def
58.4953 159.128 o
grestore
gsave
/o {
gsave
newpath
translate
0.8 setlinewidth
1 setlinejoin
0 setlinecap
0 0 m
0 -3.5 l

gsave
0.000 setgray
fill
grestore
stroke
grestore
} bind def
69.715 159.128 o
grestore
gsave
/o {
gsave
newpath
translate
0.8 setlinewidth
1 setlinejoin
0 setlinecap
0 0 m
0 -3.5 l

gsave
0.000 setgray
fill
grestore
stroke
grestore
} bind def
80.9346 159.128 o
grestore
gsave
/o {
gsave
newpath
translate
0.8 setlinewidth
1 setlinejoin
0 setlinecap
0 0 m
0 -3.5 l

gsave
0.000 setgray
fill
grestore
stroke
grestore
} bind def
92.1543 159.128 o
grestore
gsave
/o {
gsave
newpath
translate
0.8 setlinewidth
1 setlinejoin
0 setlinecap
0 0 m
0 -3.5 l

gsave
0.000 setgray
fill
grestore
stroke
grestore
} bind def
103.374 159.128 o
grestore
gsave
/o {
gsave
newpath
translate
0.8 setlinewidth
1 setlinejoin
0 setlinecap
0 0 m
0 -3.5 l

gsave
0.000 setgray
fill
grestore
stroke
grestore
} bind def
114.594 159.128 o
grestore
gsave
/o {
gsave
newpath
translate
0.8 setlinewidth
1 setlinejoin
0 setlinecap
0 0 m
0 -3.5 l

gsave
0.000 setgray
fill
grestore
stroke
grestore
} bind def
125.813 159.128 o
grestore
gsave
/o {
gsave
newpath
translate
0.8 setlinewidth
1 setlinejoin
0 setlinecap
0 0 m
0 -3.5 l

gsave
0.000 setgray
fill
grestore
stroke
grestore
} bind def
137.033 159.128 o
grestore
gsave
/o {
gsave
newpath
translate
0.8 setlinewidth
1 setlinejoin
0 setlinecap
0 0 m
0 -3.5 l

gsave
0.000 setgray
fill
grestore
stroke
grestore
} bind def
148.253 159.128 o
grestore
gsave
/o {
gsave
newpath
translate
0.8 setlinewidth
1 setlinejoin
0 setlinecap
0 0 m
0 -3.5 l

gsave
0.000 setgray
fill
grestore
stroke
grestore
} bind def
159.472 159.128 o
grestore
gsave
/o {
gsave
newpath
translate
0.8 setlinewidth
1 setlinejoin
0 setlinecap
0 0 m
0 -3.5 l

gsave
0.000 setgray
fill
grestore
stroke
grestore
} bind def
170.692 159.128 o
grestore
gsave
/o {
gsave
newpath
translate
0.8 setlinewidth
1 setlinejoin
0 setlinecap
0 0 m
0 -3.5 l

gsave
0.000 setgray
fill
grestore
stroke
grestore
} bind def
181.912 159.128 o
grestore
gsave
/o {
gsave
newpath
translate
0.8 setlinewidth
1 setlinejoin
0 setlinecap
0 0 m
0 -3.5 l

gsave
0.000 setgray
fill
grestore
stroke
grestore
} bind def
193.132 159.128 o
grestore
gsave
/o {
gsave
newpath
translate
0.8 setlinewidth
1 setlinejoin
0 setlinecap
0 0 m
0 -3.5 l

gsave
0.000 setgray
fill
grestore
stroke
grestore
} bind def
204.351 159.128 o
grestore
gsave
/o {
gsave
newpath
translate
0.8 setlinewidth
1 setlinejoin
0 setlinecap
0 0 m
0 -3.5 l

gsave
0.000 setgray
fill
grestore
stroke
grestore
} bind def
215.571 159.128 o
grestore
gsave
/o {
gsave
newpath
translate
0.8 setlinewidth
1 setlinejoin
0 setlinecap
0 0 m
0 -3.5 l

gsave
0.000 setgray
fill
grestore
stroke
grestore
} bind def
226.791 159.128 o
grestore
gsave
/o {
gsave
newpath
translate
0.8 setlinewidth
1 setlinejoin
0 setlinecap
0 0 m
0 -3.5 l

gsave
0.000 setgray
fill
grestore
stroke
grestore
} bind def
238.01 159.128 o
grestore
gsave
/o {
gsave
newpath
translate
0.8 setlinewidth
1 setlinejoin
0 setlinecap
0 0 m
0 -3.5 l

gsave
0.000 setgray
fill
grestore
stroke
grestore
} bind def
249.23 159.128 o
grestore
gsave
/o {
gsave
newpath
translate
0.8 setlinewidth
1 setlinejoin
0 setlinecap
0 0 m
0 -3.5 l

gsave
0.000 setgray
fill
grestore
stroke
grestore
} bind def
260.45 159.128 o
grestore
gsave
/o {
gsave
newpath
translate
0.8 setlinewidth
1 setlinejoin
0 setlinecap
0 0 m
0 -3.5 l

gsave
0.000 setgray
fill
grestore
stroke
grestore
} bind def
271.669 159.128 o
grestore
gsave
/o {
gsave
newpath
translate
0.8 setlinewidth
1 setlinejoin
0 setlinecap
0 0 m
0 -3.5 l

gsave
0.000 setgray
fill
grestore
stroke
grestore
} bind def
282.889 159.128 o
grestore
gsave
/o {
gsave
newpath
translate
0.8 setlinewidth
1 setlinejoin
0 setlinecap
0 0 m
0 -3.5 l

gsave
0.000 setgray
fill
grestore
stroke
grestore
} bind def
294.109 159.128 o
grestore
gsave
/o {
gsave
newpath
translate
0.8 setlinewidth
1 setlinejoin
0 setlinecap
0 0 m
0 -3.5 l

gsave
0.000 setgray
fill
grestore
stroke
grestore
} bind def
305.328 159.128 o
grestore
gsave
/o {
gsave
newpath
translate
0.8 setlinewidth
1 setlinejoin
0 setlinecap
0 0 m
0 -3.5 l

gsave
0.000 setgray
fill
grestore
stroke
grestore
} bind def
316.548 159.128 o
grestore
gsave
/o {
gsave
newpath
translate
0.8 setlinewidth
1 setlinejoin
0 setlinecap
0 0 m
-3.5 0 l

gsave
0.000 setgray
fill
grestore
stroke
grestore
} bind def
40.5438 167.209 o
grestore
/DejaVuSans findfont
7.000 scalefont
setfont
gsave
17.965625 164.552446 translate
0.000000 rotate
0.000000 0 m /one glyphshow
4.453613 0 m /period glyphshow
6.678711 0 m /zero glyphshow
11.132324 0 m /zero glyphshow
grestore
gsave
/o {
gsave
newpath
translate
0.8 setlinewidth
1 setlinejoin
0 setlinecap
0 0 m
-3.5 0 l

gsave
0.000 setgray
fill
grestore
stroke
grestore
} bind def
40.5438 189.942 o
grestore
gsave
17.965625 187.285416 translate
0.000000 rotate
0.000000 0 m /one glyphshow
4.453613 0 m /period glyphshow
6.678711 0 m /two glyphshow
11.132324 0 m /five glyphshow
grestore
gsave
/o {
gsave
newpath
translate
0.8 setlinewidth
1 setlinejoin
0 setlinecap
0 0 m
-3.5 0 l

gsave
0.000 setgray
fill
grestore
stroke
grestore
} bind def
40.5438 208.516 o
grestore
gsave
17.965625 205.859605 translate
0.000000 rotate
0.000000 0 m /one glyphshow
4.453613 0 m /period glyphshow
6.678711 0 m /five glyphshow
11.132324 0 m /zero glyphshow
grestore
gsave
/o {
gsave
newpath
translate
0.8 setlinewidth
1 setlinejoin
0 setlinecap
0 0 m
-3.5 0 l

gsave
0.000 setgray
fill
grestore
stroke
grestore
} bind def
40.5438 224.22 o
grestore
gsave
17.965625 221.563857 translate
0.000000 rotate
0.000000 0 m /one glyphshow
4.453613 0 m /period glyphshow
6.678711 0 m /seven glyphshow
11.132324 0 m /five glyphshow
grestore
gsave
/o {
gsave
newpath
translate
0.8 setlinewidth
1 setlinejoin
0 setlinecap
0 0 m
-3.5 0 l

gsave
0.000 setgray
fill
grestore
stroke
grestore
} bind def
40.5438 237.824 o
grestore
gsave
17.965625 235.167500 translate
0.000000 rotate
0.000000 0 m /two glyphshow
4.453613 0 m /period glyphshow
6.678711 0 m /zero glyphshow
11.132324 0 m /zero glyphshow
grestore
gsave
12.512500 183.069531 translate
90.000000 rotate
0.000000 0 m /S glyphshow
4.443359 0 m /p glyphshow
8.886719 0 m /e glyphshow
13.193359 0 m /e glyphshow
17.500000 0 m /d glyphshow
21.943359 0 m /u glyphshow
26.379883 0 m /p glyphshow
grestore
1.500 setlinewidth
gsave
282.7 78.7 40.54 159.1 clipbox
45.031627 175.185526 m
45.031627 177.31697 l
stroke
grestore
gsave
282.7 78.7 40.54 159.1 clipbox
56.251319 190.069472 m
56.251319 190.676083 l
stroke
grestore
gsave
282.7 78.7 40.54 159.1 clipbox
67.471012 183.023339 m
67.471012 186.464406 l
stroke
grestore
gsave
282.7 78.7 40.54 159.1 clipbox
78.690704 167.685327 m
78.690704 174.857409 l
stroke
grestore
gsave
282.7 78.7 40.54 159.1 clipbox
89.910397 174.848072 m
89.910397 176.27035 l
stroke
grestore
gsave
282.7 78.7 40.54 159.1 clipbox
101.130089 163.405188 m
101.130089 170.188439 l
stroke
grestore
gsave
282.7 78.7 40.54 159.1 clipbox
112.349782 183.373532 m
112.349782 184.803333 l
stroke
grestore
gsave
282.7 78.7 40.54 159.1 clipbox
123.569474 183.087558 m
123.569474 186.183208 l
stroke
grestore
gsave
282.7 78.7 40.54 159.1 clipbox
134.789167 179.232615 m
134.789167 180.849441 l
stroke
grestore
gsave
282.7 78.7 40.54 159.1 clipbox
146.008859 173.824676 m
146.008859 175.738867 l
stroke
grestore
gsave
282.7 78.7 40.54 159.1 clipbox
157.228552 179.450945 m
157.228552 180.508876 l
stroke
grestore
gsave
282.7 78.7 40.54 159.1 clipbox
168.448244 175.261439 m
168.448244 189.616106 l
stroke
grestore
gsave
282.7 78.7 40.54 159.1 clipbox
179.667937 189.147833 m
179.667937 191.504608 l
stroke
grestore
gsave
282.7 78.7 40.54 159.1 clipbox
190.887629 198.428874 m
190.887629 201.898226 l
stroke
grestore
gsave
282.7 78.7 40.54 159.1 clipbox
202.107321 182.341403 m
202.107321 185.301333 l
stroke
grestore
gsave
282.7 78.7 40.54 159.1 clipbox
213.327014 193.542664 m
213.327014 194.29751 l
stroke
grestore
gsave
282.7 78.7 40.54 159.1 clipbox
224.546706 222.950278 m
224.546706 224.543029 l
stroke
grestore
gsave
282.7 78.7 40.54 159.1 clipbox
235.766399 186.62513 m
235.766399 188.637373 l
stroke
grestore
gsave
282.7 78.7 40.54 159.1 clipbox
246.986091 204.393931 m
246.986091 208.494561 l
stroke
grestore
gsave
282.7 78.7 40.54 159.1 clipbox
258.205784 181.349666 m
258.205784 182.080694 l
stroke
grestore
gsave
282.7 78.7 40.54 159.1 clipbox
269.425476 170.438824 m
269.425476 173.688237 l
stroke
grestore
gsave
282.7 78.7 40.54 159.1 clipbox
280.645169 183.904596 m
280.645169 184.952088 l
stroke
grestore
gsave
282.7 78.7 40.54 159.1 clipbox
291.864861 180.61171 m
291.864861 183.37177 l
stroke
grestore
gsave
282.7 78.7 40.54 159.1 clipbox
303.084554 179.090333 m
303.084554 180.83385 l
stroke
grestore
gsave
282.7 78.7 40.54 159.1 clipbox
314.304246 182.688822 m
314.304246 189.09053 l
stroke
grestore
gsave
282.7 78.7 40.54 159.1 clipbox
49.519504 164.295862 m
49.519504 165.615996 l
stroke
grestore
gsave
282.7 78.7 40.54 159.1 clipbox
60.739196 167.264563 m
60.739196 167.589922 l
stroke
grestore
gsave
282.7 78.7 40.54 159.1 clipbox
71.958889 165.685349 m
71.958889 168.114396 l
stroke
grestore
gsave
282.7 78.7 40.54 159.1 clipbox
83.178581 166.927057 m
83.178581 174.099902 l
stroke
grestore
gsave
282.7 78.7 40.54 159.1 clipbox
94.398274 171.231164 m
94.398274 172.198953 l
stroke
grestore
gsave
282.7 78.7 40.54 159.1 clipbox
105.617966 166.616008 m
105.617966 173.195803 l
stroke
grestore
gsave
282.7 78.7 40.54 159.1 clipbox
116.837659 165.819249 m
116.837659 167.089443 l
stroke
grestore
gsave
282.7 78.7 40.54 159.1 clipbox
128.057351 165.93125 m
128.057351 168.799044 l
stroke
grestore
gsave
282.7 78.7 40.54 159.1 clipbox
139.277044 167.069279 m
139.277044 169.597975 l
stroke
grestore
gsave
282.7 78.7 40.54 159.1 clipbox
150.496736 167.622115 m
150.496736 169.562265 l
stroke
grestore
gsave
282.7 78.7 40.54 159.1 clipbox
161.716429 172.966454 m
161.716429 174.134873 l
stroke
grestore
gsave
282.7 78.7 40.54 159.1 clipbox
172.936121 164.914512 m
172.936121 178.754122 l
stroke
grestore
gsave
282.7 78.7 40.54 159.1 clipbox
184.155813 168.54145 m
184.155813 170.566479 l
stroke
grestore
gsave
282.7 78.7 40.54 159.1 clipbox
195.375506 169.865414 m
195.375506 173.100374 l
stroke
grestore
gsave
282.7 78.7 40.54 159.1 clipbox
206.595198 169.265085 m
206.595198 175.391222 l
stroke
grestore
gsave
282.7 78.7 40.54 159.1 clipbox
217.814891 168.664371 m
217.814891 169.545946 l
stroke
grestore
gsave
282.7 78.7 40.54 159.1 clipbox
229.034583 167.028081 m
229.034583 168.763259 l
stroke
grestore
gsave
282.7 78.7 40.54 159.1 clipbox
240.254276 176.103641 m
240.254276 178.751503 l
stroke
grestore
gsave
282.7 78.7 40.54 159.1 clipbox
251.473968 170.715354 m
251.473968 177.514029 l
stroke
grestore
gsave
282.7 78.7 40.54 159.1 clipbox
262.693661 170.556259 m
262.693661 171.273654 l
stroke
grestore
gsave
282.7 78.7 40.54 159.1 clipbox
273.913353 168.027934 m
273.913353 171.151255 l
stroke
grestore
gsave
282.7 78.7 40.54 159.1 clipbox
285.133046 170.396448 m
285.133046 171.088357 l
stroke
grestore
gsave
282.7 78.7 40.54 159.1 clipbox
296.352738 167.337729 m
296.352738 174.263013 l
stroke
grestore
gsave
282.7 78.7 40.54 159.1 clipbox
307.572431 166.056999 m
307.572431 167.77971 l
stroke
grestore
gsave
282.7 78.7 40.54 159.1 clipbox
318.792123 164.689331 m
318.792123 171.116379 l
stroke
grestore
0.800 setlinewidth
0 setlinejoin
2 setlinecap
[] 0 setdash
gsave
40.54375 159.127812 m
40.54375 237.82375 l
stroke
grestore
gsave
323.28 159.127812 m
323.28 237.82375 l
stroke
grestore
gsave
40.54375 159.127812 m
323.28 159.127812 l
stroke
grestore
gsave
40.54375 237.82375 m
323.28 237.82375 l
stroke
grestore
gsave
40.54375 66.715625 m
323.28 66.715625 l
323.28 145.411562 l
40.54375 145.411562 l
cl
1.000 setgray
fill
grestore
gsave
282.7 78.7 40.54 66.72 clipbox
42.787688 75.323393 m
47.275565 75.323393 l
47.275565 87.838805 l
42.787688 87.838805 l
cl
0.529 setgray
fill
grestore
gsave
282.7 78.7 40.54 66.72 clipbox
54.007381 75.323393 m
58.495258 75.323393 l
58.495258 107.555559 l
54.007381 107.555559 l
cl
0.529 setgray
fill
grestore
gsave
282.7 78.7 40.54 66.72 clipbox
65.227073 75.323393 m
69.71495 75.323393 l
69.71495 83.358628 l
65.227073 83.358628 l
cl
0.376 setgray
fill
grestore
gsave
282.7 78.7 40.54 66.72 clipbox
76.446766 75.323393 m
80.934643 75.323393 l
80.934643 79.269495 l
76.446766 79.269495 l
cl
0.529 setgray
fill
grestore
gsave
282.7 78.7 40.54 66.72 clipbox
87.666458 75.323393 m
92.154335 75.323393 l
92.154335 83.906885 l
87.666458 83.906885 l
cl
0.529 setgray
fill
grestore
gsave
282.7 78.7 40.54 66.72 clipbox
98.886151 75.323393 m
103.374028 75.323393 l
103.374028 73.16725 l
98.886151 73.16725 l
cl
0.376 setgray
fill
grestore
gsave
282.7 78.7 40.54 66.72 clipbox
110.105843 75.323393 m
114.59372 75.323393 l
114.59372 102.866938 l
110.105843 102.866938 l
cl
0.690 setgray
fill
grestore
gsave
282.7 78.7 40.54 66.72 clipbox
121.325536 75.323393 m
125.813413 75.323393 l
125.813413 99.828865 l
121.325536 99.828865 l
cl
0.529 setgray
fill
grestore
gsave
282.7 78.7 40.54 66.72 clipbox
132.545228 75.323393 m
137.033105 75.323393 l
137.033105 85.729006 l
132.545228 85.729006 l
cl
0.529 setgray
fill
grestore
gsave
282.7 78.7 40.54 66.72 clipbox
143.764921 75.323393 m
148.252798 75.323393 l
148.252798 84.541154 l
143.764921 84.541154 l
cl
0.529 setgray
fill
grestore
gsave
282.7 78.7 40.54 66.72 clipbox
154.984613 75.323393 m
159.47249 75.323393 l
159.47249 87.503495 l
154.984613 87.503495 l
cl
0.529 setgray
fill
grestore
gsave
282.7 78.7 40.54 66.72 clipbox
166.204306 75.323393 m
170.692183 75.323393 l
170.692183 120.23244 l
166.204306 120.23244 l
cl
0.529 setgray
fill
grestore
gsave
282.7 78.7 40.54 66.72 clipbox
177.423998 75.323393 m
181.911875 75.323393 l
181.911875 118.086097 l
177.423998 118.086097 l
cl
0.529 setgray
fill
grestore
gsave
282.7 78.7 40.54 66.72 clipbox
188.64369 75.323393 m
193.131567 75.323393 l
193.131567 132.262125 l
188.64369 132.262125 l
cl
0.529 setgray
fill
grestore
gsave
282.7 78.7 40.54 66.72 clipbox
199.863383 75.323393 m
204.35126 75.323393 l
204.35126 92.438494 l
199.863383 92.438494 l
cl
0.529 setgray
fill
grestore
gsave
282.7 78.7 40.54 66.72 clipbox
211.083075 75.323393 m
215.570952 75.323393 l
215.570952 109.419134 l
211.083075 109.419134 l
cl
0.529 setgray
fill
grestore
gsave
282.7 78.7 40.54 66.72 clipbox
222.302768 75.323393 m
226.790645 75.323393 l
226.790645 137.117073 l
222.302768 137.117073 l
cl
0.690 setgray
fill
grestore
gsave
282.7 78.7 40.54 66.72 clipbox
233.52246 75.323393 m
238.010337 75.323393 l
238.010337 98.642502 l
233.52246 98.642502 l
cl
0.529 setgray
fill
grestore
gsave
282.7 78.7 40.54 66.72 clipbox
244.742153 75.323393 m
249.23003 75.323393 l
249.23003 114.433706 l
244.742153 114.433706 l
cl
0.529 setgray
fill
grestore
gsave
282.7 78.7 40.54 66.72 clipbox
255.961845 75.323393 m
260.449722 75.323393 l
260.449722 89.562156 l
255.961845 89.562156 l
cl
0.529 setgray
fill
grestore
gsave
282.7 78.7 40.54 66.72 clipbox
267.181538 75.323393 m
271.669415 75.323393 l
271.669415 81.29659 l
267.181538 81.29659 l
cl
0.529 setgray
fill
grestore
gsave
282.7 78.7 40.54 66.72 clipbox
278.40123 75.323393 m
282.889107 75.323393 l
282.889107 93.122505 l
278.40123 93.122505 l
cl
0.529 setgray
fill
grestore
gsave
282.7 78.7 40.54 66.72 clipbox
289.620923 75.323393 m
294.1088 75.323393 l
294.1088 92.165518 l
289.620923 92.165518 l
cl
0.529 setgray
fill
grestore
gsave
282.7 78.7 40.54 66.72 clipbox
300.840615 75.323393 m
305.328492 75.323393 l
305.328492 86.013152 l
300.840615 86.013152 l
cl
0.529 setgray
fill
grestore
gsave
282.7 78.7 40.54 66.72 clipbox
312.060308 75.323393 m
316.548185 75.323393 l
316.548185 91.291505 l
312.060308 91.291505 l
cl
0.529 setgray
fill
grestore
gsave
282.7 78.7 40.54 66.72 clipbox
47.275565 75.323393 m
51.763442 75.323393 l
51.763442 73.689836 l
47.275565 73.689836 l
cl
gsave
0.529 setgray
fill
grestore
gsave
0.878431 0.878431 0.878431 H0 setpattern fill grestore
grestore
gsave
282.7 78.7 40.54 66.72 clipbox
58.495258 75.323393 m
62.983135 75.323393 l
62.983135 75.490568 l
58.495258 75.490568 l
cl
gsave
0.529 setgray
fill
grestore
gsave
0.878431 0.878431 0.878431 H0 setpattern fill grestore
grestore
gsave
282.7 78.7 40.54 66.72 clipbox
69.71495 75.323393 m
74.202827 75.323393 l
74.202827 74.998847 l
69.71495 74.998847 l
cl
gsave
0.529 setgray
fill
grestore
gsave
0.878431 0.878431 0.878431 H0 setpattern fill grestore
grestore
gsave
282.7 78.7 40.54 66.72 clipbox
80.934643 75.323393 m
85.42252 75.323393 l
85.42252 76.731861 l
80.934643 76.731861 l
cl
gsave
0.529 setgray
fill
grestore
gsave
0.878431 0.878431 0.878431 H0 setpattern fill grestore
grestore
gsave
282.7 78.7 40.54 66.72 clipbox
92.154335 75.323393 m
96.642212 75.323393 l
96.642212 79.766121 l
92.154335 79.766121 l
cl
gsave
0.529 setgray
fill
grestore
gsave
0.878431 0.878431 0.878431 H0 setpattern fill grestore
grestore
gsave
282.7 78.7 40.54 66.72 clipbox
103.374028 75.323393 m
107.861905 75.323393 l
107.861905 75.76953 l
103.374028 75.76953 l
cl
gsave
0.529 setgray
fill
grestore
gsave
0.878431 0.878431 0.878431 H0 setpattern fill grestore
grestore
gsave
282.7 78.7 40.54 66.72 clipbox
114.59372 75.323393 m
119.081597 75.323393 l
119.081597 74.508719 l
114.59372 74.508719 l
cl
gsave
0.529 setgray
fill
grestore
gsave
0.878431 0.878431 0.878431 H0 setpattern fill grestore
grestore
gsave
282.7 78.7 40.54 66.72 clipbox
125.813413 75.323393 m
130.30129 75.323393 l
130.30129 75.02133 l
125.813413 75.02133 l
cl
gsave
0.529 setgray
fill
grestore
gsave
0.878431 0.878431 0.878431 H0 setpattern fill grestore
grestore
gsave
282.7 78.7 40.54 66.72 clipbox
137.033105 75.323393 m
141.520982 75.323393 l
141.520982 75.769728 l
137.033105 75.769728 l
cl
gsave
0.529 setgray
fill
grestore
gsave
0.878431 0.878431 0.878431 H0 setpattern fill grestore
grestore
gsave
282.7 78.7 40.54 66.72 clipbox
148.252798 75.323393 m
152.740675 75.323393 l
152.740675 76.11064 l
148.252798 76.11064 l
cl
gsave
0.529 setgray
fill
grestore
gsave
0.878431 0.878431 0.878431 H0 setpattern fill grestore
grestore
gsave
282.7 78.7 40.54 66.72 clipbox
159.47249 75.323393 m
163.960367 75.323393 l
163.960367 81.05027 l
159.47249 81.05027 l
cl
gsave
0.529 setgray
fill
grestore
gsave
0.878431 0.878431 0.878431 H0 setpattern fill grestore
grestore
gsave
282.7 78.7 40.54 66.72 clipbox
170.692183 75.323393 m
175.18006 75.323393 l
175.18006 74.630078 l
170.692183 74.630078 l
cl
gsave
0.529 setgray
fill
grestore
gsave
0.878431 0.878431 0.878431 H0 setpattern fill grestore
grestore
gsave
282.7 78.7 40.54 66.72 clipbox
181.911875 75.323393 m
186.399752 75.323393 l
186.399752 81.501693 l
181.911875 81.501693 l
cl
gsave
0.529 setgray
fill
grestore
gsave
0.878431 0.878431 0.878431 H0 setpattern fill grestore
grestore
gsave
282.7 78.7 40.54 66.72 clipbox
193.131567 75.323393 m
197.619444 75.323393 l
197.619444 77.321268 l
193.131567 77.321268 l
cl
gsave
0.529 setgray
fill
grestore
gsave
0.878431 0.878431 0.878431 H0 setpattern fill grestore
grestore
gsave
282.7 78.7 40.54 66.72 clipbox
204.35126 75.323393 m
208.839137 75.323393 l
208.839137 81.014303 l
204.35126 81.014303 l
cl
gsave
0.529 setgray
fill
grestore
gsave
0.878431 0.878431 0.878431 H0 setpattern fill grestore
grestore
gsave
282.7 78.7 40.54 66.72 clipbox
215.570952 75.323393 m
220.058829 75.323393 l
220.058829 76.936991 l
215.570952 76.936991 l
cl
gsave
0.529 setgray
fill
grestore
gsave
0.878431 0.878431 0.878431 H0 setpattern fill grestore
grestore
gsave
282.7 78.7 40.54 66.72 clipbox
226.790645 75.323393 m
231.278522 75.323393 l
231.278522 82.758155 l
226.790645 82.758155 l
cl
gsave
0.529 setgray
fill
grestore
gsave
0.878431 0.878431 0.878431 H0 setpattern fill grestore
grestore
gsave
282.7 78.7 40.54 66.72 clipbox
238.010337 75.323393 m
242.498214 75.323393 l
242.498214 86.823627 l
238.010337 86.823627 l
cl
gsave
0.529 setgray
fill
grestore
gsave
0.878431 0.878431 0.878431 H0 setpattern fill grestore
grestore
gsave
282.7 78.7 40.54 66.72 clipbox
249.23003 75.323393 m
253.717907 75.323393 l
253.717907 81.32485 l
249.23003 81.32485 l
cl
gsave
0.529 setgray
fill
grestore
gsave
0.878431 0.878431 0.878431 H0 setpattern fill grestore
grestore
gsave
282.7 78.7 40.54 66.72 clipbox
260.449722 75.323393 m
264.937599 75.323393 l
264.937599 79.087648 l
260.449722 79.087648 l
cl
gsave
0.529 setgray
fill
grestore
gsave
0.878431 0.878431 0.878431 H0 setpattern fill grestore
grestore
gsave
282.7 78.7 40.54 66.72 clipbox
271.669415 75.323393 m
276.157292 75.323393 l
276.157292 77.85472 l
271.669415 77.85472 l
cl
gsave
0.529 setgray
fill
grestore
gsave
0.878431 0.878431 0.878431 H0 setpattern fill grestore
grestore
gsave
282.7 78.7 40.54 66.72 clipbox
282.889107 75.323393 m
287.376984 75.323393 l
287.376984 79.038646 l
282.889107 79.038646 l
cl
gsave
0.529 setgray
fill
grestore
gsave
0.878431 0.878431 0.878431 H0 setpattern fill grestore
grestore
gsave
282.7 78.7 40.54 66.72 clipbox
294.1088 75.323393 m
298.596677 75.323393 l
298.596677 76.650469 l
294.1088 76.650469 l
cl
gsave
0.529 setgray
fill
grestore
gsave
0.878431 0.878431 0.878431 H0 setpattern fill grestore
grestore
gsave
282.7 78.7 40.54 66.72 clipbox
305.328492 75.323393 m
309.816369 75.323393 l
309.816369 74.579466 l
305.328492 74.579466 l
cl
gsave
0.529 setgray
fill
grestore
gsave
0.878431 0.878431 0.878431 H0 setpattern fill grestore
grestore
gsave
282.7 78.7 40.54 66.72 clipbox
316.548185 75.323393 m
321.036062 75.323393 l
321.036062 74.331518 l
316.548185 74.331518 l
cl
gsave
0.529 setgray
fill
grestore
gsave
0.878431 0.878431 0.878431 H0 setpattern fill grestore
grestore
1 setlinejoin
0 setlinecap
[] 0 setdash
gsave
/o {
gsave
newpath
translate
0.8 setlinewidth
1 setlinejoin
0 setlinecap
0 0 m
0 -3.5 l

gsave
0.000 setgray
fill
grestore
stroke
grestore
} bind def
47.2756 66.7156 o
grestore
/DejaVuSans findfont
5.831 scalefont
setfont
gsave
48.799003 32.934375 translate
90.000000 rotate
0.000000 0 m /a glyphshow
3.571426 0 m /i glyphshow
5.190659 0 m /r glyphshow
7.586792 0 m /f glyphshow
9.638580 0 m /o glyphshow
13.204315 0 m /i glyphshow
14.823547 0 m /l glyphshow
16.442780 0 m /underscore glyphshow
19.356842 0 m /two glyphshow
23.064865 0 m /d glyphshow
grestore
gsave
/o {
gsave
newpath
translate
0.8 setlinewidth
1 setlinejoin
0 setlinecap
0 0 m
0 -3.5 l

gsave
0.000 setgray
fill
grestore
stroke
grestore
} bind def
58.4953 66.7156 o
grestore
gsave
60.096820 27.028125 translate
90.000000 rotate
0.000000 0 m /a glyphshow
3.571426 0 m /t glyphshow
5.856567 0 m /m glyphshow
11.533859 0 m /o glyphshow
15.099594 0 m /s glyphshow
18.136017 0 m /m glyphshow
23.813309 0 m /o glyphshow
27.379044 0 m /d glyphshow
31.078537 0 m /j glyphshow
grestore
gsave
/o {
gsave
newpath
translate
0.8 setlinewidth
1 setlinejoin
0 setlinecap
0 0 m
0 -3.5 l

gsave
0.000 setgray
fill
grestore
stroke
grestore
} bind def
69.715 66.7156 o
grestore
gsave
71.316513 50.684375 translate
90.000000 rotate
0.000000 0 m /b glyphshow
3.699493 0 m /i glyphshow
5.318726 0 m /g glyphshow
grestore
gsave
/o {
gsave
newpath
translate
0.8 setlinewidth
1 setlinejoin
0 setlinecap
0 0 m
0 -3.5 l

gsave
0.000 setgray
fill
grestore
stroke
grestore
} bind def
80.9346 66.7156 o
grestore
gsave
82.536205 38.231250 translate
90.000000 rotate
0.000000 0 m /c glyphshow
3.204330 0 m /a glyphshow
6.775757 0 m /g glyphshow
10.475250 0 m /e glyphshow
14.060913 0 m /one glyphshow
17.768936 0 m /one glyphshow
grestore
gsave
/o {
gsave
newpath
translate
0.8 setlinewidth
1 setlinejoin
0 setlinecap
0 0 m
0 -3.5 l

gsave
0.000 setgray
fill
grestore
stroke
grestore
} bind def
92.1543 66.7156 o
grestore
gsave
93.755898 38.231250 translate
90.000000 rotate
0.000000 0 m /c glyphshow
3.204330 0 m /a glyphshow
6.775757 0 m /g glyphshow
10.475250 0 m /e glyphshow
14.060913 0 m /one glyphshow
17.768936 0 m /three glyphshow
grestore
gsave
/o {
gsave
newpath
translate
0.8 setlinewidth
1 setlinejoin
0 setlinecap
0 0 m
0 -3.5 l

gsave
0.000 setgray
fill
grestore
stroke
grestore
} bind def
103.374 66.7156 o
grestore
gsave
104.975590 49.106250 translate
90.000000 rotate
0.000000 0 m /d glyphshow
3.699493 0 m /c glyphshow
6.903824 0 m /one glyphshow
grestore
gsave
/o {
gsave
newpath
translate
0.8 setlinewidth
1 setlinejoin
0 setlinecap
0 0 m
0 -3.5 l

gsave
0.000 setgray
fill
grestore
stroke
grestore
} bind def
114.594 66.7156 o
grestore
gsave
116.195283 43.887500 translate
90.000000 rotate
0.000000 0 m /e glyphshow
3.585663 0 m /c glyphshow
6.789993 0 m /l glyphshow
8.409225 0 m /three glyphshow
12.117249 0 m /two glyphshow
grestore
gsave
/o {
gsave
newpath
translate
0.8 setlinewidth
1 setlinejoin
0 setlinecap
0 0 m
0 -3.5 l

gsave
0.000 setgray
fill
grestore
stroke
grestore
} bind def
125.813 66.7156 o
grestore
gsave
127.414975 45.012500 translate
90.000000 rotate
0.000000 0 m /e glyphshow
3.585663 0 m /p glyphshow
7.285156 0 m /b glyphshow
10.984650 0 m /one glyphshow
grestore
gsave
/o {
gsave
newpath
translate
0.8 setlinewidth
1 setlinejoin
0 setlinecap
0 0 m
0 -3.5 l

gsave
0.000 setgray
fill
grestore
stroke
grestore
} bind def
137.033 66.7156 o
grestore
gsave
138.634668 45.012500 translate
90.000000 rotate
0.000000 0 m /e glyphshow
3.585663 0 m /p glyphshow
7.285156 0 m /b glyphshow
10.984650 0 m /two glyphshow
grestore
gsave
/o {
gsave
newpath
translate
0.8 setlinewidth
1 setlinejoin
0 setlinecap
0 0 m
0 -3.5 l

gsave
0.000 setgray
fill
grestore
stroke
grestore
} bind def
148.253 66.7156 o
grestore
gsave
149.854360 45.012500 translate
90.000000 rotate
0.000000 0 m /e glyphshow
3.585663 0 m /p glyphshow
7.285156 0 m /b glyphshow
10.984650 0 m /three glyphshow
grestore
gsave
/o {
gsave
newpath
translate
0.8 setlinewidth
1 setlinejoin
0 setlinecap
0 0 m
0 -3.5 l

gsave
0.000 setgray
fill
grestore
stroke
grestore
} bind def
159.472 66.7156 o
grestore
gsave
160.995928 7.200000 translate
90.000000 rotate
0.000000 0 m /F glyphshow
3.352310 0 m /E glyphshow
7.034729 0 m /M glyphshow
12.063187 0 m /underscore glyphshow
14.977249 0 m /three glyphshow
18.685272 0 m /D glyphshow
23.173035 0 m /underscore glyphshow
26.087097 0 m /t glyphshow
28.372238 0 m /h glyphshow
32.066040 0 m /e glyphshow
35.651703 0 m /r glyphshow
37.922836 0 m /m glyphshow
43.600128 0 m /a glyphshow
47.171555 0 m /l glyphshow
48.790787 0 m /two glyphshow
grestore
gsave
/o {
gsave
newpath
translate
0.8 setlinewidth
1 setlinejoin
0 setlinecap
0 0 m
0 -3.5 l

gsave
0.000 setgray
fill
grestore
stroke
grestore
} bind def
170.692 66.7156 o
grestore
gsave
172.293745 26.481250 translate
90.000000 rotate
0.000000 0 m /f glyphshow
2.051788 0 m /l glyphshow
3.671021 0 m /o glyphshow
7.236755 0 m /w glyphshow
12.003403 0 m /m glyphshow
17.680695 0 m /e glyphshow
21.266357 0 m /t glyphshow
23.551498 0 m /e glyphshow
27.137161 0 m /r glyphshow
29.533295 0 m /five glyphshow
grestore
gsave
/o {
gsave
newpath
translate
0.8 setlinewidth
1 setlinejoin
0 setlinecap
0 0 m
0 -3.5 l

gsave
0.000 setgray
fill
grestore
stroke
grestore
} bind def
181.912 66.7156 o
grestore
gsave
183.435312 20.262500 translate
90.000000 rotate
0.000000 0 m /G glyphshow
4.516220 0 m /o glyphshow
8.081955 0 m /o glyphshow
11.647690 0 m /d glyphshow
15.347183 0 m /w glyphshow
20.113831 0 m /i glyphshow
21.733063 0 m /n glyphshow
25.426865 0 m /underscore glyphshow
28.340927 0 m /zero glyphshow
32.048950 0 m /four glyphshow
35.756973 0 m /zero glyphshow
grestore
gsave
/o {
gsave
newpath
translate
0.8 setlinewidth
1 setlinejoin
0 setlinecap
0 0 m
0 -3.5 l

gsave
0.000 setgray
fill
grestore
stroke
grestore
} bind def
193.132 66.7156 o
grestore
gsave
194.655005 20.262500 translate
90.000000 rotate
0.000000 0 m /G glyphshow
4.516220 0 m /o glyphshow
8.081955 0 m /o glyphshow
11.647690 0 m /d glyphshow
15.347183 0 m /w glyphshow
20.113831 0 m /i glyphshow
21.733063 0 m /n glyphshow
25.426865 0 m /underscore glyphshow
28.340927 0 m /zero glyphshow
32.048950 0 m /nine glyphshow
35.756973 0 m /five glyphshow
grestore
gsave
/o {
gsave
newpath
translate
0.8 setlinewidth
1 setlinejoin
0 setlinecap
0 0 m
0 -3.5 l

gsave
0.000 setgray
fill
grestore
stroke
grestore
} bind def
204.351 66.7156 o
grestore
gsave
205.952822 32.559375 translate
90.000000 rotate
0.000000 0 m /l glyphshow
1.619232 0 m /a glyphshow
5.190659 0 m /n glyphshow
8.884460 0 m /g glyphshow
12.583954 0 m /u glyphshow
16.277756 0 m /a glyphshow
19.849182 0 m /g glyphshow
23.548676 0 m /e glyphshow
grestore
gsave
/o {
gsave
newpath
translate
0.8 setlinewidth
1 setlinejoin
0 setlinecap
0 0 m
0 -3.5 l

gsave
0.000 setgray
fill
grestore
stroke
grestore
} bind def
215.571 66.7156 o
grestore
gsave
217.172515 35.465625 translate
90.000000 rotate
0.000000 0 m /m glyphshow
5.677292 0 m /a glyphshow
9.248718 0 m /r glyphshow
11.644852 0 m /i glyphshow
13.264084 0 m /n glyphshow
16.957886 0 m /e glyphshow
20.543549 0 m /one glyphshow
grestore
gsave
/o {
gsave
newpath
translate
0.8 setlinewidth
1 setlinejoin
0 setlinecap
0 0 m
0 -3.5 l

gsave
0.000 setgray
fill
grestore
stroke
grestore
} bind def
226.791 66.7156 o
grestore
gsave
228.392207 34.512500 translate
90.000000 rotate
0.000000 0 m /m glyphshow
5.677292 0 m /c glyphshow
8.881622 0 m /two glyphshow
12.589645 0 m /d glyphshow
16.289139 0 m /e glyphshow
19.874802 0 m /p glyphshow
23.574295 0 m /i glyphshow
grestore
gsave
/o {
gsave
newpath
translate
0.8 setlinewidth
1 setlinejoin
0 setlinecap
0 0 m
0 -3.5 l

gsave
0.000 setgray
fill
grestore
stroke
grestore
} bind def
238.01 66.7156 o
grestore
gsave
239.611900 41.231250 translate
90.000000 rotate
0.000000 0 m /n glyphshow
3.693802 0 m /s glyphshow
6.730225 0 m /three glyphshow
10.438248 0 m /D glyphshow
14.926010 0 m /a glyphshow
grestore
gsave
/o {
gsave
newpath
translate
0.8 setlinewidth
1 setlinejoin
0 setlinecap
0 0 m
0 -3.5 l

gsave
0.000 setgray
fill
grestore
stroke
grestore
} bind def
249.23 66.7156 o
grestore
gsave
250.831592 25.621875 translate
90.000000 rotate
0.000000 0 m /p glyphshow
3.699493 0 m /o glyphshow
7.265228 0 m /i glyphshow
8.884460 0 m /s glyphshow
11.920883 0 m /s glyphshow
14.957306 0 m /o glyphshow
18.523041 0 m /n glyphshow
22.216843 0 m /three glyphshow
25.924866 0 m /D glyphshow
30.412628 0 m /b glyphshow
grestore
gsave
/o {
gsave
newpath
translate
0.8 setlinewidth
1 setlinejoin
0 setlinecap
0 0 m
0 -3.5 l

gsave
0.000 setgray
fill
grestore
stroke
grestore
} bind def
260.45 66.7156 o
grestore
gsave
262.051285 34.700000 translate
90.000000 rotate
0.000000 0 m /s glyphshow
3.036423 0 m /t glyphshow
5.321564 0 m /o glyphshow
8.887299 0 m /m glyphshow
14.564590 0 m /a glyphshow
18.136017 0 m /c glyphshow
21.340347 0 m /h glyphshow
grestore
gsave
/o {
gsave
newpath
translate
0.8 setlinewidth
1 setlinejoin
0 setlinecap
0 0 m
0 -3.5 l

gsave
0.000 setgray
fill
grestore
stroke
grestore
} bind def
271.669 66.7156 o
grestore
gsave
273.270977 41.184375 translate
90.000000 rotate
0.000000 0 m /t glyphshow
2.285141 0 m /o glyphshow
5.850876 0 m /r glyphshow
8.247009 0 m /s glyphshow
11.283432 0 m /o glyphshow
14.849167 0 m /two glyphshow
grestore
gsave
/o {
gsave
newpath
translate
0.8 setlinewidth
1 setlinejoin
0 setlinecap
0 0 m
0 -3.5 l

gsave
0.000 setgray
fill
grestore
stroke
grestore
} bind def
282.889 66.7156 o
grestore
gsave
284.490670 41.184375 translate
90.000000 rotate
0.000000 0 m /t glyphshow
2.285141 0 m /o glyphshow
5.850876 0 m /r glyphshow
8.247009 0 m /s glyphshow
11.283432 0 m /o glyphshow
14.849167 0 m /three glyphshow
grestore
gsave
/o {
gsave
newpath
translate
0.8 setlinewidth
1 setlinejoin
0 setlinecap
0 0 m
0 -3.5 l

gsave
0.000 setgray
fill
grestore
stroke
grestore
} bind def
294.109 66.7156 o
grestore
gsave
295.710362 32.465625 translate
90.000000 rotate
0.000000 0 m /v glyphshow
3.449066 0 m /e glyphshow
7.034729 0 m /n glyphshow
10.728531 0 m /k glyphshow
13.978607 0 m /a glyphshow
17.550034 0 m /t glyphshow
19.835175 0 m /zero glyphshow
23.543198 0 m /one glyphshow
grestore
gsave
/o {
gsave
newpath
translate
0.8 setlinewidth
1 setlinejoin
0 setlinecap
0 0 m
0 -3.5 l

gsave
0.000 setgray
fill
grestore
stroke
grestore
} bind def
305.328 66.7156 o
grestore
gsave
306.930055 40.278125 translate
90.000000 rotate
0.000000 0 m /w glyphshow
4.766647 0 m /a glyphshow
8.338074 0 m /n glyphshow
12.031876 0 m /g glyphshow
15.731369 0 m /three glyphshow
grestore
gsave
/o {
gsave
newpath
translate
0.8 setlinewidth
1 setlinejoin
0 setlinecap
0 0 m
0 -3.5 l

gsave
0.000 setgray
fill
grestore
stroke
grestore
} bind def
316.548 66.7156 o
grestore
gsave
318.149747 41.184375 translate
90.000000 rotate
0.000000 0 m /Z glyphshow
3.992599 0 m /h glyphshow
7.686401 0 m /a glyphshow
11.257828 0 m /o glyphshow
14.823563 0 m /one glyphshow
grestore
gsave
/o {
gsave
newpath
translate
0.8 setlinewidth
1 setlinejoin
0 setlinecap
0 0 m
-3.5 0 l

gsave
0.000 setgray
fill
grestore
stroke
grestore
} bind def
40.5438 75.3234 o
grestore
/DejaVuSans findfont
7.000 scalefont
setfont
gsave
17.965625 72.667143 translate
0.000000 rotate
0.000000 0 m /one glyphshow
4.453613 0 m /period glyphshow
6.678711 0 m /zero glyphshow
11.132324 0 m /zero glyphshow
grestore
gsave
/o {
gsave
newpath
translate
0.8 setlinewidth
1 setlinejoin
0 setlinecap
0 0 m
-3.5 0 l

gsave
0.000 setgray
fill
grestore
stroke
grestore
} bind def
40.5438 97.8867 o
grestore
gsave
17.965625 95.230494 translate
0.000000 rotate
0.000000 0 m /one glyphshow
4.453613 0 m /period glyphshow
6.678711 0 m /two glyphshow
11.132324 0 m /five glyphshow
grestore
gsave
/o {
gsave
newpath
translate
0.8 setlinewidth
1 setlinejoin
0 setlinecap
0 0 m
-3.5 0 l

gsave
0.000 setgray
fill
grestore
stroke
grestore
} bind def
40.5438 116.322 o
grestore
gsave
17.965625 113.666094 translate
0.000000 rotate
0.000000 0 m /one glyphshow
4.453613 0 m /period glyphshow
6.678711 0 m /five glyphshow
11.132324 0 m /zero glyphshow
grestore
gsave
/o {
gsave
newpath
translate
0.8 setlinewidth
1 setlinejoin
0 setlinecap
0 0 m
-3.5 0 l

gsave
0.000 setgray
fill
grestore
stroke
grestore
} bind def
40.5438 131.909 o
grestore
gsave
17.965625 129.253172 translate
0.000000 rotate
0.000000 0 m /one glyphshow
4.453613 0 m /period glyphshow
6.678711 0 m /seven glyphshow
11.132324 0 m /five glyphshow
grestore
gsave
/o {
gsave
newpath
translate
0.8 setlinewidth
1 setlinejoin
0 setlinecap
0 0 m
-3.5 0 l

gsave
0.000 setgray
fill
grestore
stroke
grestore
} bind def
40.5438 145.412 o
grestore
gsave
17.965625 142.755312 translate
0.000000 rotate
0.000000 0 m /two glyphshow
4.453613 0 m /period glyphshow
6.678711 0 m /zero glyphshow
11.132324 0 m /zero glyphshow
grestore
gsave
12.512500 90.657344 translate
90.000000 rotate
0.000000 0 m /S glyphshow
4.443359 0 m /p glyphshow
8.886719 0 m /e glyphshow
13.193359 0 m /e glyphshow
17.500000 0 m /d glyphshow
21.943359 0 m /u glyphshow
26.379883 0 m /p glyphshow
grestore
1.500 setlinewidth
gsave
282.7 78.7 40.54 66.72 clipbox
45.031627 87.284497 m
45.031627 91.018503 l
stroke
grestore
gsave
282.7 78.7 40.54 66.72 clipbox
56.251319 107.207698 m
56.251319 108.512357 l
stroke
grestore
gsave
282.7 78.7 40.54 66.72 clipbox
67.471012 83.025171 m
67.471012 84.054397 l
stroke
grestore
gsave
282.7 78.7 40.54 66.72 clipbox
78.690704 77.902817 m
78.690704 79.846265 l
stroke
grestore
gsave
282.7 78.7 40.54 66.72 clipbox
89.910397 83.34246 m
89.910397 84.311805 l
stroke
grestore
gsave
282.7 78.7 40.54 66.72 clipbox
101.130089 72.084295 m
101.130089 74.769051 l
stroke
grestore
gsave
282.7 78.7 40.54 66.72 clipbox
112.349782 102.446769 m
112.349782 103.266251 l
stroke
grestore
gsave
282.7 78.7 40.54 66.72 clipbox
123.569474 99.525287 m
123.569474 102.5763 l
stroke
grestore
gsave
282.7 78.7 40.54 66.72 clipbox
134.789167 84.106519 m
134.789167 87.055839 l
stroke
grestore
gsave
282.7 78.7 40.54 66.72 clipbox
146.008859 84.162451 m
146.008859 84.831689 l
stroke
grestore
gsave
282.7 78.7 40.54 66.72 clipbox
157.228552 86.739327 m
157.228552 88.74934 l
stroke
grestore
gsave
282.7 78.7 40.54 66.72 clipbox
168.448244 118.412718 m
168.448244 130.172391 l
stroke
grestore
gsave
282.7 78.7 40.54 66.72 clipbox
179.667937 117.228353 m
179.667937 118.880478 l
stroke
grestore
gsave
282.7 78.7 40.54 66.72 clipbox
190.887629 131.993517 m
190.887629 133.462938 l
stroke
grestore
gsave
282.7 78.7 40.54 66.72 clipbox
202.107321 91.604684 m
202.107321 97.116098 l
stroke
grestore
gsave
282.7 78.7 40.54 66.72 clipbox
213.327014 108.50742 m
213.327014 111.99345 l
stroke
grestore
gsave
282.7 78.7 40.54 66.72 clipbox
224.546706 133.992549 m
224.546706 138.952445 l
stroke
grestore
gsave
282.7 78.7 40.54 66.72 clipbox
235.766399 96.62899 m
235.766399 100.932614 l
stroke
grestore
gsave
282.7 78.7 40.54 66.72 clipbox
246.986091 111.53826 m
246.986091 116.473104 l
stroke
grestore
gsave
282.7 78.7 40.54 66.72 clipbox
258.205784 89.180291 m
258.205784 90.398881 l
stroke
grestore
gsave
282.7 78.7 40.54 66.72 clipbox
269.425476 78.778588 m
269.425476 81.914685 l
stroke
grestore
gsave
282.7 78.7 40.54 66.72 clipbox
280.645169 92.675926 m
280.645169 93.575693 l
stroke
grestore
gsave
282.7 78.7 40.54 66.72 clipbox
291.864861 91.660264 m
291.864861 98.543589 l
stroke
grestore
gsave
282.7 78.7 40.54 66.72 clipbox
303.084554 85.589232 m
303.084554 88.451803 l
stroke
grestore
gsave
282.7 78.7 40.54 66.72 clipbox
314.304246 88.737054 m
314.304246 93.791145 l
stroke
grestore
gsave
282.7 78.7 40.54 66.72 clipbox
49.519504 72.46829 m
49.519504 76.611542 l
stroke
grestore
gsave
282.7 78.7 40.54 66.72 clipbox
60.739196 74.677557 m
60.739196 76.296735 l
stroke
grestore
gsave
282.7 78.7 40.54 66.72 clipbox
71.958889 74.559924 m
71.958889 75.309761 l
stroke
grestore
gsave
282.7 78.7 40.54 66.72 clipbox
83.178581 75.634998 m
83.178581 77.263981 l
stroke
grestore
gsave
282.7 78.7 40.54 66.72 clipbox
94.398274 77.768937 m
94.398274 80.505046 l
stroke
grestore
gsave
282.7 78.7 40.54 66.72 clipbox
105.617966 74.795822 m
105.617966 77.285825 l
stroke
grestore
gsave
282.7 78.7 40.54 66.72 clipbox
116.837659 74.272237 m
116.837659 75.108717 l
stroke
grestore
gsave
282.7 78.7 40.54 66.72 clipbox
128.057351 74.739606 m
128.057351 77.937083 l
stroke
grestore
gsave
282.7 78.7 40.54 66.72 clipbox
139.277044 74.243836 m
139.277044 76.771727 l
stroke
grestore
gsave
282.7 78.7 40.54 66.72 clipbox
150.496736 75.722975 m
150.496736 76.510666 l
stroke
grestore
gsave
282.7 78.7 40.54 66.72 clipbox
161.716429 79.750264 m
161.716429 82.117494 l
stroke
grestore
gsave
282.7 78.7 40.54 66.72 clipbox
172.936121 73.502402 m
172.936121 84.160617 l
stroke
grestore
gsave
282.7 78.7 40.54 66.72 clipbox
184.155813 80.338731 m
184.155813 82.532225 l
stroke
grestore
gsave
282.7 78.7 40.54 66.72 clipbox
195.375506 76.876315 m
195.375506 78.776818 l
stroke
grestore
gsave
282.7 78.7 40.54 66.72 clipbox
206.595198 77.276339 m
206.595198 83.536541 l
stroke
grestore
gsave
282.7 78.7 40.54 66.72 clipbox
217.814891 75.990262 m
217.814891 77.20959 l
stroke
grestore
gsave
282.7 78.7 40.54 66.72 clipbox
229.034583 79.953056 m
229.034583 84.303608 l
stroke
grestore
gsave
282.7 78.7 40.54 66.72 clipbox
240.254276 84.915815 m
240.254276 89.401632 l
stroke
grestore
gsave
282.7 78.7 40.54 66.72 clipbox
251.473968 78.354851 m
251.473968 85.460022 l
stroke
grestore
gsave
282.7 78.7 40.54 66.72 clipbox
262.693661 78.904243 m
262.693661 79.677423 l
stroke
grestore
gsave
282.7 78.7 40.54 66.72 clipbox
273.913353 77.294416 m
273.913353 79.355335 l
stroke
grestore
gsave
282.7 78.7 40.54 66.72 clipbox
285.133046 78.714011 m
285.133046 79.584561 l
stroke
grestore
gsave
282.7 78.7 40.54 66.72 clipbox
296.352738 74.619594 m
296.352738 86.627309 l
stroke
grestore
gsave
282.7 78.7 40.54 66.72 clipbox
307.572431 74.110994 m
307.572431 76.549105 l
stroke
grestore
gsave
282.7 78.7 40.54 66.72 clipbox
318.792123 71.616766 m
318.792123 77.133385 l
stroke
grestore
0.800 setlinewidth
0 setlinejoin
2 setlinecap
[] 0 setdash
gsave
40.54375 66.715625 m
40.54375 145.411562 l
stroke
grestore
gsave
323.28 66.715625 m
323.28 145.411562 l
stroke
grestore
gsave
40.54375 66.715625 m
323.28 66.715625 l
stroke
grestore
gsave
40.54375 145.411562 m
323.28 145.411562 l
stroke
grestore
1.000 setlinewidth
0 setlinecap
0.800 setgray
gsave
235.290625 214.64 m
326.3 214.64 l
327.233333 214.64 327.7 215.106667 327.7 216.04 c
327.7 256.4025 l
327.7 257.335833 327.233333 257.8025 326.3 257.8025 c
235.290625 257.8025 l
234.357292 257.8025 233.890625 257.335833 233.890625 256.4025 c
233.890625 216.04 l
233.890625 215.106667 234.357292 214.64 235.290625 214.64 c
cl
gsave
1.000 setgray
fill
grestore
stroke
grestore
0.376 setgray
gsave
236.690625 249.69 m
250.690625 249.69 l
250.690625 254.59 l
236.690625 254.59 l
cl
gsave
fill
grestore
stroke
grestore
0.000 setgray
gsave
256.290625 249.690000 translate
0.000000 rotate
0.000000 0 m /M glyphshow
6.039551 0 m /o glyphshow
10.322266 0 m /r glyphshow
13.075195 0 m /e glyphshow
17.381836 0 m /space glyphshow
19.606934 0 m /i glyphshow
21.551758 0 m /t glyphshow
24.296387 0 m /e glyphshow
28.603027 0 m /r glyphshow
31.480957 0 m /a glyphshow
35.770508 0 m /t glyphshow
38.515137 0 m /i glyphshow
40.459961 0 m /o glyphshow
44.742676 0 m /n glyphshow
49.179199 0 m /s glyphshow
grestore
0.529 setgray
gsave
236.690625 239.424375 m
250.690625 239.424375 l
250.690625 244.324375 l
236.690625 244.324375 l
cl
gsave
fill
grestore
stroke
grestore
0.000 setgray
gsave
256.290625 239.424375 translate
0.000000 rotate
0.000000 0 m /S glyphshow
4.443359 0 m /a glyphshow
8.732910 0 m /m glyphshow
15.551758 0 m /e glyphshow
19.858398 0 m /space glyphshow
22.083496 0 m /i glyphshow
24.028320 0 m /t glyphshow
26.772949 0 m /e glyphshow
31.079590 0 m /r glyphshow
33.957520 0 m /a glyphshow
38.247070 0 m /t glyphshow
40.991699 0 m /i glyphshow
42.936523 0 m /o glyphshow
47.219238 0 m /n glyphshow
51.655762 0 m /s glyphshow
grestore
0.690 setgray
gsave
236.690625 229.15875 m
250.690625 229.15875 l
250.690625 234.05875 l
236.690625 234.05875 l
cl
gsave
fill
grestore
stroke
grestore
0.000 setgray
gsave
256.290625 229.158750 translate
0.000000 rotate
0.000000 0 m /F glyphshow
3.651367 0 m /e glyphshow
7.958008 0 m /w glyphshow
13.683105 0 m /e glyphshow
17.989746 0 m /r glyphshow
20.867676 0 m /space glyphshow
23.092773 0 m /i glyphshow
25.037598 0 m /t glyphshow
27.782227 0 m /e glyphshow
32.088867 0 m /r glyphshow
34.966797 0 m /a glyphshow
39.256348 0 m /t glyphshow
42.000977 0 m /i glyphshow
43.945801 0 m /o glyphshow
48.228516 0 m /n glyphshow
52.665039 0 m /s glyphshow
grestore
gsave
236.690625 218.893125 m
250.690625 218.893125 l
250.690625 223.793125 l
236.690625 223.793125 l
cl
gsave
0.529 setgray
fill
grestore
gsave
0.878431 0.878431 0.878431 H0 setpattern fill grestore
grestore
gsave
256.290625 218.893125 translate
0.000000 rotate
0.000000 0 m /S glyphshow
4.443359 0 m /i glyphshow
6.388184 0 m /n glyphshow
10.824707 0 m /g glyphshow
15.268066 0 m /l glyphshow
17.212891 0 m /e glyphshow
21.519531 0 m /hyphen glyphshow
24.045410 0 m /p glyphshow
28.488770 0 m /r glyphshow
31.241699 0 m /e glyphshow
35.548340 0 m /c glyphshow
39.396973 0 m /i glyphshow
41.341797 0 m /s glyphshow
44.988770 0 m /i glyphshow
46.933594 0 m /o glyphshow
51.216309 0 m /n glyphshow
55.652832 0 m /space glyphshow
57.877930 0 m /I glyphshow
59.942383 0 m /L glyphshow
63.467285 0 m /U glyphshow
grestore

end
showpage
